:100000000090FFFF5A907A909A90BA90DA90FA9006
:100010001A913A915A917A919A91BA91DA91FA9108
:100020001A923A925A927A9200009A92BA92DA927C
:10003000FA921A933A935A937A939A93BA93000046
:10004000DA93FA931A943A945A94000000007A943E
:100050009A94BA94DA94FA941A953A955A957A95AC
:1000600000009A950000BA95DA95FA951A963A9694
:100070005A967A969A96BA96DA9600000000000090
:0400C000F6FFC884FB
:0A00C4000000000000000000000032
:0A00CE00FFFFFFFFFFFFFFFFFFFF32
:10900000CBF800FD30BCD3FC7BB400FC7AB4003656
:1090100098D030BCD3EF04CC0000A747DFF936204E
:10902000FE3020FEEF04CC0000A747DFF9410132FB
:10903000980DEF08B31149F8024800C3F643DFF476
:109040004101320000EF08B3114990104820FEF6AC
:1090500043DFF4FC10BE00F6EFFEC1C3C5C78EFDB2
:10906000708EFCC18F02FD9EFCFB00FD61FAC09E6C
:10907000FC609EFDC6C4C2C061FCC1C3C5C78EFDF5
:10908000708EFCC18F06FD9EFCFB04FD61FAC09E44
:10909000FC609EFDC6C4C2C061FCC1C3C5C78EFDD5
:1090A000708EFCC18F0AFD9EFCFB08FD61FAC09E1C
:1090B000FC609EFDC6C4C2C061FCC1C3C5C78EFDB5
:1090C000708EFCC18F0EFD9EFCFB0CFD61FAC09EF4
:1090D000FC609EFDC6C4C2C061FCC1C3C5C78EFD95
:1090E000708EFCC18F12FD9EFCFB10FD61FAC09ECC
:1090F000FC609EFDC6C4C2C061FCC1C3C5C78EFD75
:10910000708EFCC18F16FD9EFCFB14FD61FAC09EA3
:10911000FC609EFDC6C4C2C061FCC1C3C5C78EFD54
:10912000708EFCC18F1AFD9EFCFB18FD61FAC09E7B
:10913000FC609EFDC6C4C2C061FCC1C3C5C78EFD34
:10914000708EFCC18F1EFD9EFCFB1CFD61FAC09E53
:10915000FC609EFDC6C4C2C061FCC1C3C5C78EFD14
:10916000708EFCC18F22FD9EFCFB20FD61FAC09E2B
:10917000FC609EFDC6C4C2C061FCC1C3C5C78EFDF4
:10918000708EFCC18F26FD9EFCFB24FD61FAC09E03
:10919000FC609EFDC6C4C2C061FCC1C3C5C78EFDD4
:1091A000708EFCC18F2AFD9EFCFB28FD61FAC09EDB
:1091B000FC609EFDC6C4C2C061FCC1C3C5C78EFDB4
:1091C000708EFCC18F2EFD9EFCFB2CFD61FAC09EB3
:1091D000FC609EFDC6C4C2C061FCC1C3C5C78EFD94
:1091E000708EFCC18F32FD9EFCFB30FD61FAC09E8B
:1091F000FC609EFDC6C4C2C061FCC1C3C5C78EFD74
:10920000708EFCC18F36FD9EFCFB34FD61FAC09E62
:10921000FC609EFDC6C4C2C061FCC1C3C5C78EFD53
:10922000708EFCC18F3AFD9EFCFB38FD61FAC09E3A
:10923000FC609EFDC6C4C2C061FCC1C3C5C78EFD33
:10924000708EFCC18F3EFD9EFCFB3CFD61FAC09E12
:10925000FC609EFDC6C4C2C061FCC1C3C5C78EFD13
:10926000708EFCC18F42FD9EFCFB40FD61FAC09EEA
:10927000FC609EFDC6C4C2C061FCC1C3C5C78EFDF3
:10928000708EFCC18F46FD9EFCFB44FD61FAC09EC2
:10929000FC609EFDC6C4C2C061FCC1C3C5C78EFDD3
:1092A000708EFCC18F4EFD9EFCFB4CFD61FAC09E92
:1092B000FC609EFDC6C4C2C061FCC1C3C5C78EFDB3
:1092C000708EFCC18F52FD9EFCFB50FD61FAC09E6A
:1092D000FC609EFDC6C4C2C061FCC1C3C5C78EFD93
:1092E000708EFCC18F56FD9EFCFB54FD61FAC09E42
:1092F000FC609EFDC6C4C2C061FCC1C3C5C78EFD73
:10930000708EFCC18F5AFD9EFCFB58FD61FAC09E19
:10931000FC609EFDC6C4C2C061FCC1C3C5C78EFD52
:10932000708EFCC18F5EFD9EFCFB5CFD61FAC09EF1
:10933000FC609EFDC6C4C2C061FCC1C3C5C78EFD32
:10934000708EFCC18F62FD9EFCFB60FD61FAC09EC9
:10935000FC609EFDC6C4C2C061FCC1C3C5C78EFD12
:10936000708EFCC18F66FD9EFCFB64FD61FAC09EA1
:10937000FC609EFDC6C4C2C061FCC1C3C5C78EFDF2
:10938000708EFCC18F6AFD9EFCFB68FD61FAC09E79
:10939000FC609EFDC6C4C2C061FCC1C3C5C78EFDD2
:1093A000708EFCC18F6EFD9EFCFB6CFD61FAC09E51
:1093B000FC609EFDC6C4C2C061FCC1C3C5C78EFDB2
:1093C000708EFCC18F72FD9EFCFB70FD61FAC09E29
:1093D000FC609EFDC6C4C2C061FCC1C3C5C78EFD92
:1093E000708EFCC18F76FD9EFCFB74FD61FAC09E01
:1093F000FC609EFDC6C4C2C061FCC1C3C5C78EFD72
:10940000708EFCC18F7AFD9EFCFB78FD61FAC09ED8
:10941000FC609EFDC6C4C2C061FCC1C3C5C78EFD51
:10942000708EFCC18F7EFD9EFCFB7CFD61FAC09EB0
:10943000FC609EFDC6C4C2C061FCC1C3C5C78EFD31
:10944000708EFCC18F82FD9EFCFB80FD61FAC09E88
:10945000FC609EFDC6C4C2C061FCC1C3C5C78EFD11
:10946000708EFCC18F86FD9EFCFB84FD61FAC09E60
:10947000FC609EFDC6C4C2C061FCC1C3C5C78EFDF1
:10948000708EFCC18F8AFD9EFCFB88FD61FAC09E38
:10949000FC609EFDC6C4C2C061FCC1C3C5C78EFDD1
:1094A000708EFCC18F8EFD9EFCFB8CFD61FAC09E10
:1094B000FC609EFDC6C4C2C061FCC1C3C5C78EFDB1
:1094C000708EFCC18F92FD9EFCFB90FD61FAC09EE8
:1094D000FC609EFDC6C4C2C061FCC1C3C5C78EFD91
:1094E000708EFCC18F96FD9EFCFB94FD61FAC09EC0
:1094F000FC609EFDC6C4C2C061FCC1C3C5C78EFD71
:10950000708EFCC18F9AFD9EFCFB98FD61FAC09E97
:10951000FC609EFDC6C4C2C061FCC1C3C5C78EFD50
:10952000708EFCC18F9EFD9EFCFB9CFD61FAC09E6F
:10953000FC609EFDC6C4C2C061FCC1C3C5C78EFD30
:10954000708EFCC18FA2FD9EFCFBA0FD61FAC09E47
:10955000FC609EFDC6C4C2C061FCC1C3C5C78EFD10
:10956000708EFCC18FA6FD9EFCFBA4FD61FAC09E1F
:10957000FC609EFDC6C4C2C061FCC1C3C5C78EFDF0
:10958000708EFCC18FAAFD9EFCFBA8FD61FAC09EF7
:10959000FC609EFDC6C4C2C061FCC1C3C5C78EFDD0
:1095A000708EFCC18FAEFD9EFCFBACFD61FAC09ECF
:1095B000FC609EFDC6C4C2C061FCC1C3C5C78EFDB0
:1095C000708EFCC18FB2FD9EFCFBB0FD61FAC09EA7
:1095D000FC609EFDC6C4C2C061FCC1C3C5C78EFD90
:1095E000708EFCC18FB6FD9EFCFBB4FD61FAC09E7F
:1095F000FC609EFDC6C4C2C061FCC1C3C5C78EFD70
:10960000708EFCC18FBAFD9EFCFBB8FD61FAC09E56
:10961000FC609EFDC6C4C2C061FCC1C3C5C78EFD4F
:10962000708EFCC18FBEFD9EFCFBBCFD61FAC09E2E
:10963000FC609EFDC6C4C2C061FCC1C3C5C78EFD2F
:10964000708EFCC18FC2FD9EFCFBC0FD61FAC09E06
:10965000FC609EFDC6C4C2C061FCC1C3C5C78EFD0F
:10966000708EFCC18FC6FD9EFCFBC4FD61FAC09EDE
:10967000FC609EFDC6C4C2C061FCC1C3C5C78EFDEF
:10968000708EFCC18FCAFD9EFCFBC8FD61FAC09EB6
:10969000FC609EFDC6C4C2C061FCC1C3C5C78EFDCF
:1096A000708EFCC18FCEFD9EFCFBCCFD61FAC09E8E
:1096B000FC609EFDC6C4C2C061FCC1C3C5C78EFDAF
:1096C000708EFCC18FD2FD9EFCFBD0FD61FAC09E66
:1096D000FC609EFDC6C4C2C061FCC1C3C5C78EFD8F
:1096E000708EFCC18FD6FD9EFCFBD4FD61FAC09E3E
:0A96F000FC609EFDC6C4C2C061FC10
:1096FA0071109008D70071189008D700C7C5C3C168
:10970A00712090088EFDC1410036F09732F09834EE
:10971A00800A11ABB9A7A7A5A51743DFF5C09EFD1F
:10972A00C0C2C4C6D700C7C5C3C1721516348008E3
:10973A00F6B9A5A53544C00835DFF68EFDC1629E8F
:10974A00FD3182A13DF1114E0261E8710091089F3D
:10975A000308114E0061E8E19F010830800814BF38
:10976A000408118C0199410E114FE8FFDC1411F91C
:10977A00E9FF6142DC0C5200FCF8FF0E7100900810
:0D978A00EF025205C09EFDC062C2C4C6D7EA
:10979800C35208FE310061F8EC800A0F511FC2D78E
:1097A800C35204EF0DC35200EF08C35202EF03C3C4
:1097B8005206FE270061F8EC800A0F511FC2D7003D
:1097C800C151FF500FEF1AC151475007EF13C15154
:1097D800475007EF0CC151475047EF05C151F750AB
:0897E800075F90086148C0D73B
:1097F000C7C5C18EFC758EFD74CEFC0F69740B61FC
:10980000CBFCC4080F624CFFDD47714890087178AB
:1098100090088F9008315539510F9EFCAF92086126
:10982000CB5203EF065206EF025208A80016410E73
:1098300011AFE6FF47DC1817312D9F0208609F012A
:1098400008F50008F50308300004BF0608EF65526C
:1098500005659EFC649EFDC062C4C6C2D7A8001602
:109860008C00708C01BF04088C025C03DFE18C0566
:10987000D1DFDC8C06D1DDD74C41DED370F1312D48
:10988000BF0608B1B1C5148C02708C03BF00080577
:10989000358C049F02081C0035161570C4DCB041DD
:1098A0000E66113FDFFF67113FE0FF60113FE1FFF0
:1098B000DE9D520413FCF8FF0E624CFFDF938F9184
:1098C0000831031071409008604C0361F87170908A
:1098D00008EE7DFFFCC4080FEFDF00000000000071
:1098E00000000000B10AB50AB90AED0A910A0000A9
:1098F000C116F645DD094900009BA3A7B5EFF3C0EB
:10990000D7F7F6D7C031730AA80405148806611288
:1099100015D7D0DFECA8043525148806613215D799
:1099200060616D616CC0DF06317A6158DD16F6B199
:1099300012D767D1DDCE86D0DF63A8066168DF5D10
:1099400061E8C2C015D74C19DEF8A8080876880A65
:10995000B808C80A0051086123DD6AEF4D14880772
:109960007C80980715148807617BF0C1130116A845
:10997000080147DF08A8064561F8C8000161D30A5D
:10998000A80635B806A80833B80813014CFFDD90C7
:1099900077A80801D176DD9AE1317D980867612EBC
:1099A0005600DD22C3734C08DE9C880A311A980ADF
:1099B000A80861FB0861FB08B8086661FB61D87103
:1099C0008A7693DFE5C2C00151806162615BC1DCD0
:1099D00037A806051488086112DE1D62311A721557
:1099E00061FB0861FB08146661FB61D8718A7687A8
:1099F0008761F8EC269F0097130167311E12173517
:109A0000EC3E9F00C0F7F6D7D0DFF9F1612E7688E3
:109A10000661348807613588086132623173D9176D
:109A20006433650897DD07311C61EE3175F6087403
:109A30000167311E3308618CEC3E9F00C0F6B11205
:109A4000D716A8066168616EDFF2130181DDED6152
:109A5000F8C0C2F2F6D716A8066168616EDD17C3BA
:109A6000880A72A808FC2E9F00B80813B80AC267BB
:109A7000318FC1EF3FC0130108616D616C61E8E196
:109A80006108DDB8EC269F0060616D616CDDC21578
:109A9000FC2E9F001467318F16EF27148807617B17
:109AA0005C80C1A8080181DD9891DDAA76E1311EB4
:109AB000B80877C7130181DDBC91DDCC76E1311E9A
:109AC000127717C62716A8063525C1880A6132C045
:109AD000DE0B0161FE05C1880A6112C0B7C7318C77
:109AE00072318D61DD717BFACFE80080BEF013BE6C
:109AF000F215BEF6A80CBEF4CFE800818FE8003165
:109B000003FAFBF0FFDBE200AFE00061CD318C72C5
:109B1000318D61DD717BFACFE80080BEF013BEF2BB
:109B200015BEF6A80CBEF4CFE800818FE800310323
:109B3000FAEBF0FFDBE200AFE00061CD318C723177
:109B40008DC761DD717BFACFE80080BEF013BEF2F5
:109B5000A80CBEF6A80EBEF4CFE800818FE8003155
:109B600003FAFBE200DBE000AEF061CD64141361A8
:109B700068616F6166C2C0047E00317324A144FF36
:109B80000061C8EC269F006208311E121561FB08B7
:109B900061FB08DE0604010061D8A314C0616315EF
:109BA000D744E8FF61D8EEA9FE90660835E333316B
:109BB0001E3361FB0861FB08618C61FB61D8718A0F
:109BC000618C85DFE9EC3E9F00C3C1FCD59E00D1CE
:109BD000DD0AFC9D9E0061F8E161E8F11004D7C345
:109BE000C1FCD59E00D1DD0AFC9D9E0061F3E161C0
:109BF000E3F11004D7C3C1FCD59E00D1DD0AFC9D62
:109C00009E0061D8E161C8F11004D7C0F6B112D747
:109C100016A8066168616EDFF2130108616D616C60
:109C200061E8E16108DDE4EC269F001301D1DD0C61
:109C3000A80635B806A80833B808EF24C2F2F6D74C
:109C400060616D616CDDF515FC2E9F001467318F2E
:109C500057000716EF29148807617B5C80C1A808AC
:109C60000181DDAC91DDC476E1311EB808130181BC
:109C7000DDA791DDCB6106F161DC77E1311E12C712
:109C8000A80861DD717BFAF5E800BEF015BEF200B0
:109C9000FBF6FFAEF461CDC73561DD717BFAF5E807
:109CA00000BEF0A80EBEF200FBF4FFAEF661CD05DB
:109CB0001461D8A713880CD6073361DD717BFAF5E0
:109CC000E800BEF0A80CBEF200FBF4FFAEF661CDDA
:109CD0000514666112676113C0616861E8E161643F
:109CE000C66331730715011461FE61D8A71724807C
:109CF00000317317A144FF0061C8EC269F00636127
:109D00000108311E336508EC3E9F0044E8FF61D82E
:109D1000EE29FF3533311E3361FB0861FB61D871D9
:109D20008A0884DFEF35EFD63331730533ECF19ECB
:109D300000F7F6D7618A14618BD633D635D6610A1F
:109D4000610CD761DD717BFAF5E800BEF0A808BEB2
:109D5000F200EBF6FFA806BEF200AEF40514AEF674
:109D600033BEF000AEF661CD0533D72C08618C31DF
:109D70008E618B618A618C4C08DEF0D1618CDD0BC9
:109D8000311E33311E3371F994DFF5D7B1D714F694
:109D900043DDF9161331750486F623121531750368
:109DA00086F625FCD09D0096DF0312F623D716F623
:109DB0004337DD193175048614F6253331750314E4
:109DC000F62533FCF89D0096DF0312F623D7B1D7B2
:109DD00014F643DDF91561DD717BFACFE80080BE32
:109DE000F013BEF6F6BEF2BEF4CFE800818FE800B5
:109DF0003103FAAEF061CDD714F64315DD2261DDF3
:109E0000717BFACFE80080BEF013BEF6F6BEF2BE5C
:109E1000F4CFE800818FE8003103FAAFE00061CDB4
:109E2000D7C0F6B112D7C1FBF8FFA80661686E086B
:109E30006E09DDEDC061DD717BFACFE80080BEF018
:109E400013BEF2AC06BEF6AC08BEF4CFE800818FBC
:109E5000E8003103FADBF2FFAEF061CDD7C0D7C125
:109E6000FBF8FFA80661686E086E09DDF0C061DDD1
:109E7000717BFACFE80080BEF013BEF2AC06BEF6EE
:109E8000AC08BEF4CFE800818FE8003103FADBE2D2
:109E900000AFE00061CDD75400EC519F00FBF8FF0C
:109EA000AC0E1271FCAC0671FFDC1161490EAC0402
:109EB00061F861490C8C0761E871FFD70161686E38
:109EC000056E04311C616B616A6E0D6E0CD18C07DE
:109ED00061E871FCD7311C83E3DD0ED3DD09A80EE8
:109EE0000112A80C83DD02E1D76168616ADDECF143
:109EF000D7161301550061D8854C9FDE252C7FDCD9
:109F000021318C3371FA3370511F612861487467B5
:109F10007266F0DC06642C107413F7C5FC759D00A6
:109F2000C4D7F7F675D732807FC06163F6D7570183
:109F30003308311C61DC973175F8318E33D7163117
:109F40001E641C7FDE06A7F64761F8A3C061631795
:109F5000D70361C8DD442333559E440000DF06511A
:109F6000106125F13331730A9501311C61D8A1319B
:109F700075F6618A4C80618ADC11DF0633718C339F
:109F8000DE0983DF0604010061D885618C718C6372
:0B9F9000083561FB0871F9081215D7B5
:109F9C000F0F0F0F0F0F0F0F0F0F140000004600C5
:109FAC0000009100000000051000DF070000F00722
:109FBC000000F1070000B69F00000400020132000F
:109FCC0000008813000010000000000099E0000061
:109FDC0017002700000000005FE3000006001100DE
:109FEC0000000000DAE10000060000020000FF03A0
:109FFC00000000040000FF05000000060000FF0741
:10A00C00000000080000FF090000000A0000FF0F1C
:10A01C000000FFFFFF000000000000000000000037
:10A02C00000000000000000000000000F00700002D
:10A03C00FF070000000010000000000001000000FD
:10A04C0068EB00004ECE01020000FF07000000008C
:10A05C001000000000000100010068EB000060CE61
:10A06C0003020000FF0700000000100000000000C9
:10A07C000100020068EB000072CEEA070000FF0747
:10A08C00000000001000000000000100030068EB5D
:10A09C00000084CEF107000000000000000010005A
:10A0AC00000000000000040000000000000001009F
:10A0BC000000000000000000100000000000000084
:10A0CC000700000000000000000600000000000077
:10A0DC00000010000000000000000600000000005E
:10A0EC000000000000001400000007DC000000006D
:10A0FC00000001000000D007000005F70000BE00C2
:10A10C00010002000000D007000005F70000CF009E
:10A11C000100030000001400000005F7000000001F
:10A12C000000070000001400010000000000070000
:10A13C0000001E000200000000000000000096302D
:10A14C0007772C610EEEBA51099919C46D078FF47B
:10A15C006A7035A563E9A395649E3288DB0EA4B8BA
:10A16C00DC791EE9D5E088D9D2972B4CB609BD7C99
:10A17C00B17E072DB8E7911DBF906410B71DF2207A
:10A18C00B06A4871B9F3DE41BE847DD4DA1AEBE4CF
:10A19C00DD6D51B5D4F4C785D38356986C13C0A824
:10A1AC006B647AF962FDECC9658A4F5C0114D96C59
:10A1BC000663633D0FFAF50D088DC8206E3B5E10EB
:10A1CC00694CE44160D5727167A2D1E4033C47D479
:10A1DC00044BFD850DD26BB50AA5FAA8B5356C9864
:10A1EC00B242D6C9BBDB40F9BCACE36CD832755C6F
:10A1FC00DF45CF0DD6DC593DD1ABAC30D9263A007A
:10A20C00DE518051D7C81661D0BFB5F4B42123C438
:10A21C00B3569995BACF0FA5BDB89EB80228088839
:10A22C00055FB2D90CC624E90BB1877C6F2F114C9A
:10A23C006858AB1D61C13D2D66B69041DC76067148
:10A24C00DB01BC20D2982A10D5EF8985B1711FB5DE
:10A25C00B606A5E4BF9F33D4B8E8A2C9077834F991
:10A26C00000F8EA8099618980EE1BB0D6A7F2D3D44
:10A27C006D08976C6491015C63E6F4516B6B6261E1
:10A28C006C1CD83065854E0062F2ED95066C7BA592
:10A29C00011BC1F4088257C40FF5C6D9B06550E94B
:10A2AC00B712EAB8BE8B7C88B9FCDF1DDD62492D84
:10A2BC00DA15F37CD38C654CD4FB5861B24DCE517E
:10A2CC00B53A7400BCA3E230BBD441A5DF4AD795A4
:10A2DC00D83D6DC4D1A4FBF4D6D36AE96943FCD94B
:10A2EC006E34468867ADD0B860DA732D0444E51D32
:10A2FC0003335F4C0AAAC97C0DDD3C710550AA41A1
:10A30C00022710100BBE86200CC925B56857B385E3
:10A31C006F2009D466B99FE461CE0EF9DE5E98C950
:10A32C00D9292298D0B0B4A8D7C7173DB359810DFD
:10A33C00B42E3B5CBDB7AD6CBAC02083B8EDB6B3E0
:10A34C00BF9A0CE2B6039AD2B1743947D5EAAF770B
:10A35C00D29D1526DB048316DC73120B63E3843B5E
:10A36C0064943E6A6D0DA85A6A7A0BCF0EE49DFF79
:10A37C00099327AE000AB19E077D44930FF0D2A338
:10A38C00088768F2011EFEC206695D5762F7CB674B
:10A39C00658071366C19E7066B6E761BD4FEE02B6C
:10A3AC00D3895A7ADA10CC4ADD676FDFB9F9F9EF45
:10A3BC00BE8E43BEB717D58EB060E8A3D6D67E93BB
:10A3CC00D1A1C4C2D83852F2DF4FF167BBD1675765
:10A3DC00BCA6DD06B53F4B36B248DA2B0DD84C1B6C
:10A3EC000AAFF64A0336607A0441C3EF60DF55DFEB
:10A3FC0067A8EF8E6E3179BE69468CB361CB1A8338
:10A40C0066BCA0D26F2536E2685295770CCC034718
:10A41C000BBBB91602222F260555BE3BBAC5280B1D
:10A42C00BDB2925AB42B046AB35CA7FFD7C231CF2A
:10A43C00D0B58B9ED92C1DAEDE5BB0C2649B26F2D0
:10A44C0063EC9CA36A750A936D02A906099C3F36BE
:10A45C000EEB8567077213570005824ABF95147A75
:10A46C00B8E2AE2BB17B381BB60C9B8ED2920DBED4
:10A47C00D5E5B7EFDC7C21DFDB0BD4D2D38642E20F
:10A48C00D4F1F8B3DD686E83DA1FCD16BE815B267E
:10A49C00B9F6E177B06F7747B718E65A0888706A53
:10A4AC000FFFCA3B06665C0B0111FF9E658F69AE00
:10A4BC0062F8D3FF6B6145CF6C1678E20AA0EED23E
:10A4CC000DD75483044EC2B30339612667A7F71620
:10A4DC0060D04D476949DB776E3E4A6AD1AEDC5A93
:10A4EC00D6D9660BDF40F03BD83753AEBCA9C59E1E
:10A4FC00BBDE7FCFB247E9FFB5301CF2BDBD8AC2CF
:10A50C00BACA3093B353A6A3B4240536D0BA930673
:10A51C00D7CD2957DE54BF67D9232E7A66B3B84AF4
:10A52C0061C4021B685D942B6F2A37BE0BB4A18EDD
:10A53C000CC31BDF055A8DEF022D0001AAB10103DC
:10A54C0042AD0202D2A50303DEAA040156B00501F6
:10A55C006AB006017EB0070192B00801A6B00901ED
:10A56C00BAB00A01CEB00B01E2B00C01F6B00D018D
:10A57C000AB10E011EB10F0132B1100146B1110129
:10A58C005AB1120196B1130A76AC140A12AA150626
:10A59C00E2A61602BEB11702AAB218016EB11901D9
:10A5AC0082B11A0172B31B0142B01C012EB01D0105
:10A5BC001AB01E0106B01F01F2AF2001DEAF21015F
:10A5CC00CAAF2201B6AF000BDAA5010B5EA60002E2
:10A5DC0006A601020EA6020216A603021EA604027D
:10A5EC0026A605022EA6060236A607023EA60802DD
:10A5FC0046A609024EA60F0256A60303010E02033D
:10A60C00000B03030106020300000303010A02030B
:10A61C00000D0303010E02030005030301060203F0
:10A62C0000060303010C020300070303010C0203E1
:10A63C00000F03030106020300010303010E0203D2
:10A64C00000F0303010E020300070303010E0203B4
:10A65C00000B00028AA6010292A602029AA603022D
:10A66C00A2A60402AAA60502B2A60602BAA6070270
:10A67C00C2A60802CAA60902D2A60F02DAA60103D4
:10A68C00010E0003000B010301060003000001038F
:10A69C00010A0003000D0103010E00030005010374
:10A6AC000106000300060103010C0003000701036F
:10A6BC00010C0003000F010301060003000101035C
:10A6CC00010E0003000F0103010E0003000701033C
:10A6DC00010000030000000BFAA6010B7EA7020B81
:10A6EC0002A8030B86A8040B0AA9050B8EA900026D
:10A6FC0026A701022EA7020236A703023EA70402D8
:10A70C0046A705024EA7060256A707025EA7080237
:10A71C0066A709026EA70F0276A71B03000B1A038C
:10A72C00010E1B0300001A0301061B0300071A038A
:10A73C00010C1B0300051A03010E1B03000C1A036A
:10A74C0001061B03000D1A03010A1B03000F1A0359
:10A75C00010A1B0300001A03010E1B03000F1A034E
:10A76C00010E1B03000D1A03010E1B03000B1A0331
:10A77C00010E0002AAA70102B2A70202BAA70302A5
:10A78C00C2A70402CAA70502D2A70602DAA70702CB
:10A79C00E2A70802EAA70902F2A70F02FAA71D0313
:10A7AC00000B1C03010E1D0300001C0301061D03FE
:10A7BC0000071C03010C1D0300051C03010E1D03E7
:10A7CC00000C1C0301061D03000D1C03010A1D03D4
:10A7DC00000F1C03010A1D0300001C03010E1D03C6
:10A7EC00000F1C03010E1D03000D1C03010E1D03A5
:10A7FC00000B1C03010E00022EA8010236A8020257
:10A80C003EA8030246A804024EA8050256A806025A
:10A81C005EA8070266A808026EA8090276A80F02B5
:10A82C007EA81F03000B1E03010E1F0300001E0356
:10A83C0001061F0300071E03010C1F0300051E0366
:10A84C00010E1F03000C1E0301061F03000D1E0347
:10A85C00010A1F03000F1E03010A1F0300001E0341
:10A86C00010E1F03000F1E03010E1F03000D1E031C
:10A87C00010E1F0300001E0301000002B2A801021A
:10A88C00BAA80202C2A80302CAA80402D2A80502EE
:10A89C00DAA80602E2A80702EAA80802F2A809024E
:10A8AC00FAA80F0202A92103000B2003010E2103B9
:10A8BC00000020030106210300072003010C2103E3
:10A8CC0000052003010E2103000C200301062103C7
:10A8DC00000D2003010A2103000F2003010A2103AC
:10A8EC0000002003010E2103000F2003010E2103A1
:10A8FC00000D2003010E21030000200301000002C3
:10A90C0036A901023EA9020246A903024EA904027D
:10A91C0056A905025EA9060266A907026EA90802DD
:10A92C0076A909027EA90F0286A92303000B220334
:10A93C00010E230300002203010623030007220358
:10A94C00010C230300052203010E2303000C220338
:10A95C0001062303000D2203010A2303000F220327
:10A96C00010A230300002203010E2303000F22031C
:10A97C00010E2303000D2203010E2303000022030A
:10A98C0001000002BAA90102C2A90202CAA903026B
:10A99C00D2A90402DAA90502E2A90602EAA9070271
:10A9AC00F2A90802FAA9090202AA0F020AAA2503AF
:10A9BC00000B2403010E25030000240301062503CC
:10A9CC0000072403010C250300052403010E2503B5
:10A9DC00000C240301062503000D2403010A2503A2
:10A9EC00000F2403010A250300002403010E250394
:10A9FC00000F2403010E2503000D2403010E250373
:10AA0C0000002403010000033AAA01024EAA02022C
:10AA1C005EAA03026EAA04027EAA05028EAA060290
:10AA2C009EAA0702AEAA0802BEAA0902CEAA01017A
:10AA3C0046AA0F014AAA00014AAA04030D02040304
:10AA4C000D00010156AA0F015AAA04030B040403BA
:10AA5C000B00010166AA0F016AAA0403070804038C
:10AA6C000700010176AA0F017AAA0503070805035E
:10AA7C000700010186AA0F018AAA05030B0405032E
:10AA8C000B00010196AA0F019AAA05030D020503FA
:10AA9C000D000101A6AA0F01AAAA06030E010603C6
:10AAAC000E000101B6AA0F01BAAA06030D02060395
:10AABC000D000101C6AA0F01CAAA06030B04060366
:10AACC000B000101D6AA0F01DAAA06030708060338
:10AADC000700000BEAAA010B6EAB020BF2AB0002F3
:10AAEC0016AB01021EAB020226AB03022EAB040214
:10AAFC0036AB05023EAB060246AB07024EAB080274
:10AB0C0056AB09025EAB0F0266AB2F03010E2E0390
:10AB1C00000B2F0301062E0300002F03010A2E0346
:10AB2C00000D2F03010E2E0300052F0301062E032B
:10AB3C0000062F03010C2E0300072F03010C2E031C
:10AB4C00000F2F0301062E0300012F03010E2E030D
:10AB5C00000F2F03010E2E0300072F03010E2E03EF
:10AB6C00000B00029AAB0102A2AB0202AAAB0302D9
:10AB7C00B2AB0402BAAB0502C2AB0602CAAB070207
:10AB8C00D2AB0802DAAB0902E2AB0F02EAAB2D033F
:10AB9C00010E2B03000B2D0301062B0300002D03CC
:10ABAC00010A2B03000D2D03010E2B0300052D03B1
:10ABBC0001062B0300062D03010C2B0300072D03AC
:10ABCC00010C2B03000F2D0301062B0300012D0399
:10ABDC00010E2B03000F2D03010E2B0300072D0379
:10ABEC0001002B03000000021EAC010226AC020285
:10ABFC002EAC030236AC04023EAC050246AC060297
:10AC0C004EAC070256AC08025EAC090266AC0F02F1
:10AC1C006EAC2A03010E2903000B2A03010629033B
:10AC2C0000002A03010A2903000D2A03010E29033F
:10AC3C0000052A030106290300062A03010C290337
:10AC4C0000072A03010C2903000F2A03010629031C
:10AC5C0000012A03010E2903000F2A03010E290308
:10AC6C0000072A0301002903000000039EAC010227
:10AC7C00B2AC0202C2AC0302D2AC0402E2AC0502DA
:10AC8C00F2AC060202AD070212AD080222AD0902B7
:10AC9C0032AD0101AAAC0F01AEAC0001AEAC280381
:10ACAC000B0428030B000101BAAC0F01BEAC280346
:10ACBC000708280307000101CAAC0F01CEAC27031B
:10ACCC000708270307000101DAAC0F01DEAC2703EC
:10ACDC000B0427030B000101EAAC0F01EEAC2703B8
:10ACEC000D0227030D000101FAAC0F01FEAC260387
:10ACFC000D0226030D0001010AAD0F010EAD260356
:10AD0C000B0426030B0001011AAD0F011EAD260327
:10AD1C0007082603070001012AAD0F012EAD2403FD
:10AD2C000E0124030E0001013AAD0F013EAD2203CA
:10AD3C000E0122030E00000C4EAD010D6EAE020290
:10AD4C00A6AF00057EAD010592AD0205A6AD0305CB
:10AD5C00BAAD0405CEAD0505E2AD0605F6AD0705A9
:10AD6C000AAE08051EAE090532AE0F0546AE480503
:10AD7C005AAE13030D021203000F1103000D100342
:10AD8C0008070F030D0213030D001203000011033B
:10AD9C000008100308070F030D0213030D02120322
:10ADAC00000B1103000F100308060F030D02130311
:10ADBC000D021203000A1103000F100308070F0302
:10ADCC000D0213030D001203000E1103000A1003F1
:10ADDC0008070F030D0213030D021203000E1103DB
:10ADEC00000F100308030F030D0213030D021203CF
:10ADFC00000F1103000F100308030F030D021303C0
:10AE0C000D00120300081103000C100308070F03B8
:10AE1C000D0213030D021203000F1103000F100398
:10AE2C0008070F030D0213030D021203000E11038A
:10AE3C00000F100308070F030D0213030D0012037C
:10AE4C00000011030000100308000F030D00130392
:10AE5C000D021203000F1103000A100308070F0361
:10AE6C000D020005A2AE0105B6AE0205CAAE030581
:10AE7C00DEAE0405F2AE050506AF06051AAF0705F2
:10AE8C002EAF080542AF090556AF0F056AAF47054F
:10AE9C007EAF430592AF19030D021603000F150385
:10AEAC00000D1403080713030E0119030D001603FC
:10AEBC000000150300081403080713030E011903FF
:10AECC000D021603000B1503000F140308061303E1
:10AEDC000E0119030D021603000A1503000F1403CB
:10AEEC00080713030E0119030D001603000E1503BA
:10AEFC00000A1403080713030E0119030D021603AD
:10AF0C00000E1503000F1403080313030E0119039D
:10AF1C000D021603000F1503000F1403080313038F
:10AF2C000E0119030D00160300081503000C140381
:10AF3C00080713030E0119030D021603000F150366
:10AF4C00000F1403080713030E0119030D02160357
:10AF5C00000E1503000F1403080713030E01190349
:10AF6C000D00160300001503000014030800130362
:10AF7C000E0019030D021603000F1503000D140328
:10AF8C00080313030E0119030D021603000F15031A
:10AF9C00000D1403080013030E010F01AEAF0101E5
:10AFAC00B2AF19030B0019030B040002BAAF000176
:10AFBC00C2AF0101C6AF0D030E000D030E0100025E
:10AFCC00CEAF0001D6AF0101DAAF09030E000903C1
:10AFDC000E010002E2AF0001EAAF0101EEAF070380
:10AFEC000E0007030E010002F6AF0001FEAF0101D7
:10AFFC0002B01E030E001E030E0100020AB0000177
:10B00C0012B0010116B02D030E002D030E0100022B
:10B01C001EB0000126B001012AB001030E0001038D
:10B02C000E01000232B000013AB001013EB0030340
:10B03C000E0003030E01000246B000014EB00101E8
:10B04C0052B02A030E002A030E0100025AB000016E
:10B05C0062B0010166B020030E0020030E01000255
:10B06C006EB0000176B001017AB00F0307000F0338
:10B07C000708000282B000018AB001018EB02703DC
:10B08C000E0027030E01000296B000019EB00101D4
:10B09C00A2B028030D0028030D020002AAB0000183
:10B0AC00B2B00101B6B028030E0028030E01000255
:10B0BC00BEB00001C6B00101CAB004030E00040307
:10B0CC000E010002D2B00001DAB00101DEB00503BE
:10B0DC000E0005030E010002E6B00001EEB0010106
:10B0EC00F2B00F030B000F030B040002FAB00001C7
:10B0FC0002B1010106B119030E0019030E01000281
:10B10C000EB1000116B101011AB11A030E001A0397
:10B11C000E01000222B100012AB101012EB11C0363
:10B12C000E001C030E01000236B100013EB10101FC
:10B13C0042B10F030E000F030E0100024AB10001D1
:10B14C0052B1010156B11903070019030708000297
:10B15C005EB1000166B101016AB11403070014036A
:10B16C000708000272B100017AB101017EB113032C
:10B17C00070013030708000286B100018EB101011C
:10B18C0092B113030B0013030B0400029AB10001DC
:10B19C00A2B10101A6B110030700100307080002B9
:10B1AC00AEB10001B6B10101BAB126030E002603FF
:10B1BC000E01000BC6B101084AB20002F2B1010245
:10B1CC00FAB1020202B203020AB2040212B205027E
:10B1DC001AB2060222B207022AB2080232B20902DD
:10B1EC003AB20F0242B20803000B0703010E080328
:10B1FC00000007030106080300070703010C0803FE
:10B20C0000050703010E0803000C070301060803E1
:10B21C00000D0703010A0803000F0703010A0803C6
:10B22C0000000703010E0803000F0703010E0803BB
:10B23C00000D0703010E08030000070301000002C4
:10B24C006AB2010272B202027AB2030282B2040240
:10B25C008AB2050292B208029AB20F02A2B20A0393
:10B26C00000B0903010E0A030000090301060A037F
:10B27C0000070903010C0A0300050903010E0A0368
:10B28C00000C090301060A03000D0903010A0A0355
:10B29C00000F0903010E0A03000009030100000B53
:10B2AC00B2B2010536B30002DEB20102E6B202020E
:10B2BC00EEB20302F6B20402FEB2050206B30602B7
:10B2CC000EB3070216B308021EB3090226B30F020F
:10B2DC002EB30C03000B0B03010E0C0300000B032D
:10B2EC0001060C0300070B03010C0C0300050B03F8
:10B2FC00010E0C03000C0B0301060C03000D0B03D9
:10B30C00010A0C03000F0B03010A0C0300000B03D2
:10B31C00010E0C03000F0B03010E0C03000D0B03AD
:10B32C00010E0C0300000B03010000024AB30102E2
:10B33C0052B302025AB3080262B30F026AB30E038D
:10B34C00000B0D03010E0E0300000D0301060E038E
:10B35C0000070D03010C0E03000F0D03010E0E036D
:10B36C0000000D030100000276B300017EB3010161
:10B37C0082B30B030E000B030E010000010003004F
:10B38C0007000A000F001200140032005000640085
:10B39C009600C800F4012003E803D007B80BA00FF7
:10B3AC007017401F1027D430983A5C44204EE45755
:10B3BC00A8613075B888409CC8AF50C3D8D660EA35
:10B3CC00FFFF050005000500050008000A000D0040
:10B3DC000F001200160019001C001E0023002B0089
:10B3EC00320037003C004100440048004B004E0046
:10B3FC0050005300550058005A005D005F0060007B
:10B40C00620063006300640064000000F107000048
:10B41C0008010000EB07000008020000010000001A
:10B42C0008030100F00700000808010001020000F9
:10B43C00080D010003020000080E0100EA070000DD
:02B44C00080FE7
:10B44E0030C641C1306D4EC1DB96D0AF94D0FC43B7
:10B45E009D001004043930BF94D061D8A313BF9659
:0CB46E00D05C7FD7BF94D0F6BF96D0D73B
:10B47A00D716C80300AEF82761D339315E12F643F6
:10B48A00DD27BBBC02BC04BC06BC08BC0ABC0CBCA5
:10B49A000EBC10BC12BC14BC16BC18BC1ABC1CBC1A
:10B4AA001E3704200037B3EFD6AEF847DD06F6BBE9
:10B4BA00A7A7EFF5D773CFF20010712B3DCE270166
:10B4CA00CD0702CFCE0503300001BFC00563FECD14
:10B4DA000036D0FF30003FBFE60571F3717BD471AF
:10B4EA00E3716BD471D3715BD4FE5A00307E81BF95
:10B4FA00E005D773CFF20010712B3DCE2701CD079F
:10B50A000230FF00BFE005AFE0056168DFF963FEC6
:10B51A008C0036D0FF30003FBFE60571F3717BD453
:10B52A0071E3716BD471D3715BD4FE1900AFE4057A
:10B53A00F743DF0BD5E305DF0630FF80BFE00530B8
:10B54A007E81BFE005D72006FE7A00C804073016C0
:10B55A00B4B802A8021489D1DF1FA8021204060097
:10B56A00B800130407001613A1A1148B77A912C4FB
:10B57A00C5897067FE8200EF1491DF11A8021204D8
:10B58A0007001613A1A114A9128BFEEC00A802044D
:10B59A000800B8028804919804DFB81006D791DD34
:10B5AA000E91DD1191DD0391DD16E5EA05EF0ACF73
:10B5BA00EA0507EF04CFEA0503300401BFEC05D71B
:10B5CA00F5EA05EFF4F1735010D604000616F66199
:10B5DA00D8A1040F00609EFD17086C0E08143006EF
:10B5EA000011B9E011B917086C0908148311895CB4
:10B5FA00F81199634C10DFCED7C3C1C75010D604D7
:10B60A000006B800F661D8A1040F00126298039EE2
:10B61A00FDA80014086C0908161511CC0001086C65
:10B62A000A0816F611BB15086C0C0816A804312D69
:10B63A005C1F085CFC0811BB15086C08081457004D
:10B64A0011CA0008880270676148DD15318E14A896
:10B65A000005141361D8A1609EFD11CA000087EF8E
:10B66A00E388039EFDA800086C0E0814301E001122
:10B67A00B930000111B91006D7C75010D604000618
:10B68A00B800F661D8A1040F00609EFDA800140856
:10B69A006C0908161511CC0011086C0A0816F61167
:10B6AA00BB15086C0C0814312C135C1F085CFC08D1
:10B6BA0011B9A800086C0E081430160911B9300027
:10B6CA000111B9C0D7C120085010D604000614F6DB
:10B6DA0061D8A1040F00B80415086C0E08B80688D2
:10B6EA000498029EFDA80616118B31135088029EFB
:10B6FA00FDE611BB118B9803310339F198098808CB
:10B70A007088096148DD1D318E1605B800A80461EC
:10B71A00D8A1609EFD1703168B77A80037119B8866
:10B72A000981EFD888029EFDA8061430000111B9DC
:10B73A00510211B988033115040000EFF7100AD736
:10B74A002006E6A1BFE8058FEE055010D6040006D4
:10B75A00B804F661D8A1040F00B802880298009EC6
:10B76A00FDA80412086C0E081411A95C20085C04D8
:10B77A00086168DD4F88009EFD30040011B9130886
:10B78A006C080814118998019FA0D013086C0C0842
:10B79A001411A9312E5C0716F198008801708800EF
:10B7AA006148DEB74C08DEB3318E12A8040314A830
:10B7BA000261D8A1609EFD88007311891898D0880B
:10B7CA000081EFD5F6C1C7D9A0D03498D0F2F1FCE8
:10B7DA00CEE800100AD7301C00BFE805D730200099
:10B7EA00BFE805D7301008BFE005AFE00560313586
:10B7FA00F9D7300800BFE005D7FEE8FF300018BFD0
:10B80A00E005AFE005603145F9D734E005300800BE
:10B81A00B9301008B9D734F00036F000F67182BAA0
:10B82A00C650FFBAC4715AE6715BE2716AE6716B7F
:10B83A00E2715AEE715BEA716BEE716AEA30461098
:10B84A00BAA2C91A0000AACE085CFD08BACEAACCD0
:10B85A00085CFD08BACCAACA085CFD08BACAF6BADE
:10B86A00A4CB64FF7CAACE085CFB08BACEAACC089B
:10B87A005CFB08BACCAACA085CFB08BACACF60004B
:10B88A0002CF610007F5620051086F70009F7000D7
:10B89A0051106F29FF9E29D734B201715BE2715BA7
:10B8AA00E6A9086C0208B9D734B401A9086C0208E1
:10B8BA00B9715AE6715BE2D734B201716BE2716B0E
:10B8CA00E6A9086C0408B9D734B401A9086C0408BD
:10B8DA00B9716AE6716BE2D77120F0003410023058
:10B8EA007000BA2650FFBA24715AD6715BD2711A07
:10B8FA00D7711BD3715ADE715BDA711ADF711BDBE8
:10B90A00300108B9CB90FF7CAA2E085CFE08BA2E3B
:10B91A00AA2C085CFE08BA2CAA2A085CFE08BA2AD5
:10B92A00300904BA08CB980000AA2E086C1008BA8D
:10B93A002EAA2C085CEF08BA2CAA28085CEF08BAD1
:10B94A0028AA2A086C1008BA2AF56900F56A005173
:10B95A00FC5F7C009F7C005A06BF51BF5F26FF9E9A
:10B96A0026D7343202715BD2715BD6711BD3711B3D
:10B97A00D7AA08086C1008BA08A9086C1108B9CB2C
:10B98A00980000D7AF3802F743DFF9343402A90828
:10B99A006C1108B9AA06085CEF08BA06715AD67182
:10B9AA005BD2711AD7711BD3D7F6C15005C1E00219
:10B9BA0000C314F71361D8A10202C3BF02C315BFA3
:10B9CA0000C3E602ACCE141361D8A102AECEBFAE5C
:10B9DA00CE15BFACCEAF00C3DB02C3FC5F9E001026
:10B9EA000403DF0561C8E50AC3F6C130E803C1AF45
:10B9FA0000C3DB02C3FC5F9E00100403DF0561C8BD
:10BA0A00E50BC3D514C3DF1BA208C3AF08C3322892
:10BA1A000AFCF89D00F743DF0AF6BF08C3E5DEC358
:10BA2A00E514C3401CC301DF2DF6C130E803C1E6AB
:10BA3A000204C312F661D8A10206C3BF06C313BF2C
:10BA4A0004C3AF04C3DB06C3FC5F9E00100403DF1C
:10BA5A000561C8E50CC3D7E6020EC312F661D8A188
:10BA6A000210C3BF10C313BF0EC3A212C3D7D7D7C6
:10BA7A0014446500DC0430640014318D1215316DF4
:10BA8A0003BE98D7C7F6C130F0FFC1228201B804BD
:10BA9A00AF0EC3DB10C3FC439D00100414A80005BD
:10BAAA0061D8A30212C361D8A3C4D7C91AF0FFD7B9
:10BABA00F6BF10C3BF0EC3BF12C3D7345000CE4067
:10BACA0010CA00FFCA01CFCA03FFCA05F0CA073C61
:10BADA00CA08FF8A096CEF9A09CE4100CE4262D7A2
:10BAEA00717A41D7717B41D7716A41D7716B41D75E
:10BAFA00CE4000D7CE4010D734F3001504360016D6
:10BB0A00CA0010CEA000717AA1714BA4CA050071B7
:10BB1A00A3716AA1716BA4710BA1CA0601D78EA881
:10BB2A00D78D069D06CF6F0003E56E00CE22FFCEAD
:10BB3A0026DFD736E4FF7182710BE0710BEC710BD3
:10BB4A00E87183D7CEABACD7D7717BFAFC28BB00A0
:10BB5A00FC02BB00FC2BBB00FC3FF100FC20B80040
:10BB6A00FCE2B800FC3DBB00FCC5BA00FC1FF300B8
:10BB7A00FC37F1008FEACFFCBFB400FC33F000F5CC
:10BB8A007800F5FC00D7717AFA3052BBBF00FDCFBE
:10BB9A0002FD003061BABF54FDCF56FD0030B3B983
:10BBAA00BF58FDCF5AFD003078BABFC0FDCFC2FDE5
:10BBBA00003079BABFD0FDCFD2FD00304AB7BF906E
:10BBCA00FDCF92FD0030E0B7BF88FDCF8AFD00307F
:10BBDA00E7B7BF8CFDCF8EFD003058F2BF74FDCFA2
:10BBEA0076FD003071F3BF1CFDCF1EFD00FCC2B80C
:10BBFA0000FC63F300FCA7EB00FC86FA0040C0C31C
:10BC0A000161F8ECB4F500D7C7D515C361E8EE8336
:10BC1A0000D50AC3DDF3F50AC3FC4EBB00FCBBEB3F
:10BC2A0000FC75F300FCDBBC00FC73C800401AC3BF
:10BC3A0001DF5BD514C361F8FC19CA00FC31F400BA
:10BC4A00FCD0FF00FC3AC0004014C301DF408FC0A3
:10BC5A00C39800914C02DE1CF6C1501EC1AF00C34E
:10BC6A00DB02C3FC5F9E00100403DF08DC068800C9
:10BC7A00FC37C900F6C15064C1AF00C3DB02C3FC84
:10BC8A005F9E00100403DF0661C8FC63BD00FE0569
:10BC9A0000EE7DFFC0D7403ECE01DF26E60216C386
:10BCAA0012BF16C3F661D8A10218C3BF18C36168D0
:10BCBA001361F8440300DF0AE515C3F6BF18C3BFD2
:10BCCA0016C3D734780041008971FA9911F500003A
:10BCDA00D78F44CF4C0161F8EF06D161F8EF3FD717
:10BCEA00D51BC3DF38FC22F800FC6CB900FC37F125
:10BCFA0000FCFCB700F5C0C3FCC4C800FCFEBA00D7
:10BD0A00FCF2BA00FCEABA00FC0BFC00FCB5BA0073
:10BD1A00FCA2B800F514C3E51BC3E51AC3D7401B40
:10BD2A00C301DF1CCF14C302FCBBF700FCB2B8008E
:10BD3A00FC35F700FC02C900F51BC3F51AC3EF0175
:10BD4A00D7FCEEBA00FCF6BA00FC8EB900FCEEB7DE
:10BD5A0000FCFABA00EC3BF1004045CF01DF2FE5C9
:10BD6A001CC3D577C3DF1BF530CFF6BF28CFE2FC63
:10BD7A0088C200AF28CF5214FCCAC600F576C3E5C4
:10BD8A0077C38F31CF318EE2FC85C600EF4ACF1CD4
:10BD9A00C3024077C301DF16F577C3F6BF06C3BFF8
:10BDAA0028CFBF04C3E50CC3F58FC3F530CF8F305E
:10BDBA00CF318EE2FC57C200AF28CF5214FCCAC65C
:10BDCA0000DB26CFAF24CF5415FC93C2008F32CFAD
:10BDDA00318E5202FC61C700F945CF8F31CF318EC7
:10BDEA005313FCE2C200AF2ACF5203FC9DC700DB0B
:10BDFA002CCFAF2ECF341617FCCEC700511AFC2E0B
:10BE0A00C800EC73C000FC53BB00FC90BB00FC12E2
:10BE1A00BC00FCCDBC00EFF6C3C5C7C1F19802A8AF
:10BE2A00000361F8DE33F6C1500AC1A804FC5F9E24
:10BE3A000012A808148806318E051462991004F6B7
:10BE4A00C1500AC1A80A12A804FC269E00B804130D
:10BE5A00B80A1004880281EFC41008D7C12006F678
:10BE6A00B804B802B800A80612A80043DD16FE1BE3
:10BE7A000014A80405B804A80261D8A103B802A84E
:10BE8A0000A1EFE0A80212A8041008D7C1C7F7E67C
:10BE9A0014B800A80216A8004761C312F6C1500AD6
:10BEAA00C115FC439D00100414A800A1EFE310047F
:10BEBA0015D7C3C1201C329C9FC5AEF8041400B824
:10BECA0012340A00FCF09800408FC301DF0D881F6E
:10BEDA0091DF08C81448C81543EF16A800F743A80D
:10BEEA002061F8441800DF04881F4C1761E8EEC58A
:10BEFA0000F6B8083646A5881F4D61E8EEF900F647
:10BF0A00B806A808312DB8100447A51489318E1235
:10BF1A00A8064361C8EEF200A80612A81203B80EDA
:10BF2A00F6B80AB804A8100448A514B80CA9B800B1
:10BF3A0012A806312DB81E0314A589318E12A80441
:10BF4A004361C8EED400A80E14A81E12A80003A1CB
:10BF5A00A116A80A61090016894D61E8EEAE00F63D
:10BF6A00B802B820A80C1613610900A1A114A9B837
:10BF7A000014A804312D160514A589318E14A820A1
:10BF8A004561C8EE8700A80007A1A116A8026109A9
:10BF9A00001415A1A116A9B81E15040300B800A81B
:10BFAA001E14895D77A800376D99A802040400B8A9
:10BFBA0002A820A1EFACA80043A82061F8443C00E5
:10BFCA00DF09881F4C1661F8EE26FFA80043A82057
:10BFDA0061F8440A00DC11AEF804140014C2C3A8C4
:10BFEA0020FC22BE00EE09FF609814881F0CEA4C60
:10BFFA0002DEF2C81500EFED1704040016A808A126
:10C00A00B80844230061D8EEEDFE1022D7A80A042E
:10C01A000400B80AA804A1EE09FFA806A1EEE0FEF2
:10C02A0077F6120C03146799A313443000DFF3D791
:10C03A00E60222C314BF22C3F661D8A10224C312A6
:10C04A00BF24C3F6C15064C115FC5F9E00100403EF
:10C05A00DF0EDC0CE526C3E527C3E528C3E529C3C3
:10C06A00D7F6BF24C3BF22C3D78F38CF9F2BC38F26
:10C07A0039CF9F2FC38F3ACF9F33C38F3BCF9F3781
:10C08A00C38F3FCF9F3BC38F3ECF9F3FC38F3DCFD1
:10C09A009F43C38F3CCF9F47C38F43CF9F4BC38FD1
:10C0AA0040CF9F4FC38F41CF9F53C38F42CF9F57DC
:10C0BA00C38F33CF9F5BC38F34CF9F5FC38F37CF7D
:10C0CA009F63C38F35CF9F67C38F36CF9F6BC3FEE6
:10C0DA000600FE5600EEA5002008302AC3B800C8A4
:10C0EA000211A800A1B806A1B804A80614A804164B
:10C0FA00894DDF05D574C3DF214C03DF1DA8001469
:10C10A000403001689CC0000340000E7FCBCBE0022
:10C11A00A80616A804148B736399A800040400B82F
:10C12A00008802919802DFBA1008D72008302AC383
:10C13A00B800C80211A800A1B806A1B804A806143C
:10C14A00A80416894DDF05D574C3DF20D1DF1DA8E9
:10C15A0000140403001689CC0000340000F7FCBC6C
:10C16A00BE00A80616A804148B736399A8000404D9
:10C17A0000B8008802919802DFBB1008D72008D5C2
:10C18A0026C361F8EEA300C80211302AC3B800A87A
:10C19A0000A1B806A1B804A80614A8041689734D0C
:10C1AA00DF0AA800040300148991DF3093DD0AA88E
:10C1BA0000040300148991DF23A800140403001665
:10C1CA0089CC0001D575C3E761E8B3340000FCBC33
:10C1DA00BE00A80616A804148B736399A800040469
:10C1EA0000B8008802919802DFA54098C301DF10C9
:10C1FA00AF96C3BF72C312D975C35114FC23C700CB
:10C20A00408EC301DF17AF82C314BF70C3AF80C3B0
:10C21A00BF6EC312D975C35113FC48C600D575C386
:10C22A00F161F8E19F75C3F526C31008D7C753110A
:10C23A00302CC3B800C4C5CA0000A5A80004040075
:10C24A00B800CA000093DFEDF574C3C0D7C3144227
:10C25A0078C3DF0CD576C3DF05E576C3EF06C0D712
:10C26A0015BF78C315FE0B00128800340000C6EC17
:10C27A00BCBE001244C80030C70061D813D714628C
:10C28A00C5C2340000ECBCBE00C51613427EC317FB
:10C29A0061F8427CC3DF0CD57AC3DF05E57AC3EFC8
:10C2AA0009C0D7BF7CC313BF7EC317FE0A00C3C42D
:10C2BA00128800C6ECBCBE00141344F5051561F8DB
:10C2CA00449DE0DC0632F505349CE0F6C15064C1B9
:10C2DA0015FC269E001004D7C714639800D28F8DD0
:10C2EA00C3DF114C01DD03D161F8CF8DC302C2C394
:10C2FA0015C4EF1C4C02DF091544640061D8F58DA2
:10C30A00C3408EC30161F8F58EC3C2C315C4EF548E
:10C31A00C3C7144290C3DF15D58AC3DF05E58AC3B4
:10C32A00EF0F408BC301DF39E58EC3EF0415BF90D1
:10C33A00C315FE4A02B800F2FE4F0216BF80C313AD
:10C34A0014BF82C3A800441F00DC10F58EC3C7C205
:10C35A008802FCBCBE00F58BC3EF06E58EC3E58BF5
:10C36A00C31004D7C1C3D58DC3DF05A802FE780266
:10C37A00D528C3DD62F528C38F8CC3D1DD5B91DD7F
:10C38A007E9161F8EE9F009161F8EEC1009161F82B
:10C39A00EEE4009161F8EE07019161F8EE2A01914D
:10C3AA0061F8EE4D019161F8EE70019161F8EE933A
:10C3BA000191DF70DB84C3EB86C38800FCBCBE003E
:10C3CA008F88C39F8CC3AF82C3BF86C3AF80C3BFEE
:10C3DA0084C3A802FE1102EF73DB84C3EB86C38811
:10C3EA0000FCBCBE00F6FC96BE000284C3BF84C338
:10C3FA001361D8A10286C3BF86C3E58CC3EF4DDBA8
:10C40A0084C3EB86C38800FCBCBE00E6FC96BE0073
:10C41A000284C3BF84C31361D8A10286C3BF86C383
:10C42A00CF8CC302EF4FDB84C3EB86C38800FCBC0E
:10C43A00BE00E6A1FC96BE000284C3BF84C313619A
:10C44A00D8A10286C3BF86C3CF8CC303EF50DB8457
:10C45A00C3EB86C38800FCBCBE00300300FC96BE5A
:10C46A00000284C3BF84C31361D8A10286C3BF86F6
:10C47A00C3CF8CC304EF50DB84C3EB86C38800FCB4
:10C48A00BCBE00300400FC96BE000284C3BF84C355
:10C49A001361D8A10286C3BF86C3CF8CC305EF50F0
:10C4AA00DB84C3EB86C38800FCBCBE00300500FCFD
:10C4BA0096BE000284C3BF84C31361D8A10286C397
:10C4CA00BF86C3CF8CC306EF50DB84C3EB86C38819
:10C4DA0000FCBCBE00300600FC96BE000284C3BF4E
:10C4EA0084C31361D8A10286C3BF86C3CF8CC30796
:10C4FA00EF50DB84C3EB86C38800FCBCBE00300768
:10C50A0000FC96BE000284C3BF84C31361D8A10293
:10C51A0086C3BF86C3CF8CC308EF50DB84C3EB86C8
:10C52A00C38800FCBCBE00300800FC96BE00028432
:10C53A00C3BF84C31361D8A10286C3BF86C3CF8C8D
:10C54A00C309EF27DB84C3EB86C38800FCBCBE00AB
:10C55A00300900FC96BE000284C3BF84C31361D8AD
:10C56A00A10286C3BF86C3CF8CC30AA80244640053
:10C57A00DC0A408DC30161F8CF8DC3021004D712C3
:10C58A0044650030640061D813D72006D2DF49F72A
:10C59A00FC979E0014302041C1F6C115FC9B9A00FD
:10C5AA00B80613B8081004A802FC289D00B800F7C2
:10C5BA00FC979E00C3C1A80812A806FCDF9B0010C6
:10C5CA0004D1DD05A800A1B800A800BF88C3440BA8
:10C5DA0000DC0F300A00EF07320A00FCD09D00BFD2
:10C5EA0088C31006EC66BE00C1200412AF92C3B81D
:10C5FA000243DF05D58DC3DF4213320A00FCD09D0A
:10C60A0000B800A802320A00FCD09D0012A800431C
:10C61A00DF05D58DC3DF24A804FE63FFE2FE6AFFAF
:10C62A00BF80C3BF84C313BF82C3BF86C38F88C3FF
:10C63A009F8CC3A804BF92C3E58DC31006D7776049
:10C64A00D1DD331561681361F8440100DD17156106
:10C65A00681361F8440B00DD111561681361F84431
:10C66A006F00DD0BD704FFFFEF0804F6FFEF0304AA
:10C67A009CFF1261C8B567ECBCBE001462708F8F54
:10C68A00C3D1DF04E58FC3E1400CC301DF16F50C0B
:10C69A00C391DD1191DF0DC5C260340000FCBCBE40
:10C6AA0000E58FC3D760340000328B00FCBCBE00AB
:10C6BA00CF8FC302D7318E12F614511EECBCBE00C6
:10C6CA00C314429AC3DF15D594C3DF05E594C3EFBB
:10C6DA000F4095C301DF35E598C3EF0415BF9AC330
:10C6EA0015FE2A00BF96C3FC66BE0016C3C4AF96E9
:10C6FA00C3440800DE10F598C3C7C28800FCBCBE5C
:10C70A0000F595C3EF06E598C3E595C3C0D7124473
:10C71A000B00300A0061D813D7C7980060D113DD27
:10C72A001804F8FFDD0B04FFFFDD0BE743DD18C03B
:10C73A00D7300700EF03300800FC66BE00C3C412FE
:10C74A008800C6ECBCBE00300900EFED318E12F64F
:10C75A0014511CECBCBE00C314429EC3DF0CD59C12
:10C76A00C3DF05E59CC3EF06C0D715BF9EC315FE00
:10C77A000B00128800340000C6ECBCBE00124464F0
:10C78A000030630061D813D7318E12F614511DECB4
:10C79A00BCBE00C31442A2C3DF0CD5A0C3DF05E5AB
:10C7AA00A0C3EF06C0D715BFA2C315FE0B0012889F
:10C7BA0000340000C6ECBCBE001244E80330E703B4
:10C7CA0061D813D7C3C51642A6C3DF0AD5A4C3DFEF
:10C7DA0017E5A4C3EF0417BFA6C317FE30001288DB
:10C7EA0000340000FCBCBE00A80242A8C3DF0DD57D
:10C7FA00A5C3DF05E5A5C3EF061004D7BFA8C3FE8E
:10C80A0017001288013400001004ECBCBE00124468
:10C81A003C00303B0061D813D7124418003017008F
:10C82A0061D813D7D527C361F8D7340000D5AAC376
:10C83A00DF08E7FCBCBE00E1EF06F7FCBCBE00F176
:10C84A009FAAC3F527C3D71442B8C3DF071342BA56
:10C85A00C361F8D715BFB2C313BFB4C3F6BFB6C31B
:10C86A0015BFB8C313BFBAC3D740ADC301DF41D5A3
:10C87A000BC3DD06F50BC3A2B6C3AFB6C3443C0077
:10C88A00DF07F6BFB6C3A2B4C3AFB4C312443C00B9
:10C89A00DF08F612BFB4C3A2B2C3AFB2C3144418BE
:10C8AA0000DF05F614BFB2C313BFAEC315BFB0C3D2
:10C8BA00D7F6B1BFB8C3BFBAC3D7C78FC0C34C017D
:10C8CA00DF0FFC1FF600BFC4C3FE4C00BFC6C3EF98
:10C8DA001BD1DD074C02DD03F6EF118FC1C3D1DF97
:10C8EA0005300A00EF0691DFEF303200B800FE088B
:10C8FA0000A800BFC2C3C0D7F6BFBCC342BEC36153
:10C90A00F8D7446500DC06306400BFBCC3FC7ABAC1
:10C91A0000AFBCC3BFBEC3D7143224003086B3FCF9
:10C92A0006F50012616830320061E813D791DD0E16
:10C93A0091F6DF2DAFF8CFF743DF26E6EF23FC1F92
:10C94A00F600BFC4C3FED0FF12BFC6C340C0C301B6
:10C95A00DF0F30B80BC11334B80B32C2C3FE030069
:10C96A00C2EF96C3C1C7C3C6A80212ABB80043A898
:10C97A0000DF031006D743DE0C150161D329A80294
:10C98A0016A800EF0BA80A140161D31BC6C7A80298
:10C99A00121531FFC1C51723F7FC439D001004315E
:10C9AA001C31FE0316DF02E616A80212A80043A8ED
:10C9BA000414A800DE0407B9EFB927EFFAF6BFBCE2
:10C9CA00C3BFBEC3BFC2C3BFC4C3BFC6C3F5C0C310
:10C9DA00F5C1C3D72008AFC4C3C80700C80600C83A
:10C9EA000500C80400C80300C80200C80100C80046
:10C9FA000012609800139801AFC6C3126098021320
:10CA0A009803AEF812300802FCCFB6001008D7E639
:10CA1A0002D6C312F661D8A102D8C3BFD8C313BFC6
:10CA2A00D6C3D5DFC3DD08F5DFC3F1FC80F700F616
:10CA3A00C15050C1AFD6C3DBD8C3FC5F9E001004FF
:10CA4A0003DF44DC42D5D2C3DF3DE5D2C3E5E0C310
:10CA5A00E1FC76F700E1FC92C700E1FCBFC600E109
:10CA6A00FC56C700300102FC89F700E0E1FC89F7B7
:10CA7A0000E6FC89F700300103FC89F700F5C0C322
:10CA8A00E5C1C3FCC4C800F6C15009C1AFD6C3DBB7
:10CA9A00D8C3FC5F9E00100403DF0DDC0B8FD2C3EA
:10CAAA00914C0261D8FE4700AFD8C3AFD6C3605CD1
:10CABA0007DF0940D2C30461F8FECC0040D2C303A9
:10CACA00DF2CE602D0C3BFD0C3325000FCF89D0071
:10CADA00F743DF1ACFD2C304F6BFD0C35102FED741
:10CAEA00005102FE44015102FE0602EEB502D7C70A
:10CAFA0040D2C30161F8CFD2C302DBCEC31331FFE8
:10CB0A0014E1FCBCBE00DBC8C3EBCAC35113FCBCB6
:10CB1A00BE00DBC8C3EBCAC35114FCBCBE0040D282
:10CB2A00C302DF6230050002CEC3B800BFCEC332F3
:10CB3A000A00FCAE9D00F743DF20A800520AFC8ED3
:10CB4A009D00BFCCC3B1FC96BE0002C8C3BFC8C318
:10CB5A001361D8A102CAC3BFCAC3AFCEC33223006E
:10CB6A00FCAE9D00F743DF04E1FE8501AFCEC3446E
:10CB7A006900DF12306400BFCEC3E1FE3A00E1FE75
:10CB8A00A800CFD2C303C0D7DBCEC31331FF14E151
:10CB9A00FCBCBE00AFCEC31204F6FFBFCEC313F770
:10CBAA0043DF14F6BFCEC3E1FEEE00E1FE2801E149
:10CBBA00FEFC00CFD2C305D791DD4291DF3ED533CB
:10CBCA00CFDF09F614F75110FCBCBE00D534CFDF15
:10CBDA0009F614F75111FCBCBE00D535CFDF09F6B2
:10CBEA0014F75118FCBCBE00D536CFDF09F614F78E
:10CBFA005119FCBCBE00D537CFF7DD26D7F614E7AE
:10CC0A005110FCBCBE00F614E75111FCBCBE00F684
:10CC1A0014E75118FCBCBE00F614E75119FCBCBE5F
:10CC2A0000E7F6145112ECBCBE00C791DD0591DD98
:10CC3A002EC0D7340D003238905115FCBCBE00F618
:10CC4A00143258005116FCBCBE00325800F614517A
:10CC5A0017FCBCBE00F614E7511AC6ECBCBE00F6BF
:10CC6A00C15064C1DB26CFAF24CFFC269E0016C379
:10CC7A00C410048F2ECF98008F2CCF9801C7C251B1
:10CC8A0015FCBCBE008800318E12F6145116FCBC8D
:10CC9A00BE008801318E12EFB491DF12F614E7510B
:10CCAA0008FCBCBE00F614E75109ECBCBE00D791E3
:10CCBA00DF24F614E7510FFCBCBE00F614E7510C52
:10CCCA00FCBCBE00F614E7510DFCBCBE00F614E72E
:10CCDA00510EECBCBE00D791DF16F6143278035120
:10CCEA0003FCBCBE00F6143258005102ECBCBE0074
:10CCFA00D7708FD4C3D1DF04E5D4C3E190DD579058
:10CD0A00DF5BD538CFDF09F614F75104FCBCBE004F
:10CD1A00D539CFDF09F614F75105FCBCBE00D53A68
:10CD2A00CFDF09F614F75106FCBCBE00D53BCFDFB6
:10CD3A0009F614F75107FCBCBE00D53DCFDF09F652
:10CD4A0014F7510AFCBCBE00D53CCFDF55F614F7E8
:10CD5A00510BECBCBE0091DD1C91DD3091DF43F636
:10CD6A0014E75104FCBCBE00F614E75105FCBCBE36
:10CD7A0000F5D4C3D7F614E75107FCBCBE00F6147D
:10CD8A00E7510AFCBCBE00CFD4C302D7F614E75160
:10CD9A0006FCBCBE00F614E7510BFCBCBE00CFD4A7
:10CDAA00C303D7C78F31CF9800AF28CFFC66BE0028
:10CDBA00C3C4125114FCBCBE008800318EF2FC942C
:10CDCA00C500C3C4125113C6ECBCBE00C144650001
:10CDDA00DC05306400B80042DCC3DF02C0D7FC03C4
:10CDEA00C900A800BFDCC3EFF3F59CC3F57AC3F50D
:10CDFA0094C3F5A0C3F58AC3F576C3F5A4C3F5A514
:10CE0A00C3FC37C200F6BF08C3BFCEC3BFD0C3BF7F
:10CE1A00CAC3BFC8C3BFCCC3BFD8C3BFD6C3F5DE5E
:10CE2A00C3E5DFC3F5D2C3F5D3C3F5D4C3500ABFF4
:10CE3A00DAC3BFDCC3F5E0C3D7D7D7200630A6D004
:10CE4A00BFEAC530E8C3BFE6C530BAD0BFECC530CB
:10CE5A00E7C4BFE8C5F6B802C8040232EAC503143B
:10CE6A00A80212A9040A00B80030E6C50316A3AB4B
:10CE7A0016A80037BBA90406001630FF00BBA91686
:10CE8A00F6BC02BBA904040016F6BBA904110016DD
:10CE9A00CC0000A904130016CC0000A90410001647
:10CEAA00CC0000A9040F0016CC0000A9040E00163D
:10CEBA00CC0000A904120016CC0000A9040D00162B
:10CECA00CC0000A9040C00148804919804CA00003C
:10CEDA0013A1B802DF8530B69FBFEEC51006D79FF3
:10CEEA00A4D015BFA2D0D7201EAFEEC5F74361F874
:10CEFA00EE27065700AEF8041500B80C1267318EFB
:10CF0A00031487CA0000674C08DFEAAFAECEB80642
:10CF1A00AFACCEB808F1980E5002D612B80A79EA28
:10CF2A00C5B80214040D00168B9800D161F8EEDD25
:10CF3A0005A80816A927AA0214A8063561D8B1259A
:10CF4A00317303EEC80588009161F8EEAA05916174
:10CF5A00F8EEAC059161F8EE36019161F8EE7B03CB
:10CF6A009161E8EEA805A802041000148971DA7527
:10CF7A00A80C3599EBEEC5AA0A16AA08B810C81467
:10CF8A000117B81279EAC5B8041204080016130486
:10CF9A00040014A9B80204070012ABB80043A80C95
:10CFAA00A114B80CA80461E3EE2804040A0016A828
:10CFBA0002610900C115340000320700FC97EC0039
:10CFCA00C0EBEEC588140C079814DBAECEAA0C167B
:10CFDA00AFACCE610900B8001361D8A16109021291
:10CFEA00A80A04EAC514B802A91413BA02A800B917
:10CFFA00AFE4C3B800200EAEF8041E0012AEF83437
:10D00A000E00FCF09800A80EFC0CEA00980E100E18
:10D01A00FBAECEA8021417B806A914DBACCE13B81F
:10D02A0008A92312AA0261D8B1277C804400801380
:10D03A00DF02E74361D8EE730488004C0161E8EE31
:10D04A004F041504100016A80214615900A904100F
:10D05A0000168B5C0F9BA904040016AB040700BBE7
:10D06A00A9120413001489D1DD0B130411001489C9
:10D07A00D1DD029199A80A1279EAC51404120016A0
:10D08A008B4CF161D8EE2D035C0F5064D6EE27036A
:10D09A00A802040C00148991A80C61E8EE2A011474
:10D0AA00C0CA0031A5C5EBEEC5AA0C168C0C77A830
:10D0BA0000379BA717B80CAA0C168C0D77A80C374B
:10D0CA009BAA0A16AA08B81017B812C814038A131A
:10D0DA00D161E8C81408AFAECEB800AA0C16AFAC3E
:10D0EA00CE610900B802A80061D8A161090216132D
:10D0FA0004EAC514B804A91417BA02A802B9AFE41D
:10D10A00C3B800200EAEF8041E0012AEF8340E00AA
:10D11A00FCF09800A80EFC0CEA00980E100EFBAE6C
:10D12A00CEA8041417B806A914DBACCE13B808A904
:10D13A002312AA0261D8B1277C8044008013DF023F
:10D14A00E743DC5488004C01DF3315040F0016A8AE
:10D15A000A12615900AFAECEB806FBEEC579EAC530
:10D16A0014AC0C16AFACCEB808610904B800A80616
:10D17A0061D8A1610906BA02A800B9EF284C05DFF7
:10D18A002415040C0014A80A12CA000079EAC5047E
:10D19A000D0014CA0000EF0D15040400165401AB6B
:10D1AA0012F6FE8909EBEEC5A80A12AA0C1679EA4C
:10D1BA00C512040F0014894E0E61D8EE50031304F1
:10D1CA000400165407ABEE400316CC0030EBEEC554
:10D1DA00AA0AB800AA08B810C81403A800B8128A84
:10D1EA0013D161E8C81408A7C0C7AA0C168C0C771B
:10D1FA00A800379BA717B80CAA0C168C0D77A80C99
:10D20A00379BAFAECEB800AA0C16AFACCE61090000
:10D21A00B802A80061D8A1610902161304EAC5146C
:10D22A00B804A91417BA02A802B9AFE4C3B8002017
:10D23A000EAEF8041E0012AEF8340E00FCF0980090
:10D24A00A80EFC0CEA009810100EAFAECEB806A8D5
:10D25A000416DBACCEAB1413B808A923B800A80691
:10D26A0012AA0261D8B1237C80440080A800DF02A0
:10D27A00E74361D8EE330188024C0161E8EE1301FD
:10D28A0015040F0014CA0000AB040D0014CA0002F2
:10D29A00EBEEC5AB041100B800AA0C148A0C73C4D7
:10D2AA00C56399EBEEC5AB04130016AA0C148A0CDD
:10D2BA009BDBAECE13B806FBEEC5A80414AC0C1665
:10D2CA00AFACCEB808610908B800A9141361D8A197
:10D2DA0061090ABA02A800B9EE3302A80C14C0CA3E
:10D2EA000032A5C5EBEEC5AA0C168C0C77A8003740
:10D2FA009BA717B80CAA0C168C0D77A80C379BAAFB
:10D30A000A16AA08B810C8140317B8128A13D161EA
:10D31A00E8C81408AFAECEB800AA0C16AFACCE61FE
:10D32A000900B802A80061D8A1610902161304EA2B
:10D33A00C514B804A91417BA02A802B9AFE4C3B84D
:10D34A0000200EAEF8041E0012AEF8340E00FCF0F7
:10D35A009800A80EFC0CEA00980E100EFBAECEA8A0
:10D36A00041417B806A914DBACCE13B808A9231203
:10D37A00AA0261D8B1277C8044008013DF02E74308
:10D38A00DC2888004C01DF0B15040D0014CA0000CC
:10D39A00EE7B014C0561E8EE740115040C0014A83B
:10D3AA000A12CA000079EAC5EFDF15040400165410
:10D3BA0001ABEE5401318EB800FBAECE17B806DBD6
:10D3CA00ACCE13B808A80003B9F661D8A107BA020F
:10D3DA00EEDE00040A0016A80212610900C1A802C2
:10D3EA0023B802F11215340000FC97EC00C0EBEEF2
:10D3FA00C5AEF804140016880098040D98148A1310
:10D40A00D161E8C81408DBAECEAA0C16AFACCE6167
:10D41A000900B8001361D8A161090212A80A04EA36
:10D42A00C514B802A91413BA02A800B9AFE4C3B864
:10D43A0000200EAEF8041E0012AEF8340E00FCF006
:10D44A009800A80EFC0CEA00980E100EFBAECEA8AF
:10D45A00021417B806A914DBACCE13B808A9231214
:10D46A00AA0261D8B1277C8044008013DF02E74317
:10D47A00DC3A88004C01DF19F2F6FE0507A80A1209
:10D48A0079EAC5040400168804318E610900BBEFED
:10D49A00204C05DF1C15040C0014A80A12CA00004F
:10D4AA0079EAC5040D0014CA0000EF05E2F6FED1C0
:10D4BA0006A80A1279EAC5120413001489D1DD4EAE
:10D4CA00130411001489D1DF4513040D0014A80AAE
:10D4DA0012CA0001AFAECEB806FBEEC579EAC51492
:10D4EA00AC0C16AFACCEB808610904B800A8066146
:10D4FA00D8A1610906EEDBFD5202F6FE8406EF0EA4
:10D50A00A802040400165403AB12F6FE2006880E85
:10D51A0081980E4C0261E8EEFEF9101ED7C5201064
:10D52A00C1C81100C81000C80F00C80E00C80D00FD
:10D53A00C80C00C80B00C80A00C80A00AFEEC561D3
:10D54A0068A818B802DD5188124C08DF3BF6B80605
:10D55A0034EEC5A91613614902A80061F8614900B1
:10D56A00DD1F170404001613614902A80061F8615F
:10D57A004900DD10A806040100B806A5A5DDD4EF10
:10D58A0003E5F0C5A806F743DF57312D12B808792D
:10D59A00EAC5040C00148991DD33F6B800AEF8042C
:10D5AA000A00148812318E12A80043DE11A802164E
:10D5BA00A800A1B8008B99A5A717B802EFE5A8089B
:10D5CA001279EAC516040D001489734C05DD5288D8
:10D5DA000A705C0F9802605CF0706391DF05604C22
:10D5EA0030DF2560D1DD370CF061F8EEA4000CF0D5
:10D5FA0061F8EE21024C10DF0FA80804ECC514A94B
:10D60A00B812040D00168B9161E8EEBE0188024C37
:10D61A000261E8EE6B01CC00005208EE7601880246
:10D62A00D1DD6D4C08DE69D3DD0E170404001654F3
:10D63A0006AB12A806FEF604A8081279EAC5040485
:10D64A000014F6B812B9AEF8040B00B8008802311B
:10D65A008E12A81243A8081279EAC516DE25040A12
:10D66A0000141704040016A961090014C6C78B998F
:10D67A0079EAC504040014A812A1B812A9A1B9A78D
:10D68A0017EFC8040400165400AB12A806FE9E0445
:10D69A00EF6E40F0C501DF05F5F0C5EF63880B704A
:10D6AA008802B800440800DC57D3DD0E17040400D2
:10D6BA00165406AB12A806FE7404A80804EAC51498
:10D6CA00B802A904040016F6BBA904080016A800AB
:10D6DA00BBA9040F0016CC0000A9B800120406006A
:10D6EA00161304080014A961490061D316C4C5A819
:10D6FA000812F6BA02B979EAC5040D0014CA000480
:10D70A00EEC8005306AEF8040C00B812A800040ACA
:10D71A000016A80214AB16A9040400B800A8003722
:10D72A00610900B800A812168B72C6C7629BA904C9
:10D73A0004001693ABA1BBA812A1B812A914DFCE9C
:10D74A00040A00B8001504080014FBA2D0A9C18F6E
:10D75A00A4D09EFCA802145205A914A80861FAC014
:10D76A00A80214A9040D0016CC0003A9041000167F
:10D77A00CC0001DBAECEFBACCEA91413BA0217EF74
:10D78A004940F0C501DF14F5F0C5A9040D0014CA1B
:10D79A0000005205A806FEE903EF304C01DF2FAF67
:10D7AA00AECEB800A80612311CA8121479EEC50430
:10D7BA000C0016AB04040016AFACCE61090012A827
:10D7CA000061D8A1610902BA0213B91014D7D1DFD6
:10D7DA00C1DBAECEA81216AFACCEBB13BC02A904F5
:10D7EA00130016880B9BA904110016880B9BA90429
:10D7FA00120016880C9B880C707C804C71DC0560CA
:10D80A004CFADC08A904120016CC007FA9040D000A
:10D81A0014CA0005EFB5634C02DFB01704100014F8
:10D82A0088027089614861E8EE21018199A808049B
:10D83A00EAC514A9041000168B5C0F9BA9120408F0
:10D84A0000B8001304040016AEF8040B00B802ABCB
:10D85A00B80404070012C6C713614900DC47F6146E
:10D86A00B812A8081279EAC5B80004080016A80474
:10D87A0005614900A80061C8EE08FE040A0016A85E
:10D88A0000040400B800AB16A8003761090016A806
:10D89A00020514899B79EAC504040014A9A1B9A850
:10D8AA0012A114EFBB5307A916040400B800170409
:10D8BA000A0016AB16A80037610900B800A80216BC
:10D8CA008B72C6C7629BA90404001693ABA1BBA8BE
:10D8DA0002A1B802DFD1AFAECEB812A80612311C2F
:10D8EA00A9B80079EEC5040C0016AB04080016AFFF
:10D8FA00ACCE61090012A81261D8A161090216A86A
:10D90A000037BC0213BBA9120413001489D161F8B1
:10D91A00EEB8FE130411001489D1DD029199A8080A
:10D92A001279EAC5160411001489D161E8EE9BFE4A
:10D93A0017040D0014CA0003FBAECEAFACCEB8007C
:10D94A0079EAC51417BA02A800EE7EFE170404008D
:10D95A00165404ABEE33FDC5C3C12016A816312DEB
:10D96A0004ECC516B804AB040D001489D161E8EEC5
:10D97A00B801F19800318E12AEF8040800030405CC
:10D98A0000148800CA00008198004C08DFE7A81636
:10D99A000112B80679EEC5616861F8EE8C01AB0434
:10D9AA000A0014A818B9AB04080014A81AB9AB04E1
:10D9BA00040014F6B9AB04130014CA0000AB041136
:10D9CA000014CA0000AB04100014CA000179EEC5A5
:10D9DA0004080014AA0216A9B808A80414C80C015D
:10D9EA0017B80AA904080016AB440800DE1D881AF5
:10D9FA009818980D81980C79EEC504130016AEF8A4
:10DA0A00040E00B8008BD1DF20EF21A81A1271CAC8
:10DA1A005C1F980D62980EA9040D0016C81806CC52
:10DA2A000001AEF8040F00B800C80C08A9040A00E7
:10DA3A0016340000ABC1881A318EB80412A802FC51
:10DA4A0097EC00C0A80414A80612A904040016A89A
:10DA5A0002610900BBAFAECEB81879EEC5040C005E
:10DA6A0016A914AB16AFACCE610900B800A81861AC
:10DA7A00D8A1610902BA02A800B9A816312D030477
:10DA8A00E4C316340E00ABB800200EAEF80416003C
:10DA9A0012AEF8FCF09800A80EFC0CEA00982810C8
:10DAAA000EDBAECEA80414AFACCEB800A916B818D7
:10DABA00AB16A8003727B800A81816AC0261D8B16F
:10DACA00237C80440080A800DF02E743DC56881AE2
:10DADA0091A818DF3E1404080016A802614900DE66
:10DAEA002AA80612AFAECEB80079EEC5040C00160D
:10DAFA00AB04040016AFACCE61090012A80061D8CD
:10DB0A00A1610902BA0213B9E1EF20A816F2FE7167
:10DB1A0000EFF5040D0016CC0000A9040C0014CA8D
:10DB2A000000EF06A816E2FE5800F1101CD7C1C388
:10DB3A00C664D1DF0BA800312D1279EAC5E2EF1EC7
:10DB4A004C04DD104C01DD0C4C06DD084C07DD04ED
:10DB5A004C03DF1EA800312D1279EAC55202040ACD
:10DB6A000014C78FA4D09EFCFBA2D0A914A80261FE
:10DB7A00FAC0C2C3312C79EAC5040D0014CA0000E8
:10DB8A00C0D7C1C762D2DF27A80212312D04ECC563
:10DB9A0014A9160406001417040A00B800A914C52B
:10DBAA008FA4D09EFCA80214A914135203EF354C7B
:10DBBA0005DD0C4C01DD084C08DD044C02DF2BA806
:10DBCA000212312D04ECC514A91604060014170418
:10DBDA000A00B800A914C58FA4D09EFCA80214A9F3
:10DBEA0014135204FBA2D061FAC0A802312D04EC2E
:10DBFA00C514A9040D0014CA00001004D72010C3CC
:10DC0A00C4C80F00C80E00C80D00C80C00C80B001D
:10DC1A00C80A00C80900C80800C80800AA02B8044F
:10DC2A00A9B806F06098028A0498036140DD248846
:10DC3A0002318E0504050016AEF8040800B8008B00
:10DC4A0073C6C78802618B61D9880281709802887D
:10DC5A0003EFD8AEF8040800C1880574A80612A814
:10DC6A0008FEB9F8C01010D730CED0BFF4C730F2D2
:10DC7A00C5BFF0C730E8D0BFF6C730F1C6BFF2C79C
:10DC8A00D7C716011462318E12312D04F4C7051458
:10DC9A0017312DB800A914F6BA02B9311CA80033FD
:10DCAA0004F4C70314A9040E0016CC0000A9040F3B
:10DCBA000016CC0000A904100016CC0000A904111B
:10DCCA000016CC0000A904120016CC0000A9041307
:10DCDA000016CC0000A904140014CA0000C0D72002
:10DCEA0006FE84FFF6B802C8040232F4C70314A879
:10DCFA000212A916F6BC02BBA904040016F6BC025D
:10DD0A00BBA9040A0016F6BBA9040C0016F6BB3020
:10DD1A00F0C70316A9040800B800AB16A80037BB61
:10DD2A00A9040E0016CC0000A9040F0016CC0000AE
:10DD3A00A904100016CC0000A904110016CC00009A
:10DD4A00A904120016CC0000A904130016CC000086
:10DD5A00A904140016CC0000A90416001430881374
:10DD6A0002ACCE16F661D8A102AECEBA0217B988B5
:10DD7A0004919804A313A1B80261E8EE6CFF34572A
:10DD8A00E051001006ECE9CE00200CF19808318E23
:10DD9A00B80A312D12B80479F4C7B8026168DD0AED
:10DDAA001304F6C714B806A9616861F8EE9D01A8C4
:10DDBA0002040F0016B8008BD1DF3DA8020411003F
:10DDCA00168B91DF0FC6C7CC000679F4C704110081
:10DDDA0016CC000079F4C7B800041000168B91DF46
:10DDEA0009A800040F0016CC000179F4C704130037
:10DDFA00168B9161F8CC000079F4C712040F001653
:10DE0A00B8008B91DF5B13041100168B91DF1FC6DC
:10DE1A00C7CC0006A80404F4C716B800AB04110066
:10DE2A0016CC0000C6C7AB04100016CC0000A8042C
:10DE3A001279F4C7041300168B91DF25CC0000A8D1
:10DE4A000404F4C716B800AB04100016CC0000C6D0
:10DE5A00C7AB040F0016CC0000C6C7AB16F6BC024F
:10DE6A00BBA912041500168B91DF1513040F0016B7
:10DE7A008B4C05DD0BCC0004A904150016CC000060
:10DE8A00A912040F0014894C04DF4313040C001474
:10DE9A001304080016A914AB12A80AFC61D9009150
:10DEAA00DF0DA80614A9040F0014CA0005EF1F8F7E
:10DEBA00F8C7819FF8C74C05DF14A80614A9040FF8
:10DECA000016CC0000A914F6BA02B9F5F8C7A806DC
:10DEDA0014A912040F0014894C05DF6613041200FA
:10DEEA0014F5F8C78991DF37A80412CA000079F43B
:10DEFA00C714040E00168B91DF1BA80404F4C71480
:10DF0A00A1A116AB040F0016CC0000A9040F00143F
:10DF1A00CA0006EF0AF6BA02B9A80AE2FE62FDA82A
:10DF2A000614A9041400148991DF17A8041279F4BD
:10DF3A00C7040E0014899161F8CA0000A80AE2FE1B
:10DF4A003FFD880881980861F8EE42FE100CD7C799
:10DF5A009800FC43CE0088005004D604F4C714A9E4
:10DF6A0004100016CC0001A904130014899161F869
:10DF7A00CA0000C0EC44CE00C3C79800FC43CE00E0
:10DF8A0088005004D604F4C714B800A90411001676
:10DF9A00CC0001A904130014899161F8CA0000FC9D
:10DFAA0044CE00C4C5A9040A0016A802BBAFAECE6F
:10DFBA00B800DBACCEA904040016AFCC9FBC02AFFC
:10DFCA00CA9FBBA9140404001613610900B9A8006A
:10DFDA0061D8A1610902BA021004D7C79800FC43AC
:10DFEA00CE0088005004D604F6C714A904120014FF
:10DFFA00CA0001C0EC44CE00C79800FC43CE00889A
:10E00A00005004D604F6C714A904140014CA000167
:10E01A00C0EC44CE00C79800FC43CE0088005004F0
:10E02A00D61204F4C714A904130016CC0001A904DB
:10E03A00110014899161F8CA000079F4C70410002C
:10E04A0014899161F8CA0000C0EC44CE00C116A838
:10E05A000692DD0E92DD2592DD2692DD2892DD2ADA
:10E06A00C0D7C51217318D2704F2C5340000FC97BA
:10E07A00EC00C0A806128800C4EEFCFE66C2EF954A
:10E08A0066C2EE56FF66C2EE6EFF66C2EEC0FE14B0
:10E09A00C1C7A9168C0198000C7F4C02DC078800C6
:10E0AA004C83F1DF07880071FB9800E19801AA040C
:10E0BA0044020061E8EEF600880091DD3291DD3C11
:10E0CA009161F8EE9E000CA461F8EE9D004C066189
:10E0DA00F8EEA600AA0216300300BA06CC007FAA00
:10E0EA000216CC0110AA02145002CA0212EF73E5FA
:10E0FA003CD3FC94E500A80214EE8200403CD30312
:10E10A00DF47CF3CD302FC94E5008801D15003DFFE
:10E11A0051A80214300500BA06AA021688009C010A
:10E12A00AA0216F7CC0200AA0216CC0332AA0216D9
:10E13A00CC040BAA02143055AACA0588C1C1300002
:10E14A0080FCFFED001004EF59AA0216CC007FAA4A
:10E15A000216CC0110AA0216300300CC027FBA06BE
:10E16A005002EF3FCF3CD303EF88CF3CD35FE6BAF0
:10E17A0006AA021488009A01EF28CF3CD36530051D
:10E18A0000BA06AA021688009C01AA0216CC02004E
:10E19A00AA0216CC0332AA0216CC040BAA0214CA8B
:10E1AA000588E0880191510361E8601004D7AA024A
:10E1BA0016300300BA06CC007FAA0216CC0110AAB8
:10E1CA0002145102CA0213EFE2D78F3CD3D7D7D732
:10E1DA0014C7C1A916AA04128C01980271FCF16134
:10E1EA00D8E1980313440200DF69FC7CE500D1DF23
:10E1FA0016C4C5AA0216CC007FAA0216CC0111AA1F
:10E20A000216CC0233EF5E880271FB7391DD259111
:10E21A00DD2291DD2D9161E891C4C5AA0216300371
:10E22A0000BA06CC007FAA0216CC0111AA0214CAAF
:10E23A000212EF36C4C5E6BA06AA0214639A01E3CB
:10E24A00EF2AC4C5E6BA06AA0214639A01E53ECECD
:10E25A00E3EF19AA0216CC007FAA0216CC0111AA72
:10E26A000216CC0213300300BA065302880391E067
:10E27A0061E8F06391E161E8F16158510361F86383
:10E28A001004D7C18F3CD3704C02DF05624C02DD0B
:10E29A0011604C03DD03F1C2D7620CFCDD404C0473
:10E2AA00DFF4F6C1C1DB1AD1AF18D1FEAC021410EB
:10E2BA000413779F28D362739F29D315729F2AD399
:10E2CA0064759F2BD3A800374DDFCB634E01DFC6A1
:10E2DA00624E02DFC1654E03E1DDBCF1EFB9E5280C
:10E2EA00D3CF29D302CF2AD303CF2BD304C4C589D2
:10E2FA0091DFA38A014C02DF9D8A024C03DFA18AC7
:10E30A00034C04EFD3C1FC4EB40012BF30D331FF2B
:10E31A00BF32D313F743DDEE44FFFFDDE9F6BF1A40
:10E32A00D1BF18D13630D3C4C550048B9990A5A754
:10E33A00DFF9C4C58A01708A0398008A027389BF0B
:10E34A001AD1C0C163BF18D1C0D7145104CA000082
:10E35A0091A5DFF9D714C7C1AA0412440200A9146F
:10E36A008A019802DD091344060061E8EED501FC32
:10E37A00D4E1004C0361E8EEAC0188027291DD4001
:10E38A009161F8EEBB0091DD2491DD7E0CFDDD5339
:10E39A009161F8EEF900C4C5AA0216CC007FAA0260
:10E3AA0016CC0127AA0216CC0212EE8D014040CEED
:10E3BA0001DD5BC4C5AA0216D515D1CC0103EF1144
:10E3CA004040CE01DD48C4C5AA0216D514D1CC01FD
:10E3DA0001DD23AA02A1A1FE70FFC4C5300500BA5F
:10E3EA0006EF794040CE01DD5CC4C5AA0216D516F7
:10E3FA00D1CC0107EFDB300500BA06AA02A1A1FEC3
:10E40A0003FFE541CEF542CEEF564040CE01DD3561
:10E41A004041CE01C4C5DF4D4042CE04DE4DA9A124
:10E42A00A1FE5FFE91C4C5AA0216DF4DCC0104CF3E
:10E43A0041CE02F542CEE6BA06E515D1F516D1EF80
:10E44A004A4040CE01DD4E8F41CE4C02DF14C4C596
:10E45A00AA0216E6CC0102BA06F542CECF41CE0296
:10E46A00EF2991C4C5DF4A4042CE04DE4CA9A1A1DE
:10E47A00FE10FED1C4C5AA0216DF6CCC0102CF4140
:10E48A00CE02F542CEE6BA06E514D1E11004D74031
:10E49A0040CE01DF16C4C5AA0216CC007FAA021616
:10E4AA00CC0127AA0216CC0237EF654041CE01C43F
:10E4BA00C5DF5F4042CE04DC22F541CEF542CEAA4A
:10E4CA000216CC007FAA0216CC0127AA0216300334
:10E4DA0000CC0236BA06E540CEEF64A9A1A1FEA29D
:10E4EA00FD91C4C5AA0216DF15CC0108CF41CE02A0
:10E4FA00F542CEE6BA06F515D1E516D1EF8DCC0078
:10E50A007FAA0216CC0127AA0216CC0235A042CE57
:10E51A00EF28AA0216CC007FAA0216CC0127AA026B
:10E52A0016CC0224EF14C4C5AA0216CC007FAA0294
:10E53A0016CC0127AA0216CC027E300300BA065175
:10E54A0002EE48FFC4C5AA0216CC007FAA0216CC66
:10E55A000127AA0216CC0213EFE014A806C1A806E6
:10E56A00C115FE320014100413BF2ED315BF2CD3CD
:10E57A0015D7E1D74040CE01DF0FF541CEF514D1D2
:10E58A00F515D1F516D1F540CED7F541CEF514D112
:10E59A00F515D1F516D1D7C3C12006F713B804C8AB
:10E5AA000018C8010413B802C4C5A80812A806FCBA
:10E5BA00759D00F11488007315D3EF020193DFFCF7
:10E5CA001231FF14A80403B804A80261D8A105B83F
:10E5DA000288000CF898008801919801DFCAA810F7
:10E5EA0012A802617B08617A0812A80E14A8041006
:10E5FA000A617D08617C08D7EBF4C72008AA184293
:10E60A00AECEAA1661F842ACCE61C31C403CD365BB
:10E61A0061E8E53DD330881302ACCE12F661D8A189
:10E62A0002AECEBA1813BA16D53DD3DD07FC7EE585
:10E63A0000F53DD3EBF4C78A0F4C0661E8EE4E02B3
:10E64A00AF44CEB804F743DF085303639802EE3EA3
:10E65A0001AA08B800BF34D3FBF6C7D547CEAC0829
:10E66A00B806BF36D3F6BF3AD3AA0ABF38D3DD3FBE
:10E67A00F175500CD612A80403168F46CE98024D97
:10E68A00DD3585654C03DCEAD5F0C5E1DF2AA8064D
:10E69A00145302CA007FEB36D388029A01EB36D3B1
:10E6AA00300300CA0211BF3AD3639802EED800C4FD
:10E6BA00C5899F46CEEFB9F1310505F5F0C5EF29B9
:10E6CA0065318E12313D14312C130512A80403B89A
:10E6DA000412040600161304080014ABB800C2C3DF
:10E6EA008974318E03DF06DC045303EFBC8F3CD3FD
:10E6FA000CFEDD1191DD120CA4DD124C065501DF72
:10E70A000E5510EF0A5502EF065504EF025508A8F8
:10E71A0004040A0016655DDF35A806145302CA0010
:10E72A007FEB36D388029A01EB36D3639802CA028A
:10E73A007F300300BF3AD3EB36D38A024C13DD0B8A
:10E74A0040F0C501DF1E5303639802EE9600649EF3
:10E75A00FCC3C63034D361FA7398026391DD7891B1
:10E76A00DDD54C02DF7EEB36D3CA007FEB34D3FB18
:10E77A0036D3899C01EB36D3300300CA0278023AB9
:10E78A00D3BF3AD3E547CEEBF6C7AF3AD3BA0CEBD1
:10E79A00F6C7AA0814894C7FDF0A8A024C11DD1DCC
:10E7AA004C7FDD19EBF4C730881302ACCE16F66144
:10E7BA00D8A102AECEBA1817BA16F53DD363914C5A
:10E7CA0002DE29F2F6FC8BDC00EBF6C78A0F4C0559
:10E7DA00DF17CA1501EF15EB34D3FB36D3890C408A
:10E7EA009BA23AD3F547CEEF9ECA0F0488024C0388
:10E7FA00DF06F2F6FC8BDC00F5F0C588024C04AFAC
:10E80A00AECEB804AFACCEB800DF45EBF4C78A0E83
:10E81A00D1DF3DF2F6FC8BDC00EBF4C7AFD09FCA28
:10E82A000E01EBF4C7BA06AFCE9FBA04FBF4C7A831
:10E83A0000610904BBA80461D8A1610906BC02EB06
:10E84A00F6C78A0F4C05DF05CA1501EF03CA0F0484
:10E85A00FBF4C7A804614902A80061F8614900DC19
:10E86A002D8C0E91DF2488024C04DF22A800610956
:10E87A0004BBA80461D8A1610906BC02EBF4C7CAAB
:10E88A000F00EBF6C7CA0F04EF04F6BC02BB100870
:10E89A00D7BF44CED7FBF4C7EBF6C7AC08BF34D317
:10E8AA00AA08BF36D3F6BF38D3BF3AD3E53CD3D78D
:10E8BA0030D29FBF44CEEFDDEC7EE5009F4ACE15F5
:10E8CA00BF48CED7C1C773FB48CE8F4ACE98003116
:10E8DA008E07DF05DC031004D7A80AC1A80AC1887D
:10E8EA00049EFC8806706361FA1004EFE92004F1C3
:10E8FA009802318EB800321A00FC349D000438A008
:10E90A0014A800312D043ED3B800A916AA0212C4D5
:10E91A00C513BA0217B988028198024C07DFD334AB
:10E92A0034E951001004ECC6E800C5C3C12012F155
:10E93A009813318EB800321A00FC349D00043CA0B2
:10E94A0016A81C5E01085D0814A800312D043ED3E8
:10E95A00B800A81E5E03085E020812C6C713614902
:10E96A00021561F8614900DD0988138198134C0486
:10E97A00DCC088134C07DE67318EB802321A00FCFD
:10E98A00349D000440A01688144DDF73A81CB804F7
:10E99A00A81EB80688129808F19800881270880094
:10E9AA006148DD18318E12A8160314AEF80404006B
:10E9BA000304050016899B880081EFDDA802321A3C
:10E9CA0000FC349D000438A0120414001613041627
:10E9DA000014ABB800C2C3899812318E0361F8DE05
:10E9EA001E200EAEF804120012AEF8340E00FCF02F
:10E9FA00980088209EFCA80E16A81061FA100E1026
:10EA0A0018D7AEF804090012880870E1FCCFB600E6
:10EA1A00E1D7AEF804090012880870E1FCCFB6000D
:10EA2A00E1D79F4CCED734A8CE53023634A1ABB926
:10EA3A0017040C001693A5A5DFF4D72016F6B8061E
:10EA4A003098CEB80430EEA0B802A80214321A00E8
:10EA5A00A9FC349D000450A014A9BF5AD312041073
:10EA6A00001489D1DF44A80414A904010012B9AA28
:10EA7A000261D8A1B800BA02A80204040016A800CC
:10EA8A006149021361F861490061D35BA80212046B
:10EA9A000C001613040E0014AB168973318E07612D
:10EAAA00F8DE3D639EFC61FAEF36340E00AEF804E0
:10EABA000800FCF09800FB5AD3A8021204080014BC
:10EACA00CC1000A91613040A00148973318E076149
:10EADA00F8DE0D639EFCAEF804080012A80661FA7F
:10EAEA00A80414F6BA02B9A802041000B802A804CD
:10EAFA00040400B804A806A1B80644040061E8EEBC
:10EB0A0048FF34A8CE15B8063032A1B804C80202AC
:10EB1A00A80416AB12A9B800FCF89D00F743DF1A47
:10EB2A00A80412040400161304060014AB16897311
:10EB3A00318E07DF22DC20F6B800A80614A800A14F
:10EB4A00B9A804040C00B8048802919802A5A51576
:10EB5A00B806DFBC1016D7639EFC61FAEFD9C7323C
:10EB6A001A00FC349D000450A014E60296CEBF960B
:10EB7A00CEA9B800F743DF02C0D7AEF804060012E8
:10EB8A00A800340E00FCF09800A80004100014A895
:10EB9A0000040E0016CA0001617900EFDBFCF7E8F9
:10EBAA0000FC30EA00FC45CE00FCE9DC00ECBAE8E7
:10EBBA0000AFAECEAFACCEFC45EA00FCF1CE00FC15
:10EBCA0093DD00EC02E600C1200416A80CB800A8E8
:10EBDA000A14A313B802A80204FFFFB802DD2C64CA
:10EBEA007D5004D60446A116A800318D1215318E27
:10EBFA00037E01087D0814A800318E7E03087E0278
:10EC0A0008B800A804A116B804EFCBC2C3100615B1
:10EC1A00D7C12004F6B80212B800A80416A8004703
:10EC2A00DE1289318E16A80207B80261D8A3A5A8F8
:10EC3A0000A1EFE4A8021006D7C52006C1C3C6F694
:10EC4A00B802C4C5A808B1B80612A80243DE0C89E6
:10EC5A00D1DD08A802A1B802A5EFE9F7A80214A815
:10EC6A000005B804A80403B808A80614A80203B843
:10EC7A000045DE0D8B75D1DD08A80835A399A7EFED
:10EC8A00E3A80814A800CA0000100AA1D714A8040F
:10EC9A0016A31304FFFF12DD068B99A5A7EFF3D77E
:10ECAA00C3C12006F19804318E16F643A80612173E
:10ECBA0061F843DE2D05B8021503B116B8008B7250
:10ECCA00A802168B73C6C7639BA80216629BA80686
:10ECDA0004FFFFB806A80861C8B112B80888048101
:10ECEA00EFC3100AD7200814F19806629803F1615D
:10ECFA000A614BDE2D63318E05B8048803318E0517
:10ED0A00B80016938B9802A804168B77A800379B35
:10ED1A00A8041688029B88038198038806819806AE
:10ED2A00EFCD1008D714A804A104FFFF16DD066270
:10ED3A0099A517EFF4D7C1C71613C5C20401001469
:10ED4A0061D8A3A808B8001504FFFF1461C8B3135B
:10ED5A000561F8DE138B77A800374DDF0EA7C0C711
:10ED6A00A802A116B802EFDFE1EF01F11004D7C142
:10ED7A00C3200414F616B800899802D1DD2F0CD0EE
:10ED8A004C0ADE2CF6C1500AC1A8041217FC439D96
:10ED9A00001004148802318E0561D8A304D0FF162E
:10EDAA0061C8B3C0C3A806A114B806EFCBE3EF014C
:10EDBA00F3A8041417B9A800BA02100863D714F606
:10EDCA00161289D117DD0A0401001661D8A3A5EF2E
:10EDDA00F1D713B1B144FE00DE0AF062916140DE60
:10EDEA000380EFF8D730E80304FFFFDFFBD7A10465
:10EDFA00FFFFDFFBD714A806C1A806C115FCC0EFA8
:10EE0A00001004E1D700D7C3C12006717BFAFCFACF
:10EE1A009600FC069700A808316D12A80831AEB812
:10EE2A0004F19802A80631AE03B800BFB0CEA80418
:10EE3A00BFB2CEA80612A80E0314A80812A8106121
:10EE4A00D8A10316316D121531AE03141731AE1263
:10EE5A00A80443A80061F845DE2DFCAD97009F6821
:10EE6A00D34CFFDF06FC989700EFF3D1E1DD0200F7
:10EE7A00F1980200E602B0CEB800F661D8A102B25B
:10EE8A00CEB804A800EFA4FC009700717AFA8802B1
:10EE9A00100AD7C5C3C12012717BFAFCFA9600FC8E
:10EEAA00069700F713B810F1980013B80EA812B815
:10EEBA000AA814B808A81CB806A81EB80CF1980528
:10EECA00A81212A81C0314A81412A81E61D8A10320
:10EEDA0012A80843A80A61F84561C8EECC00A80C3C
:10EEEA00F743A80661F8440001DE51A80612312E44
:10EEFA0014625C03980464DF059F66D3EF42819F26
:10EF0A0066D3F6B802B8008804318E1230040023A2
:10EF1A0014F661D8B112A80243A80061F845DE20B0
:10EF2A0004010016DE05A802A1B802A81C12A80056
:10EF3A000312A816031417CA00FFEFC9CF66D340FD
:10EF4A00A80E12A81603BF60D3A808BF64D3A80AE4
:10EF5A00BF62D33060D3FCB7970073D361E80088EF
:10EF6A00058198054C08DC0FA810FCB2970073A81D
:10EF7A0010A1B810F19805D3DD0700F19800EE3F13
:10EF8A00FF8F66D35004D612A80E03B80EA80A0340
:10EF9A00B80AA80861D8A1B808A80623B806A80C18
:10EFAA0061D8B1B80CE19800EFD4FC009700717AEF
:10EFBA00FA88001018D7C3C1200AF6C80900C80881
:10EFCA0000C80700C80600C80500C80400C8030036
:10EFDA00C80200C80200C15104C1A80EFE28FE10D2
:10EFEA0004D1F1DD4198019800880174A81412A88F
:10EFFA0012FC759D0012AEF8A1A11662708800730A
:10F00A006061D988010C089801836398004C04DF79
:10F01A00D8F6C15004C1AEF804060014A81012A80C
:10F02A000EFE6FFE1004100ED7F55CD3CF5DD3141D
:10F03A00E55ED3345CD3510FFC309700D1DF02E197
:10F04A00D700F1D7C1C7A3C0C3A80004FFFFB80007
:10F05A00DD28D56AD3DFF2A802440900DEEBCF72BD
:10F06A00D303BF6CD3306CD3FCAB10019F6AD3813E
:10F07A00DFD70000FC0C1101EFF21004D7C1C5C3A1
:10F08A00FE85009F6AD3D1DF45C2C3A80431AD0310
:10F09A00BF6CD3A802BF70D3CF72D304306CD3FC39
:10F0AA00AB10019F6AD34CFFDF080000FC0C110172
:10F0BA00EFF1D1DF19CF72D306306CD3FCAB10015C
:10F0CA009F6AD381DF080000FC0C1101EFF21006E1
:10F0DA00EC121101C1C5C3FE2E009F6AD3D1DF22F3
:10F0EA00F572D3C2C3A80431AD03BF6CD330E6CEE8
:10F0FA00BF6ED3A802BF70D3306CD3FCAB10019F94
:10F10A006AD31006EC121101C7C80020C80100AE6C
:10F11A00F8FC90100173F6BF6CD3BF70D330B4CE35
:10F12A00BF6ED3F572D363C2D7EC1211015A06DF50
:10F13A00D76A0620D736F000E671C200000000BC8C
:10F14A0056343601AA0E086C0208BA0E716AE771C3
:10F15A006BE3716AEF716BEB300300B95024BA04A8
:10F16A005017BA08C916009EAA126C02086C020847
:10F17A00BA128E3D9E3D6A060351FC5F26FF9E260B
:10F18A00D7C79800C3C6C5343E01C2F574D3E57427
:10F19A00D3A95C3FB9A96C80B913BF78D317BF76DE
:10F1AA00D3FE5400716BE3716BE78800718B9D1677
:10F1BA00C0D7C79800C3C6C5343E01C2F574D3CFC1
:10F1CA0074D302A95C3FB9A96C80B913BF7ED3F688
:10F1DA00BF7CD317BF7AD3FE1E00716BE3716BE756
:10F1EA008800718A9D16C0D7344401716AE7A9085C
:10F1FA006C0208B9716BE3D7344801A9085CFD08B1
:10F20A00B9F100814CA1DFFA5442AA08086C02083D
:10F21A00BA08AA065CFDBA06A9086C0208B9D7346E
:10F22A004401A9086C0208B9AA06085CFD08BA06D6
:10F23A00AA04085CFD08BA04AA046C02BA04F10024
:10F24A00814CA1DFFA5448A9086C0208B9D7AF3239
:10F25A00016031150CAF78D3F743DD05E6A1EEAABC
:10F26A0000AF32016031050AAF78D3F743300500A9
:10F27A00DFEC8F74D33103778F74D3312336343E66
:10F28A0001AA06086C0208BA06A95C3FB9A96C4033
:10F29A00B9AA04086C0208BA0451046F74D39F74A3
:10F2AA00D3AF7ED3E743DF08544AA9085CFD08B907
:10F2BA00CD16FFD7AF7CD3427ED3DEF7EB7AD38D60
:10F2CA001699A27AD3A27CD3DB7CD3F6B1027ED381
:10F2DA0043DF0C344A01A9085CFD08B9CD16FFAF1B
:10F2EA007CD3427ED3DFC9FC29F200E519CFD7AF20
:10F2FA0078D3F743DF08FC29F200E518CFD7EB767D
:10F30A00D3899D16A276D3B278D3D7E51ACFE5185A
:10F31A00CFE519CFD736E0FF712AE471A3712AE449
:10F32A0071A3713AE471B3713AE471B3714AE47149
:10F33A00C3715AE471D3716AE471E3717AE471F3C7
:10F34A00712AE6712BE2714AE7714BE3717BEC712A
:10F35A007BE8CE3920CE3820D7717BE0717BE4D7A9
:10F36A00717AE4717BE0D7E546CFD720043402FFF7
:10F37A00570B89316A5C019F50CF89311A5C019F12
:10F38A005ECF8D0C313A5C019F6CCF895C019F7A0C
:10F39A00CF8D0D317A9F88CF89312A5C019F96CF14
:10F3AA0089313A5C019FA4CF89314A5C019FB2CF6F
:10F3BA0089315A5C019FC0CF89317A9FCECF8D0C9B
:10F3CA00314A5C019FDCCF3050CFB802A8021489C1
:10F3DA004C01DF0CA80212040300B800C3C4EF0EEC
:10F3EA00D1DF12A80212040300B80013A114A589E0
:10F3FA0073C4C56399A802040E00B80297DFCD8FC3
:10F40A00E2CF4C02DF088FB5CF9F44CFEF0F4C01FC
:10F41A00DF05F544CFEF06D161F8E544CFAF8201AD
:10F42A00609FE3CF1004D72006FC8EBA00B804BF51
:10F43A0020CF13B802BF22CFAFF2CFBF26CFAFF093
:10F44A00CFBF24CFAFFECFB800320A00FCD09D0058
:10F45A00BF28CFAFFCCFBF2ACF88009F30CF8F0203
:10F46A00D09F31CF8FFACF9F32CFF6BF34CFF53648
:10F47A00CF8FD1CF9F3CCF8FDFCF9F3DCF8F01D092
:10F48A009F3ECFF53FCF8FC3CF9F42CF8F99CF9F5C
:10F49A0040CF8FA7CF9F41CF8F53CF9F43CF8F00AE
:10F4AA00D09F45CFF537CF8F6FCF9F38CF8F61CFA2
:10F4BA009F39CF8F8BCF9F3BCF8F7DCF9F3ACFF591
:10F4CA0033CF8FADC34C01DF0BAFB0C3BF2CCFAF6F
:10F4DA00AEC3EF084C02DF07F6BF2CCFBF2ECFA872
:10F4EA0004BFECCFA802BFEECF1006D7530B3053A0
:10F4FA00CF14040E00CA000093DFF6D7C520081601
:10F50A00C1311C13B802A80A614900A80061E3EEE0
:10F51A0093003303B1B116A80A614900DE7FA8003F
:10F52A00A114A5A80012B806A80A16A9B80847A8DF
:10F53A0000A1A1B800A5A5DCECA80203B80014A19B
:10F54A00A116A9B804614900DE05E19802EF10A8E6
:10F55A000612A80203A1A112F19802C6C7C0C3F6F7
:10F56A00C1AB12A8021613612900C1A80A14A9B8CE
:10F57A000412A80E23F7FC439D00141004F6C1A838
:10F58A000216A80A27C115FC269E0010041288023A
:10F59A00718CA804DE0303EF0123100CD7A8020123
:10F5AA0003B1B1EF010314A9EFF0FE190140E9CF4D
:10F5BA0001DF50F51BCFCF1CCF808FE8CF3402007C
:10F5CA00321BCFFC8BF10030701704FFFFDFFBD535
:10F5DA0018CFDDFBF518CFE51BCFCF1CCF0C8FE87A
:10F5EA00CF340200321BCFFC8BF10030701704FFBE
:10F5FA00FFDFFBD518CFDDFBF518CFCF1BCF04CF2C
:10F60A001CCF05401ACF01DF08CFE9CF02F5C0C3EE
:10F61A00D7E5E9CFD7C740E9CF0161E8EE85008F8A
:10F62A00E8CF340100321BCFFC8BF1003070170495
:10F63A00FFFFDFFBD518CFDDFBF518CF8FE8CF34FE
:10F64A000100321DCFFCBCF10030701704FFFFDF50
:10F65A00FBD519CFDDFBF519CF8FE8CF3401003286
:10F66A001CCFFC8BF10030701704FFFFDFFBD518AD
:10F67A00CFDDFBF518CF8FE8CF340100321ECFFC67
:10F68A00BCF10030701704FFFFDFFBD519CFDDFB9B
:10F69A00F519CF8F1DCF9800F6BFE6CFC0C18F1ED8
:10F6AA00CFBFE4CF401ACF01DF11CFE9CF02F5C0B7
:10F6BA00C3F6BFE6CFB1BFE4CFEF03E5E9CFDBE6A0
:10F6CA00CFAFE4CFC4D7F51BCFF51CCF8FE8CF342B
:10F6DA000200321BCFFC8BF10030701704FFFFDFF2
:10F6EA00FBD518CFDDFBF518CF401ACF01DF08CFC5
:10F6FA00E9CF02F5C0C3D7E5E9CFD704FFFFDD0B99
:10F70A0004FFFFDD12440100DD19D71304050012BE
:10F71A00308ED3EC3F000113040500123098D3EC6D
:10F72A0026000113040500EC77F900F1FC2AC00059
:10F73A00FCF3CD00FCC7C900FCF6F400FC6BC0006A
:10F74A00FCBBC800FCBABA00FC71FF00FC4BFC0011
:10F75A00FCEAF800F51CC3F577C3F6BF06C3BF047D
:10F76A00C3E50CC3F58FC3CF8DC302D7318E12F612
:10F77A0014F1ECBCBE00F614F7511BECBCBE00D170
:10F78A00DD0A91DD0F91DD1491DD1ED760318E12F5
:10F79A005121EF0E60318E125120EF0660318E1228
:10F7AA00511F340000ECBCBE0060318E125122EFB2
:10F7BA00F1AFF2CF12609F82D3AFF0CF14609F8077
:10F7CA00D3139F83D3159F81D33486D3AFF6CF1239
:10F7DA009A01629F86D3AFF4CF12609F84D3139F9E
:10F7EA0085D3AFFCCF12609F8AD3139F8BD3AFFA16
:10F7FA00CF12609F88D3139F89D334B4CE500D366D
:10F80A0080D38B9990A5A7DFF9E7F6FC4EF0003478
:10F81A000D00F7F6EC87F0002006340D00F7F6FC31
:10F82A00DEF0003480D3500D36E6CE8B9990A5A732
:10F83A00DFF9D982D38F80D398008F83D3B8044459
:10F84A00FFFFC0C18F81D3B80261F844FFFFDF1107
:10F85A00F583D3F582D3F581D3F580D3F6B802B810
:10F86A00043486D38F84D39800D986D38A01164468
:10F87A00FFFFC0C18F85D3B80061F844FFFFDF10D6
:10F88A00CA0100F586D3F585D3F584D3F6B80016F8
:10F89A00D98AD38F8BD31444FFFFDF0AF58BD3CFDA
:10F8AA008AD3AA34AA00D988D38F89D31244FFFFF6
:10F8BA00DF07F589D3F588D3F7408CD3FF61F8F5D4
:10F8CA008CD3A802BFF0CFA804BFF2CF17BFF6CFE0
:10F8DA00A800BFF4CF13BFFACF15BFFCCF1006D7CD
:10F8EA00F6BFEECFBFECCFBFF2CFBFF0CFBFF6CFA0
:10F8FA00BFF4CFBFF8CFBFFACFBFFCCFD7200634B3
:10F90A000F00F7E6FCDEF0003413D0500F36E6CED7
:10F91A008B9990A5A7DFF9F73013D0B800C8020F6A
:10F92A003404D015B804C6C789754D61F8A3A80078
:10F93A0035998802919802A5C0C5A804A114B804F3
:10F94A00DFE413440F0034B4CE500F3613D0DF0374
:10F95A001006D78B9990A5A7DFF9E7E6FC4EF000D1
:10F96A00340F00F7E61006EC87F00000D714890C74
:10F97A00FEDD1E91DD3491DF598A01779F2AD08AF4
:10F98A00029F29D0318E1267318E340000EC51C8A3
:10F99A00008A029F27D0D1DF05E527D0EF084C6502
:10F9AA0061C8CF27D0645103EF268A0191DD0F91F8
:10F9BA00DD1791DF1D8A029F26D05102EF128A03BA
:10F9CA00708A02BF24D0E1EF078A029F28D051042F
:10F9DA00EF01D7C1200C340700C80A00C80900C8C3
:10F9EA000800C80700C80600C80500C80400C80403
:10F9FA0000F7300300FCDEF0005307AEF804040001
:10FA0A00B80034E6CE15B8028972C4C5629993A5C6
:10FA1A00C0C5A802A114B802DFEE880DD1DD13918A
:10FA2A00DD1B91DD2391DD2791DF298F28D0980AEC
:10FA3A00EF22AF22D0129804629805EF17AF24D0B4
:10FA4A00129806629807EF0C8F26D09808EF058F58
:10FA5A0027D09809E7300300FC4EF00034B4CE53A7
:10FA6A0007AEF8040400168B9993A5A7DFF93407AB
:10FA7A0000F7300300FC87F000100ED7200C340783
:10FA8A0000C80A00C80900C80800C80700C806005C
:10FA9A00C80500C80400C80400F7300300FCDEF003
:10FAAA00005307AEF8040400B80034E6CE15B802D5
:10FABA008972C4C5629993A5C0C5A802A114B802E7
:10FACA00DFEE8805708804F74361F8E6BF22D08824
:10FADA0007708806BF24D088089F26D088099F27E8
:10FAEA00D0D1DF05E527D0EF084C6561C8CF27D014
:10FAFA0064880A9F28D0100CD7F6BF22D0BF24D022
:10FB0A00F526D0F527D0F528D0D72006D540D0DF66
:10FB1A000FE540D0AFEECFBF34D0AFECCFBF32D07D
:10FB2A00AFEECF16BF30D0AFECCF14BF2ED0DB3440
:10FB3A00D013B8041743DB32D013B8021561F84367
:10FB4A00DE06F6B12305EF0123B800F743DF031001
:10FB5A0006D712AF3ED0FC349D0014C2C3A80203DC
:10FB6A00BF32D0A80461D8A1BF34D01502F4CFBFE8
:10FB7A00F4CFF661D8A102F6CFBFF6CF30F4CFFEAC
:10FB8A001A0002F0CFBFF0CF1361D8A102F2CFBFA3
:10FB9A00F2CFEFBB321400FCD09D00D7C12008146D
:10FBAA00F6C130E803C1AA02B80812A9B806FC26B1
:10FBBA009E00B80413B80A1004A80003DF07DC0586
:10FBCA00A800100AD7F6C130E803C1A80812A8068F
:10FBDA00FC5F9E0014A80C35B913BA021004A806DB
:10FBEA0012EFDDBFF0CF13BFF2CFD7DBF2CFAFF00A
:10FBFA00CFD7BFF4CF13BFF6CFD7DBF6CFAFF4CF53
:10FC0A00D72004AF24D0F7FC979E0014304940C196
:10FC1A0030E926C115FC569C00B80613B804100436
:10FC2A008F26D0318EF7FC979E00C3C1A80412A874
:10FC3A0006FC9B9A001004FC289D00BF3ED01004CD
:10FC4A00D7F6BF34D0BF32D0BF38D0BF36D0BF3CD2
:10FC5A00D0BF3AD0BF3ED0F540D0D72010A27AD03C
:10FC6A00D57ED0DF6030FBFF02ACCEBF64D0F6B1E8
:10FC7A0061D8A102AECEBF66D0FCF5FB00B802C0C7
:10FC8A00C3FC04FC00B80413B806F6C130E803C18B
:10FC9A00A80412A806FC439D00141004F6BF52D013
:10FCAA00BF50D0A80405BF4CD0BF54D0A80661D815
:10FCBA00A103BF4ED0BF56D0F6BF5AD0BF58D0E529
:10FCCA007ED0EE6C01FCF5FB00B804C0C3FC04FC5A
:10FCDA0000B80213B806F6BF52D0BF50D0C130E800
:10FCEA0003C1A80412A808FC439D0014A80605B87D
:10FCFA0012BF4CD0A80A61D8A103B810BF4ED0A831
:10FD0A00122254D0B808BF68D0A81061D8B12256C0
:10FD1A00D0B80ABF6AD01004F743A80461F844F4C3
:10FD2A000161D8EE0B01DBAECEAFACCE2264D0B807
:10FD3A00081361D8B12266D0B80A12A808FC979EA7
:10FD4A0000B802C0C3A80612A804FC979E0014A813
:10FD5A0000C1A804C115FC9B9A0014100430664027
:10FD6A00C15166C115FC569C00B806BF70D013B8C5
:10FD7A0004BF72D0A80EBF6ED0A80CBF6CD01004FE
:10FD8A00F6C1C1A80412A806FCC99B001004D1DF61
:10FD9A002530803FC1F6C1A80412A806FCF59B00D5
:10FDAA001004D1DD1130803FBF72D0F6BF70D0B8D9
:10FDBA000230803FB800C2C3A802FC289D00B806E2
:10FDCA0013B804A806FC979E00C3C1A80412A8068B
:10FDDA00FC5D9900141004307A44C1F6C115FC5632
:10FDEA009C001004FC289D00BF7CD044F401A804A8
:10FDFA00BF62D0A806BF60D0DC12040100B806BFFB
:10FE0A0060D0A804DE03A1B804BF62D0F6BF5AD0FE
:10FE1A00BF58D0A80EBF54D0A80CBF56D0AFAECE94
:10FE2A00BF66D0AFACCEBF64D0A80412A806FE3518
:10FE3A0000AF7AD0441400DF1DFE810091DF0DF679
:10FE4A00BF62D0BF60D0BF82D0BF80D0AF60D0FECB
:10FE5A00A300F6BF7AD0AF74D0BF80D0BFFECFF672
:10FE6A00BF82D01010D7C3C1C714AF82D01643AF18
:10FE7A0080D0B80061F845DD41A804F743A80261C3
:10FE8A00F8440A00DC28A804121743A80212A800A2
:10FE9A0061F843DE041413EF02C3C425E743DF0C01
:10FEAA00E60284D0BF84D0440500DF0EA802BF80DA
:10FEBA00D0A804BF82D0F6BF84D01006D7AFEECF49
:10FECA00BF44D0BF48D0AFECCF12BF42D02246D0F9
:10FEDA0013BF46D0DF12E60278D0BF78D0440500BF
:10FEEA00DC0AF6BF78D0E1D7F6BF78D0F1D7DB824B
:10FEFA00D0AF80D0D71230E803C11334E80332768A
:10FF0A00D0FE0500C2BF74D0D7C3C1C7C3C6A802FA
:10FF1A0012ABB80043A800DF031006D743DE0C1566
:10FF2A000161D329A80216A800EF0BA80A140161DF
:10FF3A00D31BC6C7A802121531FFC1C51723F7FC88
:10FF4A00439D001004311C31FE0316DF02E616A899
:10FF5A000212A80043A80414A800DE0407B9EFB9E6
:10FF6A0027EFFAAF74D0D7F6BF52D0BF50D0BF4EEA
:10FF7A00D0BF4CD0BF5AD0BF58D0BF56D0BF54D034
:10FF8A00BF6AD0BF68D0BF72D0BF70D0BF62D0BFC7
:10FF9A0060D0BF7CD0BF44D0BF42D0BF48D0BF469C
:10FFAA00D0BF78D0BF7AD0BF6ED0BF6CD0BF66D07A
:10FFBA00BF64D0BF76D0BF74D0BF82D0BF80D0BF5D
:10FFCA0084D0F57ED0D7FC14FB00FC65FC0040868B
:10FFDA00D001DF2AAF96D3C18F94D3318E14DB9030
:10FFEA00D3AF8ED3FCD30001C0AF96D3C18F94D3C5
:06FFFA00318E14DB90D3F0
:020000021000EC
:10000000AF8ED3FC7A0201C04098D301E161E8F1E0
:100010009F00D0AF92D301510361E3F19F01D08FD4
:1000200094D39F02D0D714C3C6F78B5C03993003D7
:1000300002D714C3C6895C039C01F7300302D7C7FB
:1000400014C3C68C0298008C01738B318EBA02C027
:10005000C163B98C04708C03BA048C059A068C07B2
:10006000708C06BA08D586D061F8E586D0F73001E5
:1000700002C4D7C3C1C7C3C4A802A1B800A1168BCC
:1000800099C6C78B9A01A80214A80416899C021568
:1000900004040016A78B73A80416639C038A049CAF
:1000A000048A069C051504080016A78B73A804167D
:1000B000639C068A089C071006F7300102D7F6BF3A
:1000C00092D3BF96D3BF90D3BF8ED3F594D3D7F539
:1000D00098D3D7C3C1C7C5D588D0DF7AA800F7FCAD
:1000E000979E001430C842C1F6C115FC9B9A00B817
:1000F0000613B8041004F7A80CFC979E00C3C1A80F
:100100000412A806FC569C00B80613B8041004A8F4
:100110000612A804FC979E0014307A44C1F6C1155B
:10012000FC9B9A001004C3C1A80412A806FC569CAC
:10013000001004FC289D00BFB8D3E588D0A800BFFC
:1001400090D0A802BF8ED0AFF2CFBFB4D3AFF0CF64
:10015000BFB2D3EEB600AFF0CF1422B2D3028AD032
:1001600012BF8AD0446500AFF2CFBFB4D315BFB27F
:10017000D3DC14A08CD013049CFFBF8AD0A8041237
:10018000A80614F1FE8800408CD005DF7FA800F798
:10019000FC979E001430C842C1F6C115FC9B9A0022
:1001A000B80613B8041004F7A80CFC979E00C3C14E
:1001B000A80412A806FC569C00BF8ED013BF90D096
:1001C000F58CD01004A80412A80614E1FE4000DB50
:1001D000B0D3AFAED3FC979E0014307A44C1F6C1C1
:1001E00015FC9B9A001004C3C1DB90D0AF8ED0FCED
:1001F000569C001004FC289D0012BFB6D3AFB8D3A4
:1002000023BFBAD301BFFACF13BFB8D31008D7C3E7
:10021000C5D1DD4591DF60F6B800369AD3121415CA
:10022000610900141361D8A161090212A800A1B8E4
:1002300000BF92D01704040016A800440500DCDFBC
:10024000F6C15005C115FC269E00BFAED313BFB04A
:10025000D3F6BF92D01004EF1EAF92D0440500DE5B
:100260001212312D049AD314A800BA02A802B9A31D
:1002700013EF01F6BF92D01004D7C3C12006AFFA26
:10028000CFB804F743A80EDD0343DF03100AD715E8
:10029000FC979E001430C842C1F6C115FC9B9A0021
:1002A000B80613B8041004F7A80EFC979E00C3C14B
:1002B000A80412A806FC569C00B80613B804100443
:1002C000A80812A806FC979E00C3C1A80412A8069D
:1002D000FC569C00141004307A44C1F6C115FC9BF6
:1002E0009A001004FC289D0014A8041215FCD09D4F
:0702F00000BFFCCFEF96D721
:1002F80000000000000000000000000001000000F5
:1003080000000000020000000000000000000000E3
:1003180000000000000000000000040000000500CC
:1003280000000600000007000000080000000900A7
:1003380000000A0000000B0000000C0000000D0087
:1003480000000E0000000F00000010000000110067
:100358000000120000001800000019000000000052
:100368000000000000000000000000000000000085
:100378000000000000000000000000000002000073
:100388000000000000000000000000000000000065
:100398000000000000000000000000000201000052
:1003A8000000000000000000FFFFFFFF0000000049
:1003B8000001000000000000000000000000000034
:1003C800000000000000000000000A000A00000110
:1003D8000000000004000000000000000000000011
:1003E8000000000000000000000000000000000005
:1003F80000000000000000000000000000000000F5
:1004080000000000000000000000000000000000E4
:1004180000000000000000000000000000000000D4
:1004280000000000000000000000000000000000C4
:1004380000000000000000000000000000000000B4
:1004480000000000000000000000000000000000A4
:100458000000000000000000000000000000000094
:100468000000000000000000000000000000000084
:100478000000000000000000000000000000000074
:100488000000000000000000000000000000000064
:100498000000000000000000000000000000000054
:1004A8000000000000000000000000000000000044
:1004B8000000000000000000000000000000000034
:1004C8000000000000000000000000000000000024
:1004D8000000000000000000000000000000000014
:1004E8000000000000000000000000000000000004
:1004F80000000000000000000000000000000000F4
:1005080000000000000000000000000000000000E3
:1005180000000000000000000000000000000000D3
:1005280000000000000000000000000000000000C3
:1005380000000000000000000000000000000000B3
:1005480000000000000000000000000000000000A3
:100558000000000000000000000000000000000093
:100568000000000000000000000000000000000083
:100578000000000000000000000000000000000073
:100588000000000000000000000000000000000063
:100598000000000000000000000000000000000053
:1005A8000000000000000000000000000000000043
:1005B8000000000000000000000000000000000033
:1005C8000000000000000000000000000000000023
:1005D8000000000000000000000000000000000013
:1005E8000000000000000000000000000000000003
:1005F80000000000000000000000000000000000F3
:1006080000000000000000000000000000000000E2
:1006180000000000000000000000000000000000D2
:1006280000000000000000000000000000000000C2
:1006380000000000000000000000000000000000B2
:1006480000000000000000000000000000000000A2
:100658000000000000000000000000000000000092
:100668000000000000000000000000000000000082
:100678000000000000000000000000000000000072
:100688000000000000000000000000000000000062
:100698000000000000000000000000000000000052
:1006A8000000000000000000000000000000000042
:1006B8000000000000000000000000000000000032
:1006C8000000000000000000000000000000000022
:1006D8000000000000000000000000000000000012
:1006E8000000000000000000000000000000000002
:1006F80000000000000000000000000000000000F2
:1007080000000000000000000000000000000000E1
:1007180000000000000000000000000000000000D1
:1007280000000000000000000000000000000000C1
:1007380000000000000000000000000000000000B1
:1007480000000000000000000000000000000000A1
:100758000000000000000000000000000000000091
:100768000000000000000000000000000000000081
:100778000000000000000000000000000000000071
:100788000000000000000000000000000000000061
:100798000000000000000000000000000000000051
:1007A8000000000000000000000000000000000041
:1007B8000000000000000000000000000000000031
:1007C8000000000000000000000000000000000021
:1007D8000000000000000000000000000000000011
:1007E8000000000000000000000000000000000001
:1007F80000000000000000000000000000000000F1
:1008080000000000000000000000000000000000E0
:1008180000000000000000000000000000000000D0
:1008280000000000000000000000000000000000C0
:1008380000000000000000000000000000000000B0
:1008480000000000000000000000000000000000A0
:100858000000000000000000000000000000000090
:100868000000000000000000000000000000000080
:100878000000000000000000000000000000000070
:100888000000000000000000000000000000000060
:100898000000000000000000000000000000000050
:1008A8000000000000000000000000000000000040
:1008B8000000000000000000000000000000000030
:1008C8000000000000000000000000000000000020
:1008D8000000000000000000000000000000000010
:1008E8000000000000000000000000000000000000
:1008F80000000000000000000000000000000000F0
:1009080000000000000000000000000000000000DF
:1009180000000000000000000000000000000000CF
:1009280000000000000000000000000000000000BF
:1009380000000000000000000000000000000000AF
:10094800000000000000000000000000000000009F
:10095800000000000000000000000000000000008F
:10096800000000000000000000000000000000007F
:10097800000000000000000000000000000000006F
:10098800000000000000000000000000000000005F
:10099800000000000000000000000000000000004F
:1009A800000000000000000000000000000000003F
:1009B800000000000000000000000000000000002F
:1009C800000000000000000000000000000000001F
:1009D800000000000000000000000000000000000F
:1009E80000000000000000000000000000000000FF
:1009F80000000000000000000000000000000000EF
:100A080000000000000000000000000000000000DE
:100A180000000000000000000000000000000000CE
:100A280000000000000000000000000000000000BE
:100A380000000000000000000000000000000000AE
:100A4800000000000000000000000000000000009E
:100A5800000000000000000000000000000000008E
:100A6800000000000000000000000000000000007E
:100A7800000000000000000000000000000000006E
:100A8800000000000000000000000000000000005E
:100A9800000000000000000000000000000000004E
:100AA800000000000000000000000000000000003E
:100AB800000000000000000000000000000000002E
:100AC800000000000000000000000000000000001E
:100AD800000000000000000000000000000000000E
:100AE80000000000000000000000000000000000FE
:100AF80000000000000000000000000000000000EE
:100B080000000000000000000000000000000000DD
:100B180000000000000000000000000000000000CD
:100B280000000000000000000000000000000000BD
:100B380000000000000000000000000000000000AD
:100B4800000000000000000000000000000000009D
:100B5800000000000000000000000000000000008D
:100B6800000000000000000000000000000000007D
:100B7800000000000000000000000000000000006D
:100B8800000000000000000000000000000000005D
:100B9800000000000000000000000000000000004D
:100BA800000000000000000000000000000000003D
:100BB800000000000000000000000000000000002D
:100BC800000000000000000000000000000000001D
:100BD800000000000000000000000000000000000D
:100BE80000000000000000000000000000000000FD
:100BF80000000000000000000000000000000000ED
:100C080000000000000000000000000000000000DC
:100C180000000000000000000000000000000000CC
:100C280000000000000000000000000000000000BC
:100C380000000000000000000000000000000000AC
:100C4800000000000000000000000000000000009C
:100C5800000000000000000000000000000000008C
:100C6800000000000000000000000000000000007C
:100C7800000000000000000000000000000000006C
:100C8800000000000000000000000000000000005C
:100C9800000000000000000000000000000000004C
:100CA800000000000000000000000000000000003C
:100CB800000000000000000000000000000000002C
:100CC800000000000000000000000000000000001C
:100CD800000000000000000000000000000000000C
:100CE80000000000000000000000000000000000FC
:100CF80000000000000000000000000000000000EC
:100D080000000000000000000000000000000000DB
:100D180000000000000000000000000000000000CB
:100D280000000000000000000000000000000000BB
:100D380000000000000000000000000000000000AB
:100D4800000000000000000000000000000000009B
:100D5800000000000000000000000000000000008B
:100D6800000000000000000000000000000000007B
:100D7800000000000000000000000000000000006B
:100D8800000000000000000000000000000000005B
:100D9800000000000000000000000000000000004B
:100DA800000000000000000000000000000000003B
:100DB800000000000000000000000000000000002B
:100DC800000000000000000000000000000000001B
:100DD800000000000000000000000000000000000B
:100DE80000000000000000000000000000000000FB
:100DF80000000000000000000000000000000000EB
:100E080000000000000000000000000000000000DA
:100E180000000000000000000000000000000000CA
:100E280000000000000000000000000000000000BA
:100E380000000000000000000000000000000000AA
:100E4800000000000000000000000000000000009A
:100E5800000000000000000000000000000000008A
:100E6800000000000000000000000000000000007A
:100E7800000000000000000000000000000000006A
:100E8800000000000000000000000000000000005A
:100E9800000000000000000000000000000000004A
:100EA800000000000000000000000000000000003A
:100EB800000000000000000000000000000000002A
:100EC800000000000000000000000000000000001A
:100ED800000000000000000000000000000000000A
:100EE80000000000000000000000000000000000FA
:100EF80000000000000000000000000000000000EA
:100F080000000000000000000000000000000000D9
:100F180000000000000000000000000000000000C9
:100F280000000000000000000000000000000000B9
:100F380000000000000000000000000000000001A8
:100F48000003000000000000000000000101000391
:100F58000000000000000000000002010003000083
:100F68000000000000000000030100030000000072
:100F78000000000000000401000300000000000061
:100F88000000000005010003000000000000000050
:100F9800000006010003000000000000000000003F
:100FA8000701000100000000000000000000080127
:100FB800000300000000000000000000090100011B
:100FC800000000000000000000000A01000100000D
:100FD800000002000000000088000300000000007C
:100FE80000000000000000000000000000000000F9
:100FF80000000000312E302E302E3000000000009E
:1010080000000000000000000000000000000000D8
:1010180000000000000000000000000000000000C8
:1010280000000000000000000000000000000000B8
:1010380000000000000000000000000000000000A8
:101048000000000000000000000000000000000098
:101058000000000000000000000000000000000088
:101068000000000000000000000000000000000078
:101078000000000000000000000000000000000068
:0810880000000000010000005F
:101090007100900016BF04088C019F0108E5030849
:1010A000F2FCF8FF0E62CF800804D716E503088C27
:1010B00002088C03BF0408340010CF02080F8C060E
:1010C0009F81084C03DD2415080E00081E01BF0097
:1010D00008148C04088C05BF06081251004E06DD6A
:1010E0001BF98108FCF8FF0E62EF20300004BF06F8
:1010F000088C003129F005BF0008EFE5FB0408006B
:10110000899BA7A5B3F643DFF75100D7FC04F00E87
:0E11100062D7FC08F00E71089000F58008D739
:020000023000CC
:10FE0000FFFFFFFFFFFFFFFFFFFFFFFFFFFFFFFF02
:10FE1000FFFFFFFFFFFFFFFFFFFFFFFFFFFFFFFFF2
:10FE2000FFFFFFFFFFFFFFFFFFFFFFFFFFFFFFFFE2
:10FE3000FFFFFFFFFFFFFFFFFFFFFFFFFFFFFFFFD2
:10FE4000FFFFFFFFFFFFFFFFFFFFFFFFFFFFFFFFC2
:10FE5000FFFFFFFFFFFFFFFFFFFFFFFFFFFFFFFFB2
:10FE6000FFFFFFFFFFFFFFFFFFFFFFFFFFFFFFFFA2
:10FE7000FFFFFFFFFFFFFFFFFFFFFFFFFFFFFFFF92
:10FE8000FFFFFFFFFFFFFFFFFFFFFFFFFFFFFFFF82
:10FE9000FFFFFFFFFFFFFFFFFFFFFFFFFFFFFFFF72
:10FEA000FFFFFFFFFFFFFFFFFFFFFFFFFFFFFFFF62
:10FEB000FFFFFFFFFFFFFFFFFFFFFFFFFFFFFFFF52
:10FEC000FFFFFFFFFFFFFFFFFFFFFFFFFFFFFFFF42
:10FED000FFFFFFFFFFFFFFFFFFFFFFFFFFFFFFFF32
:10FEE000FFFFFFFFFFFFFFFFFFFFFFFFFFFFFFFF22
:10FEF000FFFFFFFFFFFFFFFFFFFFFFFFFFFFFFFF12
:10FF0000FFFFFFFFFFFFFFFFFFFFFFFFFFFFFFFF01
:10FF1000FFFFFFFFFFFFFFFFFFFFFFFFFFFFFFFFF1
:10FF2000FFFFFFFFFFFFFFFFFFFFFFFFFFFFFFFFE1
:10FF3000FFFFFFFFFFFFFFFFFFFFFFFFFFFFFFFFD1
:10FF4000FFFFFFFFFFFFFFFFFFFFFFFFFFFFFFFFC1
:10FF5000FFFFFFFFFFFFFFFFFFFFFFFFFFFFFFFFB1
:10FF6000FFFFFFFFFFFFFFFFFFFFFFFFFFFFFFFFA1
:10FF7000FFFFFFFFFFFFFFFFFFFFFFFFFFFFFFFF91
:10FF8000FFFFFFFFFFFFFFFFFFFFFFFFFFFFFFFF81
:10FF9000FFFFFFFFFFFFFFFFFFFFFFFFFFFFFFFF71
:10FFA000FFFFFFFFFFFFFFFFFFFFFFFFFFFFFFFF61
:10FFB000FFFFFFFFFFFFFFFFFFFFFFFFFFFFFFFF51
:10FFC000FFFFFFFFFFFFFFFFFFFFFFFFFFFFFFFF41
:10FFD000FFFFFFFFFFFFFFFFFFFFFFFFFFFFFFFF31
:10FFE000FFFFFFFFFFFFFFFFFFFFFFFFFFFFFFFF21
:10FFF000FFFFFFFFFFFFFFFFFFFFFFFFFFFFFFFF11
:00000001FF
