:100000000090FFFF5A907A909A90BA90DA90FA9006
:100010001A913A915A917A919A91BA91DA91FA9108
:100020001A923A925A927A9200009A92BA92DA927C
:10003000FA921A933A935A937A939A93BA93000046
:10004000DA93FA931A943A945A94000000007A943E
:100050009A94BA94DA94FA941A953A955A957A95AC
:1000600000009A950000BA95DA95FA951A963A9694
:100070005A967A969A96BA96DA9600000000000090
:0400C000F6FFC884FB
:0A00C4000000000000000000000032
:0A00CE00FFFFFFFFFFFFFFFFFFFF32
:10900000CBF800FD3048D3FC33B400FC32B400365A
:1090100012D03048D3EF04CC0000A747DFF9362048
:10902000FE3020FEEF04CC0000A747DFF9410132FB
:10903000120DEF08B31149CE034800C3F643DFF425
:109040004101320000EF08B31149E0104820FEF65C
:1090500043DFF4FC91BD00F6EFFEC1C3C5C78EFD32
:10906000708EFCC18F02FD9EFCFB00FD61FAC09E6C
:10907000FC609EFDC6C4C2C061FCC1C3C5C78EFDF5
:10908000708EFCC18F06FD9EFCFB04FD61FAC09E44
:10909000FC609EFDC6C4C2C061FCC1C3C5C78EFDD5
:1090A000708EFCC18F0AFD9EFCFB08FD61FAC09E1C
:1090B000FC609EFDC6C4C2C061FCC1C3C5C78EFDB5
:1090C000708EFCC18F0EFD9EFCFB0CFD61FAC09EF4
:1090D000FC609EFDC6C4C2C061FCC1C3C5C78EFD95
:1090E000708EFCC18F12FD9EFCFB10FD61FAC09ECC
:1090F000FC609EFDC6C4C2C061FCC1C3C5C78EFD75
:10910000708EFCC18F16FD9EFCFB14FD61FAC09EA3
:10911000FC609EFDC6C4C2C061FCC1C3C5C78EFD54
:10912000708EFCC18F1AFD9EFCFB18FD61FAC09E7B
:10913000FC609EFDC6C4C2C061FCC1C3C5C78EFD34
:10914000708EFCC18F1EFD9EFCFB1CFD61FAC09E53
:10915000FC609EFDC6C4C2C061FCC1C3C5C78EFD14
:10916000708EFCC18F22FD9EFCFB20FD61FAC09E2B
:10917000FC609EFDC6C4C2C061FCC1C3C5C78EFDF4
:10918000708EFCC18F26FD9EFCFB24FD61FAC09E03
:10919000FC609EFDC6C4C2C061FCC1C3C5C78EFDD4
:1091A000708EFCC18F2AFD9EFCFB28FD61FAC09EDB
:1091B000FC609EFDC6C4C2C061FCC1C3C5C78EFDB4
:1091C000708EFCC18F2EFD9EFCFB2CFD61FAC09EB3
:1091D000FC609EFDC6C4C2C061FCC1C3C5C78EFD94
:1091E000708EFCC18F32FD9EFCFB30FD61FAC09E8B
:1091F000FC609EFDC6C4C2C061FCC1C3C5C78EFD74
:10920000708EFCC18F36FD9EFCFB34FD61FAC09E62
:10921000FC609EFDC6C4C2C061FCC1C3C5C78EFD53
:10922000708EFCC18F3AFD9EFCFB38FD61FAC09E3A
:10923000FC609EFDC6C4C2C061FCC1C3C5C78EFD33
:10924000708EFCC18F3EFD9EFCFB3CFD61FAC09E12
:10925000FC609EFDC6C4C2C061FCC1C3C5C78EFD13
:10926000708EFCC18F42FD9EFCFB40FD61FAC09EEA
:10927000FC609EFDC6C4C2C061FCC1C3C5C78EFDF3
:10928000708EFCC18F46FD9EFCFB44FD61FAC09EC2
:10929000FC609EFDC6C4C2C061FCC1C3C5C78EFDD3
:1092A000708EFCC18F4EFD9EFCFB4CFD61FAC09E92
:1092B000FC609EFDC6C4C2C061FCC1C3C5C78EFDB3
:1092C000708EFCC18F52FD9EFCFB50FD61FAC09E6A
:1092D000FC609EFDC6C4C2C061FCC1C3C5C78EFD93
:1092E000708EFCC18F56FD9EFCFB54FD61FAC09E42
:1092F000FC609EFDC6C4C2C061FCC1C3C5C78EFD73
:10930000708EFCC18F5AFD9EFCFB58FD61FAC09E19
:10931000FC609EFDC6C4C2C061FCC1C3C5C78EFD52
:10932000708EFCC18F5EFD9EFCFB5CFD61FAC09EF1
:10933000FC609EFDC6C4C2C061FCC1C3C5C78EFD32
:10934000708EFCC18F62FD9EFCFB60FD61FAC09EC9
:10935000FC609EFDC6C4C2C061FCC1C3C5C78EFD12
:10936000708EFCC18F66FD9EFCFB64FD61FAC09EA1
:10937000FC609EFDC6C4C2C061FCC1C3C5C78EFDF2
:10938000708EFCC18F6AFD9EFCFB68FD61FAC09E79
:10939000FC609EFDC6C4C2C061FCC1C3C5C78EFDD2
:1093A000708EFCC18F6EFD9EFCFB6CFD61FAC09E51
:1093B000FC609EFDC6C4C2C061FCC1C3C5C78EFDB2
:1093C000708EFCC18F72FD9EFCFB70FD61FAC09E29
:1093D000FC609EFDC6C4C2C061FCC1C3C5C78EFD92
:1093E000708EFCC18F76FD9EFCFB74FD61FAC09E01
:1093F000FC609EFDC6C4C2C061FCC1C3C5C78EFD72
:10940000708EFCC18F7AFD9EFCFB78FD61FAC09ED8
:10941000FC609EFDC6C4C2C061FCC1C3C5C78EFD51
:10942000708EFCC18F7EFD9EFCFB7CFD61FAC09EB0
:10943000FC609EFDC6C4C2C061FCC1C3C5C78EFD31
:10944000708EFCC18F82FD9EFCFB80FD61FAC09E88
:10945000FC609EFDC6C4C2C061FCC1C3C5C78EFD11
:10946000708EFCC18F86FD9EFCFB84FD61FAC09E60
:10947000FC609EFDC6C4C2C061FCC1C3C5C78EFDF1
:10948000708EFCC18F8AFD9EFCFB88FD61FAC09E38
:10949000FC609EFDC6C4C2C061FCC1C3C5C78EFDD1
:1094A000708EFCC18F8EFD9EFCFB8CFD61FAC09E10
:1094B000FC609EFDC6C4C2C061FCC1C3C5C78EFDB1
:1094C000708EFCC18F92FD9EFCFB90FD61FAC09EE8
:1094D000FC609EFDC6C4C2C061FCC1C3C5C78EFD91
:1094E000708EFCC18F96FD9EFCFB94FD61FAC09EC0
:1094F000FC609EFDC6C4C2C061FCC1C3C5C78EFD71
:10950000708EFCC18F9AFD9EFCFB98FD61FAC09E97
:10951000FC609EFDC6C4C2C061FCC1C3C5C78EFD50
:10952000708EFCC18F9EFD9EFCFB9CFD61FAC09E6F
:10953000FC609EFDC6C4C2C061FCC1C3C5C78EFD30
:10954000708EFCC18FA2FD9EFCFBA0FD61FAC09E47
:10955000FC609EFDC6C4C2C061FCC1C3C5C78EFD10
:10956000708EFCC18FA6FD9EFCFBA4FD61FAC09E1F
:10957000FC609EFDC6C4C2C061FCC1C3C5C78EFDF0
:10958000708EFCC18FAAFD9EFCFBA8FD61FAC09EF7
:10959000FC609EFDC6C4C2C061FCC1C3C5C78EFDD0
:1095A000708EFCC18FAEFD9EFCFBACFD61FAC09ECF
:1095B000FC609EFDC6C4C2C061FCC1C3C5C78EFDB0
:1095C000708EFCC18FB2FD9EFCFBB0FD61FAC09EA7
:1095D000FC609EFDC6C4C2C061FCC1C3C5C78EFD90
:1095E000708EFCC18FB6FD9EFCFBB4FD61FAC09E7F
:1095F000FC609EFDC6C4C2C061FCC1C3C5C78EFD70
:10960000708EFCC18FBAFD9EFCFBB8FD61FAC09E56
:10961000FC609EFDC6C4C2C061FCC1C3C5C78EFD4F
:10962000708EFCC18FBEFD9EFCFBBCFD61FAC09E2E
:10963000FC609EFDC6C4C2C061FCC1C3C5C78EFD2F
:10964000708EFCC18FC2FD9EFCFBC0FD61FAC09E06
:10965000FC609EFDC6C4C2C061FCC1C3C5C78EFD0F
:10966000708EFCC18FC6FD9EFCFBC4FD61FAC09EDE
:10967000FC609EFDC6C4C2C061FCC1C3C5C78EFDEF
:10968000708EFCC18FCAFD9EFCFBC8FD61FAC09EB6
:10969000FC609EFDC6C4C2C061FCC1C3C5C78EFDCF
:1096A000708EFCC18FCEFD9EFCFBCCFD61FAC09E8E
:1096B000FC609EFDC6C4C2C061FCC1C3C5C78EFDAF
:1096C000708EFCC18FD2FD9EFCFBD0FD61FAC09E66
:1096D000FC609EFDC6C4C2C061FCC1C3C5C78EFD8F
:1096E000708EFCC18FD6FD9EFCFBD4FD61FAC09E3E
:0A96F000FC609EFDC6C4C2C061FC10
:1096FA0071109008D70071189008D700C7C5C3C168
:10970A00712090088EFDC1410036F09732F09834EE
:10971A00800A11ABB9A7A7A5A51743DFF5C09EFD1F
:10972A00C0C2C4C6D700C7C5C3C1721516348008E3
:10973A00F6B9A5A53544C00835DFF68EFDC1629E8F
:10974A00FD3182A13DF1114E0261E8710091089F3D
:10975A000308114E0061E8E19F010830800814BF38
:10976A000408118C0199410E114FE8FFDC1411F91C
:10977A00E9FF6142DC0C5200FCF8FF0E7100900810
:0D978A00EF025205C09EFDC062C2C4C6D7EA
:10979800C35208FE310061F8EC800A0F511FC2D78E
:1097A800C35204EF0DC35200EF08C35202EF03C3C4
:1097B8005206FE270061F8EC800A0F511FC2D7003D
:1097C800C151FF500FEF1AC151475007EF13C15154
:1097D800475007EF0CC151475047EF05C151F750AB
:0897E800075F90086148C0D73B
:1097F000C7C5C18EFC758EFD74CEFC0F69740B61FC
:10980000CBFCC4080F624CFFDD47714890087178AB
:1098100090088F9008315539510F9EFCAF92086126
:10982000CB5203EF065206EF025208A80016410E73
:1098300011AFE6FF47DC1817312D9F0208609F012A
:1098400008F50008F50308300004BF0608EF65526C
:1098500005659EFC649EFDC062C4C6C2D7A8001602
:109860008C00708C01BF04088C025C03DFE18C0566
:10987000D1DFDC8C06D1DDD74C41DED370F1312D48
:10988000BF0608B1B1C5148C02708C03BF00080577
:10989000358C049F02081C0035161570C4DCB041DD
:1098A0000E66113FDFFF67113FE0FF60113FE1FFF0
:1098B000DE9D520413FCF8FF0E624CFFDF938F9184
:1098C0000831031071409008604C0361F87170908A
:1098D00008EE7DFFFCC4080FEFDF00000000000071
:1098E00000000000B10AB50AB90AED0A910A0000A9
:1098F000C116F645DD094900009BA3A7B5EFF3C0EB
:10990000D7F7F6D7C031730AA80405148806611288
:1099100015D7D0DFECA8043525148806613215D799
:1099200060616D616CC0DF06317A6158DD16F6B199
:1099300012D767D1DDCE86D0DF63A8066168DF5D10
:1099400061E8C2C015D74C19DEF8A8080876880A65
:10995000B808C80A0051086123DD6AEF4D14880772
:109960007C80980715148807617BF0C1130116A845
:10997000080147DF08A8064561F8C8000161D30A5D
:10998000A80635B806A80833B80813014CFFDD90C7
:1099900077A80801D176DD9AE1317D980867612EBC
:1099A0005600DD22C3734C08DE9C880A311A980ADF
:1099B000A80861FB0861FB08B8086661FB61D87103
:1099C0008A7693DFE5C2C00151806162615BC1DCD0
:1099D00037A806051488086112DE1D62311A721557
:1099E00061FB0861FB08146661FB61D8718A7687A8
:1099F0008761F8EC109F0097130167311E1217352D
:109A0000EC289F00C0F7F6D7D0DFF9F1612E7688F9
:109A10000661348807613588086132623173D9176D
:109A20006433650897DD07311C61EE3175F6087403
:109A30000167311E3308618CEC289F00C0F6B1121B
:109A4000D716A8066168616EDFF2130181DDED6152
:109A5000F8C0C2F2F6D716A8066168616EDD17C3BA
:109A6000880A72A808FC189F00B80813B80AC267D1
:109A7000318FC1EF3FC0130108616D616C61E8E196
:109A80006108DDB8EC109F0060616D616CDDC2158E
:109A9000FC189F001467318F16EF27148807617B2D
:109AA0005C80C1A8080181DD9891DDAA76E1311EB4
:109AB000B80877C7130181DDBC91DDCC76E1311E9A
:109AC000127717C62716A8063525C1880A6132C045
:109AD000DE0B0161FE05C1880A6112C0B7C7318C77
:109AE00072318D61DD717BFACFE80080BEF013BE6C
:109AF000F215BEF6A80CBEF4CFE800818FE8003165
:109B000003FAFBF0FFDBE200AFE00061CD318C72C5
:109B1000318D61DD717BFACFE80080BEF013BEF2BB
:109B200015BEF6A80CBEF4CFE800818FE800310323
:109B3000FAEBF0FFDBE200AFE00061CD318C723177
:109B40008DC761DD717BFACFE80080BEF013BEF2F5
:109B5000A80CBEF6A80EBEF4CFE800818FE8003155
:109B600003FAFBE200DBE000AEF061CD64141361A8
:109B700068616F6166C2C0047E00317324A144FF36
:109B80000061C8EC109F006208311E121561FB08CD
:109B900061FB08DE0604010061D8A314C0616315EF
:109BA000D744E8FF61D8EEA9FE90660835E333316B
:109BB0001E3361FB0861FB08618C61FB61D8718A0F
:109BC000618C85DFE9EC289F00C3C1FCBF9E00D1FA
:109BD000DD0AFC879E0061C8E161D8F11004D7C39B
:109BE000C1FCBF9E00D1DD0AFC879E0061F3E161EC
:109BF000E3F11004D7C0F6B112D716A80661686168
:109C00006EDFF2130108616D616C61E8E16108DDEE
:109C1000E4EC109F001301D1DD0CA80635B806A8AE
:109C20000833B808EF24C2F2F6D760616D616CDDCD
:109C3000F515FC189F001467318F57000716EF29A0
:109C4000148807617B5C80C1A8080181DDAC91DDCF
:109C5000C476E1311EB808130181DDA791DDCB6127
:109C600006F161DC77E1311E12C7A80861DD717B66
:109C7000FAF5E800BEF015BEF200FBF6FFAEF461A7
:109C8000CDC73561DD717BFAF5E800BEF0A80EBEE8
:109C9000F200FBF4FFAEF661CD051461D8A713887E
:109CA0000CD6073361DD717BFAF5E800BEF0A80C35
:109CB000BEF200FBF4FFAEF661CD051466611267DB
:109CC0006113C0616861E8E16164C66331730715BF
:109CD000011461FE61D8A717248000317317A144D5
:109CE000FF0061C8EC109F0063610108311E3365FD
:109CF00008EC289F0044E8FF61D8EE29FF35333196
:109D00001E3361FB0861FB61D8718A0884DFEF357F
:109D1000EFD63331730533ECDB9E00F7F6D7618A5B
:109D200014618BD633D635D6610A610CD761DD71EB
:109D30007BFAF5E800BEF0A808BEF200EBF6FFA83B
:109D400006BEF200AEF40514AEF633BEF000AEF679
:109D500061CD0533D72C08618C318E618B618A61AE
:109D60008C4C08DEF0D1618CDD0B311E33311E339B
:109D700071F994DFF5D7B1D714F643DDF916133135
:109D8000750486F623121531750386F625FCBA9DF7
:109D90000096DF0312F623D716F64337DD19317527
:109DA000048614F6253331750314F62533FCE29D41
:109DB0000096DF0312F623D7B1D714F643DDF91569
:109DC00061DD717BFACFE80080BEF013BEF6F6BE0F
:109DD000F2BEF4CFE800818FE8003103FAAEF06103
:109DE000CDD714F64315DD2261DD717BFACFE80093
:109DF00080BEF013BEF6F6BEF2BEF4CFE800818F4F
:109E0000E8003103FAAFE00061CDD7C0F6B112D758
:109E1000C1FBF8FFA80661686E086E09DDEDC06140
:109E2000DD717BFACFE80080BEF013BEF2AC06BE57
:109E3000F6AC08BEF4CFE800818FE8003103FADB0E
:109E4000F2FFAEF061CDD7C0D7C1FBF8FFA8066125
:109E5000686E086E09DDF0C061DD717BFACFE80045
:109E600080BEF013BEF2AC06BEF6AC08BEF4CFE87E
:109E700000818FE8003103FADBE200AFE00061CD42
:109E8000D75400EC3B9F00FBF8FFAC0E1271FCAC0A
:109E90000671FFDC1161490EAC0461F861490C8C5C
:109EA0000761E871FFD70161686E056E04311C61BE
:109EB0006B616A6E0D6E0CD18C0761E871FCD73155
:109EC0001C83E3DD0ED3DD09A80E0112A80C83DD8F
:109ED00002E1D76168616ADDECF1D7161301550024
:109EE00061D8854C9FDE252C7FDC21318C3371FAC3
:109EF0003370511F6128614874677266F0DC066434
:109F00002C107413F7C5FC5F9D00C4D7F7F675D706
:109F100032807FC06163F6D757013308311C61DCA2
:109F2000973175F8318E33D716311E641C7FDE06EB
:109F3000A7F64761F8A3C0616317D70361C8DD4482
:109F40002333559E440000DF0651106125F1333163
:109F5000730A9501311C61D8A13175F6618A4C8074
:109F6000618ADC11DF0633718C33DE0983DF06047E
:109F7000010061D885618C718C63083561FB0871C3
:059F8000F9081215D7DD
:109F86000F0F0F0F0F0F0F0F0F0F140000004600DB
:109F960000009100000000051000DF070000F00738
:109FA6000000F1070000A09F00000300020132003C
:109FB6000000881300001000000000003AE00000D6
:109FC600170027000000000000E300000600110053
:109FD600000000007BE10000060000020000FF0315
:109FE600000000040000FF05000000060000FF0757
:109FF600000000080000FF090000000A0000FF0F33
:10A006000000FFFFFF00000000000000000000004D
:10A01600000000000000000000000000F007000043
:10A02600FF07000000001000000000000100000013
:10A0360015EB000052CE02000000FF0700000000F2
:10A046001000000000000100010015EB000064CEC6
:10A05600EA070000FF0700000000100000000000F3
:10A066000100020015EB000076CEF10700000000AB
:10A0760000000000100000000000000003000000C7
:10A0860000000000010000000000000000001000B9
:10A0960000000000000006000000000000000006AE
:10A0A600000000000000000010000000000000009A
:10A0B6000500000000000000000000000100000094
:10A0C600A5DB000000000000010000000100000008
:10A0D60046F8000000000000020000001400000026
:10A0E60046F8000000000000060000001400010011
:10A0F6007F030100060000001E0002002D03010080
:10A1060000000000963007772C610EEEBA510999CF
:10A1160019C46D078FF46A7035A563E9A395649E2B
:10A126003288DB0EA4B8DC791EE9D5E088D9D2974F
:10A136002B4CB609BD7CB17E072DB8E7911DBF90AB
:10A146006410B71DF220B06A4871B9F3DE41BE84CF
:10A156007DD4DA1AEBE4DD6D51B5D4F4C785D3832B
:10A1660056986C13C0A86B647AF962FDECC9658ACF
:10A176004F5C0114D96C0663633D0FFAF50D088D2B
:10A18600C8206E3B5E10694CE44160D5727167A2CF
:10A19600D1E4033C47D4044BFD850DD26BB50AA52B
:10A1A600FAA8B5356C98B242D6C9BBDB40F9BCAC4F
:10A1B600E36CD832755CDF45CF0DD6DC593DD1ABAB
:10A1C600AC30D9263A00DE518051D7C81661D0BFCF
:10A1D600B5F4B42123C4B3569995BACF0FA5BDB82B
:10A1E6009EB802280888055FB2D90CC624E90BB1CF
:10A1F600877C6F2F114C6858AB1D61C13D2D66B62B
:10A206009041DC760671DB01BC20D2982A10D5EF8E
:10A216008985B1711FB5B606A5E4BF9F33D4B8E8EA
:10A22600A2C9077834F9000F8EA8099618980EE18E
:10A23600BB0D6A7F2D3D6D08976C6491015C63E6EA
:10A24600F4516B6B62616C1CD83065854E0062F20E
:10A25600ED95066C7BA5011BC1F4088257C40FF56A
:10A26600C6D9B06550E9B712EAB8BE8B7C88B9FC8E
:10A27600DF1DDD62492DDA15F37CD38C654CD4FBEA
:10A286005861B24DCE51B53A7400BCA3E230BBD48E
:10A2960041A5DF4AD795D83D6DC4D1A4FBF4D6D3EA
:10A2A6006AE96943FCD96E34468867ADD0B860DA8E
:10A2B600732D0444E51D03335F4C0AAAC97C0DDDEA
:10A2C6003C710550AA41022710100BBE86200CC90E
:10A2D60025B56857B3856F2009D466B99FE461CE6A
:10A2E6000EF9DE5E98C9D9292298D0B0B4A8D7C78E
:10A2F600173DB359810DB42E3B5CBDB7AD6CBAC0EA
:10A306002083B8EDB6B3BF9A0CE2B6039AD2B17405
:10A316003947D5EAAF77D29D1526DB048316DC7361
:10A32600120B63E3843B64943E6A6D0DA85A6A7A05
:10A336000BCF0EE49DFF099327AE000AB19E077D61
:10A3460044930FF0D2A3088768F2011EFEC2066985
:10A356005D5762F7CB67658071366C19E7066B6EE1
:10A36600761BD4FEE02BD3895A7ADA10CC4ADD6705
:10A376006FDFB9F9F9EFBE8E43BEB717D58EB06061
:10A38600E8A3D6D67E93D1A1C4C2D83852F2DF4F05
:10A39600F167BBD16757BCA6DD06B53F4B36B24861
:10A3A600DA2B0DD84C1B0AAFF64A0336607A044105
:10A3B600C3EF60DF55DF67A8EF8E6E3179BE694661
:10A3C6008CB361CB1A8366BCA0D26F2536E2685285
:10A3D60095770CCC03470BBBB91602222F260555E1
:10A3E600BE3BBAC5280BBDB2925AB42B046AB35C05
:10A3F600A7FFD7C231CFD0B58B9ED92C1DAEDE5B61
:10A40600B0C2649B26F263EC9CA36A750A936D0244
:10A41600A906099C3F360EEB8567077213570005A0
:10A42600824ABF95147AB8E2AE2BB17B381BB60CC4
:10A436009B8ED2920DBED5E5B7EFDC7C21DFDB0B20
:10A44600D4D2D38642E2D4F1F8B3DD686E83DA1F44
:10A45600CD16BE815B26B9F6E177B06F7747B718A0
:10A46600E65A0888706A0FFFCA3B06665C0B011144
:10A47600FF9E658F69AE62F8D3FF6B6145CF6C16A0
:10A4860078E20AA0EED20DD75483044EC2B3033944
:10A49600612667A7F71660D04D476949DB776E3EA0
:10A4A6004A6AD1AEDC5AD6D9660BDF40F03BD837C4
:10A4B60053AEBCA9C59EBBDE7FCFB247E9FFB53020
:10A4C6001CF2BDBD8AC2BACA3093B353A6A3B42444
:10A4D6000536D0BA9306D7CD2957DE54BF67D923A0
:10A4E6002E7A66B3B84A61C4021B685D942B6F2A44
:10A4F60037BE0BB4A18E0CC31BDF055A8DEF022DA0
:10A5060000016AB1010302AD020292A503039EAAED
:10A51600040116B005012AB006013EB0070152B08B
:10A52600080166B009017AB00A018EB00B01A2B02B
:10A536000C01B6B00D01CAB00E01DEB00F01F2B0CB
:10A54600100106B111011AB1120156B1130A36AC47
:10A55600140AD2A91506A2A616027EB117026AB27D
:10A5660018012EB1190142B11A0132B31B0102B012
:10A576001C01EEAF1D01DAAF1E01C6AF1F01B2AF5F
:10A5860020019EAF21018AAF220176AF000B9AA56A
:10A59600010B1EA60002C6A50102CEA50202D6A583
:10A5A6000302DEA50402E6A50502EEA50602F6A54F
:10A5B6000702FEA5080206A609020EA60F0216A6A7
:10A5C6000303010E0203000B03030106020300004E
:10A5D6000303010A0203000D0303010E0203000533
:10A5E60003030106020300060303010C020300072E
:10A5F6000303010C0203000F03030106020300011B
:10A606000303010E0203000F0303010E02030007FA
:10A616000303010E0203000B00024AA6010252A622
:10A6260002025AA6030262A604026AA6050272A6DE
:10A6360006027AA6070282A608028AA6090292A63E
:10A646000F029AA60103010E0003000B0103010687
:10A65600000300000103010A0003000D0103010EBF
:10A666000003000501030106000300060103010CB7
:10A67600000300070103010C0003000F010301069C
:10A68600000300010103010E0003000F0103010E88
:10A69600000300070103010000030000000BBAA637
:10A6A600010B3EA7020BC2A7030B46A8040BCAA8C0
:10A6B600050B4EA90002E6A60102EEA60202F6A6C8
:10A6C6000302FEA6040206A705020EA7060216A7A7
:10A6D60007021EA7080226A709022EA70F0236A701
:10A6E6001B03000B1A03010E1B0300001A030106CD
:10A6F6001B0300071A03010C1B0300051A03010EB6
:10A706001B03000C1A0301061B03000D1A03010AA2
:10A716001B03000F1A03010A1B0300001A03010E94
:10A726001B03000F1A03010E1B03000D1A03010E73
:10A736001B03000B1A03010E00026AA7010272A78F
:10A7460002027AA7030282A704028AA7050292A739
:10A7560006029AA70702A2A70802AAA70902B2A799
:10A766000F02BAA71D03000B1C03010E1D030000F8
:10A776001C0301061D0300071C03010C1D03000535
:10A786001C03010E1D03000C1C0301061D03000D16
:10A796001C03010A1D03000F1C03010A1D03000010
:10A7A6001C03010E1D03000F1C03010E1D03000DEB
:10A7B6001C03010E1D03000B1C03010E0002EEA775
:10A7C6000102F6A70202FEA7030206A804020EA8CB
:10A7D600050216A806021EA8070226A808022EA829
:10A7E600090236A80F023EA81F03000B1E03010E26
:10A7F6001F0300001E0301061F0300071E03010CB2
:10A806001F0300051E03010E1F03000C1E03010695
:10A816001F03000D1E03010A1F03000F1E03010A7A
:10A826001F0300001E03010E1F03000F1E03010E6F
:10A836001F03000D1E03010E1F0300001E0301006F
:10A84600000272A801027AA8020282A803028AA85C
:10A85600040292A805029AA80602A2A80702AAA8BC
:10A866000802B2A80902BAA80F02C2A82103000B67
:10A876002003010E21030000200301062103000727
:10A886002003010C210300052003010E2103000C07
:10A89600200301062103000D2003010A2103000FF6
:10A8A6002003010A210300002003010E2103000FEB
:10A8B6002003010E2103000D2003010E21030000D9
:10A8C600200301000002F6A80102FEA8020206A962
:10A8D60003020EA9040216A905021EA9060226A94C
:10A8E60007022EA9080236A909023EA90F0246A9A7
:10A8F6002303000B2203010E23030000220301069B
:10A90600230300072203010C230300052203010E83
:10A916002303000C220301062303000D2203010A70
:10A926002303000F2203010A230300002203010E62
:10A936002303000F2203010E2303000D2203010E41
:10A94600230300002203010000027AA9010282A962
:10A9560002028AA9030292A904029AA90502A2A9DF
:10A966000602AAA90702B2A90802BAA90902C2A93F
:10A976000F02CAA92503000B2403010E25030000BC
:10A9860024030106250300072403010C2503000503
:10A996002403010E2503000C240301062503000DE4
:10A9A6002403010A2503000F2403010A25030000DE
:10A9B6002403010E2503000F2403010E2503000DB9
:10A9C6002403010E25030000240301000003FAA955
:10A9D60001020EAA02021EAA03022EAA04023EAA1F
:10A9E60005024EAA06025EAA07026EAA08027EAAFF
:10A9F60009028EAA010106AA0F010AAA00010AAAE3
:10AA060004030D0204030D00010116AA0F011AAA80
:10AA160004030B0404030B00010126AA0F012AAA52
:10AA26000403070804030700010136AA0F013AAA26
:10AA36000503070805030700010146AA0F014AAAF4
:10AA460005030B0405030B00010156AA0F015AAAC0
:10AA560005030D0205030D00010166AA0F016AAA8E
:10AA660006030E0106030E00010176AA0F017AAA5B
:10AA760006030D0206030D00010186AA0F018AAA2C
:10AA860006030B0406030B00010196AA0F019AAAFE
:10AA96000603070806030700000BAAAA010B2EAB44
:10AAA600020BB2AB0002D6AA0102DEAA0202E6AA95
:10AAB6000302EEAA0402F6AA0502FEAA060206ABE5
:10AAC60007020EAB080216AB09021EAB0F0226AB3D
:10AAD6002F03010E2E03000B2F0301062E03000089
:10AAE6002F03010A2E03000D2F03010E2E0300056E
:10AAF6002F0301062E0300062F03010C2E03000769
:10AB06002F03010C2E03000F2F0301062E03000155
:10AB16002F03010E2E03000F2F03010E2E03000735
:10AB26002F03010E2E03000B00025AAB010262AB8B
:10AB360002026AAB030272AB04027AAB050282AB75
:10AB460006028AAB070292AB08029AAB0902A2ABD5
:10AB56000F02AAAB2D03010E2B03000B2D030106DA
:10AB66002B0300002D03010A2B03000D2D03010EFC
:10AB76002B0300052D0301062B0300062D03010CF4
:10AB86002B0300072D03010C2B03000F2D030106D9
:10AB96002B0300012D03010E2B03000F2D03010EC5
:10ABA6002B0300072D0301002B0300000002DEAB80
:10ABB6000102E6AB0202EEAB0302F6AB0402FEAB09
:10ABC600050206AC06020EAC070216AC08021EAC65
:10ABD600090226AC0F022EAC2A03010E2903000B34
:10ABE6002A030106290300002A03010A2903000D8E
:10ABF6002A03010E290300052A030106290300067C
:10AC06002A03010C290300072A03010C2903000F5C
:10AC16002A030106290300012A03010E2903000F56
:10AC26002A03010E290300072A0301002903000055
:10AC360000035EAC010272AC020282AC030292AC6B
:10AC46000402A2AC0502B2AC0602C2AC0702D2AC48
:10AC56000802E2AC0902F2AC01016AAC0F016EAC6B
:10AC660000016EAC28030B0428030B0001017AAC2B
:10AC76000F017EAC280307082803070001018AACF0
:10AC86000F018EAC270307082703070001019AACC2
:10AC96000F019EAC27030B0427030B000101AAAC8E
:10ACA6000F01AEAC27030D0227030D000101BAAC5C
:10ACB6000F01BEAC26030D0226030D000101CAAC2E
:10ACC6000F01CEAC26030B0426030B000101DAAC00
:10ACD6000F01DEAC26030708260307000101EAACD4
:10ACE6000F01EEAC24030E0124030E000101FAACA1
:10ACF6000F01FEAC22030E0122030E00000C0EAD66
:10AD0600010D2EAE020266AF00053EAD010552AD45
:10AD1600020566AD03057AAD04058EAD0505A2AD47
:10AD26000605B6AD0705CAAD0805DEAD0905F2ADE7
:10AD36000F0506AE48051AAE13030D021203000FE7
:10AD46001103000D100308070F030D0213030D0076
:10AD56001203000011030008100308070F030D0279
:10AD660013030D021203000B1103000F1003080654
:10AD76000F030D0213030D021203000A1103000F45
:10AD8600100308070F030D0213030D001203000E34
:10AD96001103000A100308070F030D0213030D0227
:10ADA6001203000E1103000F100308030F030D0218
:10ADB60013030D021203000F1103000F1003080303
:10ADC6000F030D0213030D00120300081103000CFC
:10ADD600100308070F030D0213030D021203000FE1
:10ADE6001103000F100308070F030D0213030D02D2
:10ADF6001203000E1103000F100308070F030D02C4
:10AE060013030D00120300001103000010030800D5
:10AE16000F030D0013030D021203000F1103000AA6
:10AE2600100308070F030D02000562AE010576AE9A
:10AE360002058AAE03059EAE0405B2AE0505C6AE92
:10AE46000605DAAE0705EEAE080502AF090516AF30
:10AE56000F052AAF47053EAF430552AF19030D0252
:10AE66001603000F1503000D1403080713030E0144
:10AE760019030D0016030000150300081403080744
:10AE860013030E0119030D021603000B1503000F21
:10AE96001403080613030E0119030D021603000A14
:10AEA6001503000F1403080713030E0119030D0001
:10AEB6001603000E1503000A1403080713030E01F8
:10AEC60019030D021603000E1503000F14030803E1
:10AED60013030E0119030D021603000F1503000FCD
:10AEE6001403080313030E0119030D0016030008CB
:10AEF6001503000C1403080713030E0119030D02B2
:10AF06001603000F1503000F1403080713030E01A1
:10AF160019030D021603000E1503000F140308078C
:10AF260013030E0119030D0016030000150300009C
:10AF36001403080013030E0019030D021603000F75
:10AF46001503000D1403080313030E0119030D0264
:10AF56001603000F1503000D1403080013030E015A
:10AF66000F016EAF010172AF19030B0019030B0439
:10AF760000027AAF000182AF010186AF0D030E0019
:10AF86000D030E0100028EAF000196AF01019AAFCC
:10AF960009030E0009030E010002A2AF0001AAAFC9
:10AFA6000101AEAF07030E0007030E010002B6AFA4
:10AFB6000001BEAF0101C2AF1E030E001E030E014B
:10AFC6000002CAAF0001D2AF0101D6AF2A030E00BC
:10AFD6002A030E010002DEAF0001E6AF0101EAAF6F
:10AFE60001030E0001030E010002F2AF0001FAAFE9
:10AFF6000101FEAF03030E0003030E01000206B0BB
:10B0060000010EB0010112B02D030E002D030E013A
:10B0160000021AB0000122B0010126B020030E0082
:10B0260020030E0100022EB0000136B001013AB035
:10B036000F0307000F030708000242B000014AB0E1
:10B0460001014EB027030E0027030E01000256B081
:10B0560000015EB0010162B028030D0028030D0255
:10B0660000026AB0000172B0010176B028030E003A
:10B0760028030E0100027EB0000186B001018AB0ED
:10B0860004030E0004030E01000292B000019AB000
:10B0960001019EB005030E0005030E010002A6B0D5
:10B0A6000001AEB00101B2B00F030B000F030B0499
:10B0B6000002BAB00001C2B00101C6B019030E0009
:10B0C60019030E010002CEB00001D6B00101DAB0BC
:10B0D6001A030E001A030E010002E2B00001EAB0E4
:10B0E6000101EEB01C030E001C030E010002F6B0B7
:10B0F6000001FEB0010102B10F030E000F030E01A5
:10B1060000020AB1000112B1010116B119030700CC
:10B116001903070800021EB1000126B101012AB178
:10B126001403070014030708000232B100013AB104
:10B1360001013EB11303070013030708000246B1DD
:10B1460000014EB1010152B113030B0013030B04AE
:10B1560000025AB1000162B1010166B11003070095
:10B166001003070800026EB1000176B101017AB141
:10B1760026030E0026030E01000B86B101080AB253
:10B186000002B2B10102BAB10202C2B10302CAB1EF
:10B196000402D2B10502DAB10602E2B10702EAB14F
:10B1A6000802F2B10902FAB10F0202B20803000B5B
:10B1B6000703010E08030000070301060803000742
:10B1C6000703010C080300050703010E0803000C22
:10B1D600070301060803000D0703010A0803000F11
:10B1E6000703010A080300000703010E0803000F06
:10B1F6000703010E0803000D0703010E08030000F4
:10B206000703010000022AB2010232B202023AB278
:10B21600030242B204024AB2050252B208025AB20C
:10B226000F0262B20A03000B0903010E0A030000B3
:10B23600090301060A0300070903010C0A030005B6
:10B246000903010E0A03000C090301060A03000D97
:10B256000903010A0A03000F0903010E0A0300008D
:10B2660009030100000B72B20105F6B200029EB29C
:10B276000102A6B20202AEB20302B6B20402BEB226
:10B286000502C6B20602CEB20702D6B20802DEB286
:10B296000902E6B20F02EEB20C03000B0B03010E1D
:10B2A6000C0300000B0301060C0300070B03010C43
:10B2B6000C0300050B03010E0C03000C0B03010627
:10B2C6000C03000D0B03010A0C03000F0B03010A0C
:10B2D6000C0300000B03010E0C03000F0B03010E01
:10B2E6000C03000D0B03010E0C0300000B03010001
:10B2F60000020AB3010212B302021AB3080222B311
:10B306000F022AB30E03000B0D03010E0E030000FD
:10B316000D0301060E0300070D03010C0E03000FBB
:10B326000D03010E0E0300000D030100000236B3EB
:10B3360000013EB3010142B30B030E000B030E01E5
:10B3460000000100030007000A000F0012001400AD
:10B356003200500064009600C800F4012003E803A0
:10B36600D007B80BA00F7017401F1027D430983A9B
:10B376005C44204EE457A8613075B888409CC8AF3D
:10B3860050C3D8D660EAFFFF05000500050005009A
:10B3960008000A000D000F001200160019001C001C
:10B3A6001E0023002B00320037003C004100440001
:10B3B60048004B004E0050005300550058005A00FC
:10B3C6005D005F006000620063006300640064006B
:10B3D6000000F107000008010000EB07000008026A
:10B3E60000000100000008030100F0070000080843
:10B3F600010002000000080E0100EA070000080F25
:10B4060030C641C1306D4EC1DB10D0AF0ED0FC2D21
:10B416009D001004043930BF0ED061D8A313BF10AD
:0CB42600D05C7FD7BF0ED0F6BF10D0D78F
:10B43200D716C80300AEF82761D339315E12F6433E
:10B44200DD27BBBC02BC04BC06BC08BC0ABC0CBCED
:10B452000EBC10BC12BC14BC16BC18BC1ABC1CBC62
:10B462001E3704200037B3EFD6AEF847DD06F6BB31
:10B47200A7A7EFF5D773CFF20010712B3DCE2701AE
:10B48200CD0702CFCE0503300001BFC00563FECD5C
:10B492000036D0FF30003FBFE60571F3717BD471F7
:10B4A200E3716BD471D3715BD4FE5A00307E81BFDD
:10B4B200E005D773CFF20010712B3DCE2701CD07E7
:10B4C2000230FF00BFE005AFE0056168DFF963FE0F
:10B4D2008C0036D0FF30003FBFE60571F3717BD49C
:10B4E20071E3716BD471D3715BD4FE1900AFE405C3
:10B4F200F743DF0BD5E305DF0630FF80BFE0053001
:10B502007E81BFE005D72006FE7A00C8020630D64B
:10B51200B3B800C4C589D1DF20A80012040600B860
:10B5220004130407001613A1A1148B77A912A8040F
:10B5320014897067FE8200EF1491DF11A8001204D3
:10B5420007001613A1A114A9128BFEEC00A8000497
:10B552000800B8008802919802DFB81006D791DD82
:10B562000E91DD1191DD0391DD16E5EA05EF0ACFBB
:10B57200EA0507EF04CFEA0503300401BFEC05D763
:10B58200F5EA05EFF4F1735010D604000616F661E1
:10B59200D8A1040F00609EFD17086C0E0814300637
:10B5A2000011B9E011B917086C0908148311895CFC
:10B5B200F81199634C10DFCED7C3C1C75010D6041F
:10B5C2000006B800F661D8A1040F00126298039E2B
:10B5D200FDA80014086C0908161511CC0001086CAE
:10B5E2000A0816F611BB15086C0C0816A804312DB2
:10B5F2005C1F085CFC0811BB15086C080814570096
:10B6020011CA0008880270676148DD15318E14A8DE
:10B612000005141361D8A1609EFD11CA000087EFD6
:10B62200E388039EFDA800086C0E0814301E00116A
:10B63200B930000111B91006D7C75010D604000660
:10B64200B800F661D8A1040F00609EFDA80014089E
:10B652006C0908161511CC0011086C0A0816F611AF
:10B66200BB15086C0C0814312C135C1F085CFC0819
:10B6720011B9A800086C0E081430160911B930006F
:10B682000111B9C6D7C120085010D604000614F61D
:10B6920061D8A1040F00B80415086C0E08B802881E
:10B6A2000498019EFDA80216118B31135088019E49
:10B6B200FDE611BB118B9809310339F19800880816
:10B6C2007088006148DD1D318E1605B806A8046138
:10B6D200D8A1609EFD1703168B77A80637119B88A9
:10B6E2000081EFD888019EFDA8021430000111B933
:10B6F200510211B988093115040000EFF7100AD779
:10B702002006E6A1BFE8058FEE055010D60400061C
:10B71200B804F661D8A1040F00B802880298009E0E
:10B72200FDA80412086C0E081411A95C20085C0420
:10B73200086168DD4F88009EFD30040011B91308CE
:10B742006C080814118998019F1AD013086C0C0810
:10B752001411A9312E5C0716F19800880170880037
:10B762006148DEB74C08DEB3318E12A8040314A878
:10B772000261D8A1609EFD88007311891812D088D9
:10B782000081EFD5F6C1C7D91AD03412D0F2F1FC3C
:10B792007BE800100AD7301C00BFE805D730200034
:10B7A200BFE805D7301008BFE005AFE005603135CE
:10B7B200F9D7300800BFE005D7FEE8FF300018BF18
:10B7C200E005AFE005603145F9D734E00530080007
:10B7D200B9301008B9D734F00036F000F671821291
:10B7E200BAC650FFBAC4715AE6715BE2716AE67179
:10B7F2006BE2715AEE715BEA716BEE716AEA304686
:10B8020010BAA2C91A0400AACE085CFD08BACEAAD0
:10B81200CC085CFD08BACCAACA085CFD08BACA13F7
:10B82200BAA4CB64FF7CAACE085CFB08BACEAACC31
:10B83200085CFB08BACCAACA085CFB08BACACF618A
:10B842000007F5620051086F70009F700051106F81
:10B8520029FF9E29D734B201715BE2715BE6A90828
:10B862006C0208B9D734B401A9086C0208B9715A3C
:10B87200E6715BE2D734B201716BE2716BE6A90843
:10B882006C0408B9D734B401A9086C0408B9716A08
:10B89200E6716BE2D77120F000341002F6BA26503E
:10B8A200FFBA24715AD6715BD2711AD7711BD37148
:10B8B2005ADE715BDA711ADF711BDB300108B9CB1A
:10B8C20090FF7CAA2E085CFE08BA2EAA2C085CFE09
:10B8D20008BA2CAA2A085CFE08BA2A300904BA0857
:10B8E200CB980000AA2E086C1008BA2EAA2C085C6D
:10B8F200EF08BA2CAA28085CEF08BA28AA2A086C12
:10B902001008BA2AF56900F56A0051FC5F7C009FB5
:10B912007C005A06BF51BF5F26FF9E26D7343202F3
:10B92200715BD2715BD6711BD3711BD7AA08086CED
:10B932001008BA08A9086C1108B9CB980000D7AF53
:10B942003802F743DFF9343402A9086C1108B9AAA6
:10B9520006085CEF08BA06715AD6715BD2711AD723
:10B96200711BD3D7F6C15005C1E0160200C314F70C
:10B972001361D8A10202C3BF02C315BF00C31702DD
:10B982009ACE141361D8A1029CCEBF9CCE15BF9A49
:10B99200CEAF00C3DB02C3FC499E00100403DF05E7
:10B9A20061C8E50AC3F6C130E803C1AF00C3DB02D8
:10B9B200C3FC499E00100403DF0561C8E50BC3D533
:10B9C20012C3DF1BA208C3AF08C332280AFCE29DE0
:10B9D20000F743DF0AF6BF08C3E5E0C3E512C34040
:10B9E2001AC301DF2EF614C130E803C1E60204C314
:10B9F200121561D8A10206C3BF06C313BF04C3AFA9
:10BA020004C3DB06C3FC499E00100403DF0561C8C2
:10BA1200E50CC3D7E6020EC312F661D8A10210C329
:10BA2200BF10C313BF0EC3D7D7D714446500DC04BD
:10BA320030640014318D1215316D03BE98D7345025
:10BA420000CE4010CA00FFCA01CFCA03FFCA05F0E8
:10BA5200CA073CCA08FF8A096CEF9A09CE4100CE98
:10BA62004262D7717A41D7717B41D7716A41D771EE
:10BA72006B41D7CE4000D7CE4010D734F300150427
:10BA8200360016CA0010CEA000717AA1714BA4CA6A
:10BA9200050071A3716AA1716BA4710BA1CA0601A1
:10BAA200D78EA8D78D069D06CF6F0003E56E00CE18
:10BAB20022FFCE26DFD736E4FF7182710BE0710BD5
:10BAC200EC710BE87183D7CEABACD7D7717BFAFCA4
:10BAD200A3BA00FC7DBA00FCA6BA00FCF3F000FC9D
:10BAE200D8B700FC97B800FCB8BA00FC40BA00FC1A
:10BAF200D7F200FCEBF0008FA8CFFC77B400FCE596
:10BB0200EF00F57800F5FC00D7717AFA30CDBABFB4
:10BB120000FDCF02FD003016BABF54FDCF56FD0026
:10BB22003066B9BF58FDCF5AFD00302ABABFC0FDFA
:10BB3200CFC2FD00302BBABFD0FDCFD2FD00300204
:10BB4200B7BF90FDCF92FD003098B7BF88FDCF8A76
:10BB5200FD00309FB7BF8CFDCF8EFD00300EF2BFCF
:10BB620074FDCF76FD003029F3BF1CFDCF1EFD0012
:10BB7200FC77B800FC57B800FC1BF300FC54EB0048
:10BB8200FC26FB0040C2C30161F8ECEAF500D7C70E
:10BB9200D513C361E8EE8300D50AC3DDF3F50AC30A
:10BBA200FCC9BA00FC68EB00FC2DF300FC5BBC0096
:10BBB200FC06C8004018C301DF5BD512C361F8FC64
:10BBC200B0C900FCA4FB00FCBCBF00FC4EF400406A
:10BBD20012C301DF408FC2C39800914C02DE1CF6F3
:10BBE200C1501EC1AF00C3DB02C3FC499E0010045A
:10BBF20003DF08DC068800FCCEC800F6C15064C131
:10BC0200AF00C3DB02C3FC499E00100403DF0661E0
:10BC1200C8FCE4BC00FE0500EE7DFFC6D74040CE66
:10BC220001DF27E60214C314BF14C3F61261D8A1C0
:10BC32000216C3BF16C361681561F8440300DF0A28
:10BC4200E513C313BF16C3BF14C3D7347800410032
:10BC52008971FA9911F50000D78FDACE4C0161F89B
:10BC6200EF06D161F8EF3AD7D519C3DF33FC15FAE5
:10BC720000BFBACF13BFBCCFFC1FB900FCEBF00072
:10BC8200FCB4B700F5C2C3FC57C800FC79BA00FC8B
:10BC92006DBA00FC65BA00F512C3E519C3E518C315
:10BCA200D74019C301DF22CF12C302DBBCCFAFBA28
:10BCB200CFFCC2F900FC44F900FC06F900FC97C86D
:10BCC20000F519C3F518C3EF01D7FC69BA00FC717E
:10BCD200BA00FC41B900FCA6B700FC75BA00ECEF53
:10BCE200F00040DBCE01DF2FE51AC3D575C3DF1BA1
:10BCF200F5C6CEF6BFBECEE2FC0DC200AFBECE523E
:10BD020014FC52C600F574C3E575C38FC7CE318EDD
:10BD1200E2FC0DC600EF4ACF1AC3024075C301DF31
:10BD220016F575C3F6BF06C3BFBECEBF04C3E50C8E
:10BD3200C3F58DC3F5C6CE8FC6CE318EE2FCDCC113
:10BD420000AFBECE5214FC52C600DBBCCEAFBACEA0
:10BD52005415FC18C2008FC8CE318E5202FCF0C6B8
:10BD620000F9DBCE8FC7CE318E5313FC67C200AF12
:10BD7200C0CE5203FC2CC700DBC2CEAFC4CE3416F9
:10BD820017FC5DC700511AFCC1C700ECF8BF00FCEC
:10BD9200CEBA00FC0BBB00FC91BB00FC4DBC00EF1B
:10BDA200F6C3C5C7C1F19802A8000361F8DE33F6F5
:10BDB200C1500AC1A804FC499E0012A808148806B2
:10BDC200318E051462991004F6C1500AC1A80A12F4
:10BDD200A804FC109E00B80413B80A10048802815B
:10BDE200EFC41008D7C12006F6B802B804B800A8FC
:10BDF2000612A80043DD16FE1B0014A80205B802B5
:10BE0200A80461D8A103B804A800A1EFE0A8041215
:10BE1200A8021008D7C1C7F7E614B800A80216A8EE
:10BE2200004761C312F6C1500AC115FC2D9D0010D6
:10BE32000414A800A1EFE3151004D7C3C1201C32DB
:10BE4200869FC5AEF8041400B810340A00FCF098BE
:10BE520000408DC301DF0D881F91DF08C81448C858
:10BE62001543EF16A800F743A82061F8441800DF35
:10BE720004881F4C1761E8EEC500F6B8003606A527
:10BE8200881F4D61E8EEF900F6B81EA800312DB802
:10BE92000E0407A51489318E12A81E4361C8EEF262
:10BEA20000A81E12A81003B812F6B806B820A80EF1
:10BEB2000408A514B80AA9B80212A81E312DB804A4
:10BEC2000314A589318E12A8204361C8EED400A8BC
:10BED2001214A80412A80203A1A116A8066109005F
:10BEE20016894D61E8EEAE00F6B804B802A80A164B
:10BEF20013610900A1A114A9B80814A820312D16B4
:10BF02000514A589318E14A8024561C8EE8700A8E0
:10BF12000807A1A116A8046109001415A1A116A978
:10BF2200B80C15040300B808A80C14895D77A8089A
:10BF3200376D99A804040400B804A802A1EFACA8C4
:10BF42000043A82061F8443C00DF09881F4C1661B9
:10BF5200F8EE26FFA80043A82061F8440A00DC118D
:10BF6200AEF804140014C2C3A820FCA3BD00EE095D
:10BF7200FF609814881F0CEA4C02DEF2C81500EF2D
:10BF8200ED1704040016A800A1B80044230061D8EC
:10BF9200EEEDFE1022D7A806040400B806A820A1E0
:10BFA200EE09FFA81EA1EEE0FE77F61204000314CC
:10BFB2006799A313443000DFF2D7E60220C316BF0D
:10BFC20020C3F61261D8A10222C314BF22C3C33018
:10BFD2006400C1C5C217FC499E00100403DF0EDCD9
:10BFE2000CE524C3E525C3E526C3E527C3D7F6BF81
:10BFF20022C3BF20C3D78FCECE9F29C38FCFCE9F60
:10C002002DC38FD0CE9F31C38FD1CE9F35C38FD555
:10C01200CE9F39C38FD4CE9F3DC38FD3CE9F41C312
:10C022008FD2CE9F45C38FD9CE9F49C38FD6CE9F85
:10C032004DC38FD7CE9F51C38FD8CE9F55C38FC9C3
:10C04200CE9F59C38FCACE9F5DC38FCDCE9F61C392
:10C052008FCBCE9F65C38FCCCE9F69C3FE0600FEF9
:10C062005600EEA50020083028C3B800C80211A867
:10C0720000A1B804A1B806A80414A80616894DDFC9
:10C0820005D572C3DF214C03DF1DA8001404030091
:10C092001689CC0000340000E7FC3DBE00A804165F
:10C0A200A806148B736399A800040400B8008802E0
:10C0B200919802DFBA1008D720083028C3B800C808
:10C0C2000211A800A1B804A1B806A80414A8061673
:10C0D200894DDF05D572C3DF20D1DF1DA80014040E
:10C0E20003001689CC0000340000F7FC3DBE00A816
:10C0F2000416A806148B736399A800040400B80000
:10C102008802919802DFBB1008D72008D524C361AA
:10C11200F8EEA300C802113028C3B800A800A1B8E5
:10C1220004A1B806A80414A8061689734DDF0AA84C
:10C1320000040300148991DF3093DD0AA800040390
:10C1420000148991DF23A800140403001689CC008F
:10C1520001D573C3E761E8B3340000FC3DBE00A81B
:10C162000416A806148B736399A800040400B8008F
:10C172008802919802DFA5409AC301DF10AF98C3ED
:10C18200BF70C312D973C35114FCB2C600408CC332
:10C1920001DF17AF80C314BF6EC3AF7EC3BF6CC3D2
:10C1A20012D973C35113FCD0C500D573C3F161F822
:10C1B200E19F73C3F524C31008D7C75311302AC3B4
:10C1C200B800C4C5CA0000A5A800040400B800CA8B
:10C1D200000093DFEDF572C3C6D7C3144276C3DF06
:10C1E2000CD574C3DF05E574C3EF06C6D715BF7659
:10C1F200C315FE0B00128800340000C6EC3DBE00E1
:10C202001244C80030C70061D813D71462C5C234C3
:10C212000000EC3DBE00C51613427CC31761F84214
:10C222007AC3DF0CD578C3DF05E578C3EF09C6D73B
:10C23200BF7AC313BF7CC317FE0A00C3C4128800AF
:10C24200C6EC3DBE00141344F5051561F8449DE0AB
:10C25200DC0632F505349CE0F6C15064C115FC10D1
:10C262009E001004D7C714639800D28F8BC3DF11CE
:10C272004C01DD03D161F8CF8BC302C2C315C6EFF7
:10C282001C4C02DF091544640061D8F58BC3408C55
:10C29200C30161F8F58CC3C2C315C6EF55C7C314F9
:10C2A200428EC3DF15D588C3DF05E588C3EF0F4093
:10C2B20089C301DF3AE58CC3EF0415BF8EC315FEB7
:10C2C2004B02B802F2FE500216BF7EC3C3C415BFB2
:10C2D20080C3A802441F00DC10F58CC3C7C28800CB
:10C2E200FC3DBE00F589C3EF06E58CC3E589C310AA
:10C2F20004D7C1C3D58BC3DF05A802FE7A02D526B7
:10C30200C3DD62F526C38F8AC3D1DD5B91DD7E91E9
:10C3120061F8EE9F009161F8EEC1009161F8EEE4E0
:10C32200009161F8EE07019161F8EE2A019161F83E
:10C33200EE4D019161F8EE70019161F8EE93019179
:10C34200DF70DB82C3EB84C38800FC3DBE008F86B6
:10C35200C39F8AC3AF80C3BF84C3AF7EC3BF82C340
:10C36200A802FE1302EF73DB82C3EB84C38800FCD6
:10C372003DBE00F6FC17BE000282C3BF82C313613A
:10C38200D8A10284C3BF84C3E58AC3EF4DDB82C355
:10C39200EB84C38800FC3DBE00E6FC17BE000282AF
:10C3A200C3BF82C31361D8A10284C3BF84C3CF8A2F
:10C3B200C302EF4FDB82C3EB84C38800FC3DBE00A7
:10C3C200E6A1FC17BE000282C3BF82C31361D8A1DB
:10C3D2000284C3BF84C3CF8AC303EF50DB82C3EBA3
:10C3E20084C38800FC3DBE00300300FC17BE00027F
:10C3F20082C3BF82C31361D8A10284C3BF84C3CFE7
:10C402008AC304EF50DB82C3EB84C38800FC3DBEC9
:10C4120000300400FC17BE000282C3BF82C3136156
:10C42200D8A10284C3BF84C3CF8AC305EF50DB8285
:10C43200C3EB84C38800FC3DBE00300500FC17BE80
:10C44200000282C3BF82C31361D8A10284C3BF8426
:10C45200C3CF8AC306EF50DB82C3EB84C38800FCE0
:10C462003DBE00300600FC17BE000282C3BF82C37D
:10C472001361D8A10284C3BF84C3CF8AC307EF501C
:10C48200DB82C3EB84C38800FC3DBE00300700FCA6
:10C4920017BE000282C3BF82C31361D8A10284C344
:10C4A200BF84C3CF8AC308EF50DB82C3EB84C38847
:10C4B20000FC3DBE00300800FC17BE000282C3BF74
:10C4C20082C31361D8A10284C3BF84C3CF8AC309C4
:10C4D200EF27DB82C3EB84C38800FC3DBE0030093A
:10C4E20000FC17BE000282C3BF82C31361D8A1023F
:10C4F20084C3BF84C3CF8AC30AA802446400DC0A8F
:10C50200408BC30161F8CF8BC3021004D71244657C
:10C512000030640061D813D7200614D2DF4A15F721
:10C52200FC819E0014302041C1F6C115FC9B9A008B
:10C53200B80613B8081004A802FC129D00B800F750
:10C54200FC819E00C3C1A80812A806FCDF9B001054
:10C5520004D1DD05A800A1B800A800BF86C3440B22
:10C5620000DC0F300A00EF07320A00FCBA9D00BF60
:10C5720086C31006ECE7BD00200412C1AF90C3B819
:10C582000243DF05D58BC3DF4213320A00FCBA9D9A
:10C5920000B804A802320A00FCBA9D0012A80443A3
:10C5A200DF05D58BC3DF24A800FE61FFE2FE68FF32
:10C5B200BF7EC3BF82C313BF80C3BF84C38F86C382
:10C5C2009F8AC3A800BF90C3E58BC31006D77760CC
:10C5D200D1DD331561681361F8440100DD1715617F
:10C5E200681361F8440B00DD111561681361F844AA
:10C5F2006F00DD0BD704FFFFEF0804F6FFEF030423
:10C602009CFF1261C8B567EC3DBE001462708F8D4D
:10C61200C3D1DF04E58DC3E1400CC301DF16F50C85
:10C62200C391DD1191DF0DC5C260340000FC3DBE37
:10C6320000E58DC3D760340000328B00FC3DBE00A4
:10C64200CF8DC302D7318E12F614511EEC3DBE00BF
:10C65200C314429CC3DF15D596C3DF05E596C3EF2D
:10C662000F4097C301DF3CE59AC3EF0415BF9CC39B
:10C6720015FE3100BF98C3FCE7BD0016BF92C3C3CD
:10C68200C415BF94C3AF98C3440800DE10F59AC323
:10C69200C7C28800FC3DBE00F597C3EF06E59AC30A
:10C6A200E597C3C6D712440B00300A0061D813D7EE
:10C6B200C7980060D113DD1804F8FFDD0B04FFFFFB
:10C6C200DD0BE743DD18C6D7300700EF0330080063
:10C6D200FCE7BD00C3C4128800C6EC3DBE003009B1
:10C6E20000EFED318E12F614511CEC3DBE00C31466
:10C6F20042A0C3DF0CD59EC3DF05E59EC3EF06C68D
:10C70200D715BFA0C315FE0B00128800340000C667
:10C71200EC3DBE001244640030630061D813D7318F
:10C722008E12F614511DEC3DBE00C31442A4C3DFA9
:10C732000CD5A2C3DF05E5A2C3EF06C6D715BFA479
:10C74200C315FE0B00128800340000C6EC3DBE008B
:10C752001244E80330E70361D813D7C5C3C71642B2
:10C76200A8C3659800DF0AD5A6C3DF17E5A6C3EF05
:10C772000417BFA8C317FE3000128804340000FC5F
:10C782003DBE00A80242AAC3DF0DD5A7C3DF05E55F
:10C79200A7C3EF061006D7BFAAC3FE170012880070
:10C7A2003400001006EC3DBE0012443C00303B0059
:10C7B20061D813D71244180030170061D813D7D5A7
:10C7C20025C361F8D7340000D5ACC3DF08E7FC3DD0
:10C7D200BE00E1EF06F7FC3DBE00F19FACC3F525BC
:10C7E200C3D71442BAC3DF071342BCC361F8D715DB
:10C7F200BFB4C313BFB6C3F6BFB8C315BFBAC31322
:10C80200BFBCC3D740AFC301DF41D50BC3DD06F5C3
:10C812000BC3A2B8C3AFB8C3443C00DF07F6BFB82E
:10C82200C3A2B6C3AFB6C312443C00DF08F612BFC0
:10C83200B6C3A2B4C3AFB4C314441800DF05F614E0
:10C84200BFB4C313BFB0C315BFB2C3D7F6B1BFBA2B
:10C85200C3BFBCC3D7C78FC2C34C01DF0FFC55F6A1
:10C8620000BFC6C3FE5000BFC8C3EF1DD1DD074CD9
:10C8720002DD03F6EF138FC3C3D1DF03E6EF0A91A4
:10C88200DFF1CFF6D232303200B800FE0A00A80043
:10C89200BFC4C3C6D7F6EF00BFBEC342C0C361F870
:10C8A200D7446500DC06306400BFBEC3FC2CBA006E
:10C8B200AFBEC3BFC0C3D7143224003046B3FC3C62
:10C8C200F50012616830320061E813D791DD0E91F4
:10C8D200F6DF2DAFC0CFF743DF26E6EF23FC55F698
:10C8E20000BFC6C3FED0FF12BFC8C340C2C301DF30
:10C8F2000F30B80BC11334B80B32C4C3FE0300C6E9
:10C90200EF96C3C1C7C3C6A80212ABB80043A800C2
:10C91200DF031006D743DE0C150161D329A80216E6
:10C92200A800EF0BA80A140161D31BC6C7A8021204
:10C932001531FFC1C51723F7FC2D9D001004311CD2
:10C9420031FE0316DF02E616A80212A80043A8046D
:10C9520014A800DE0407B9EFB927EFFAF6BFBEC389
:10C96200BFC0C3BFC4C3BFC6C3BFC8C3F5C2C3F53C
:10C97200C3C3D72008AFC6C3C80700C80600C8058E
:10C9820000C80400C80300C80200C80100C80000B3
:10C9920012609800139801AFC8C3126098021398EE
:10C9A20003AEF812300802FC87B6001008D7E60280
:10C9B200D8C312F661D8A102DAC3BFDAC313BFD853
:10C9C200C3D5E1C3DD08F5E1C3F1FC87F900F6C187
:10C9D2005050C1AFD8C3DBDAC3FC499E0010040338
:10C9E200DF44DC42D5D4C3DF3DE5D4C3E5E2C3E195
:10C9F200FC7DF900E1FC21C700E1FC47C600E1FC37
:10CA0200E5C600300102FC90F900E0E1FC90F9007B
:10CA1200E6FC90F900300103FC90F900F5C2C3E591
:10CA2200C3C3FC57C800F6C15009C1AFD8C3DBDA93
:10CA3200C3FC499E00100403DF0DDC0B8FD4C391AD
:10CA42004C0261D8FE4700AFDAC3AFD8C3605C07BF
:10CA5200DF0940D4C30461F8FECC0040D4C303DF35
:10CA62002CE602D2C3BFD2C3325000FCE29D00F7D3
:10CA720043DF1ACFD4C304F6BFD2C35102FED7009C
:10CA82005102FE44015102FE0602EEB502D7C74032
:10CA9200D4C30161F8CFD4C302DBD0C31331FF1476
:10CAA200E1FC3DBE00DBCAC3EBCCC35113FC3DBE6F
:10CAB20000DBCAC3EBCCC35114FC3DBE0040D4C35F
:10CAC20002DF6230050002D0C3B800BFD0C3320A11
:10CAD20000FC989D00F743DF20A800520AFC789DD5
:10CAE20000BFCEC3B1FC17BE0002CAC3BFCAC31384
:10CAF20061D8A102CCC3BFCCC3AFD0C3322300FCE8
:10CB0200989D00F743DF04E1FE8501AFD0C344697D
:10CB120000DF12306400BFD0C3E1FE3A00E1FEA89C
:10CB220000CFD4C303C6D7DBD0C31331FF14E1FC5B
:10CB32003DBE00AFD0C31204F6FFBFD0C313F7430C
:10CB4200DF14F6BFD0C3E1FEEE00E1FE2801E1FEF4
:10CB5200FC00CFD4C305D791DD4291DF3ED5C9CECB
:10CB6200DF09F614F75110FC3DBE00D5CACEDF092D
:10CB7200F614F75111FC3DBE00D5CBCEDF09F614F9
:10CB8200F75118FC3DBE00D5CCCEDF09F614F751A3
:10CB920019FC3DBE00D5CDCEF7DD26D7F614E75100
:10CBA20010FC3DBE00F614E75111FC3DBE00F61428
:10CBB200E75118FC3DBE00F614E75119FC3DBE00DA
:10CBC200E7F6145112EC3DBE00C791DD0591DD2E52
:10CBD200C6D7340D003238905115FC3DBE00F61414
:10CBE2003258005116FC3DBE00325800F61451175F
:10CBF200FC3DBE00F614E7511AC6EC3DBE00F6C17C
:10CC02005064C1DBBCCEAFBACEFC109E0016C3C4CA
:10CC120010048FC4CE98018FC2CE9800C7C251159E
:10CC2200FC3DBE008801318E12F6145116FC3DBE49
:10CC3200008800318E12EFB491DF12F614E751082A
:10CC4200FC3DBE00F614E75109EC3DBE00D791DF72
:10CC520024F614E7510FFC3DBE00F614E7510CFC1C
:10CC62003DBE00F614E7510DFC3DBE00F614E7513F
:10CC72000EEC3DBE00D791DF16F614327803510355
:10CC8200FC3DBE00F6143258005102EC3DBE00D706
:10CC9200708FD6C3D1DF04E5D6C3E190DD5790DFB4
:10CCA2005BD5CECEDF09F614F75104FC3DBE00D5AC
:10CCB200CFCEDF09F614F75105FC3DBE00D5D0CE2C
:10CCC200DF09F614F75106FC3DBE00D5D1CEDF09CF
:10CCD200F614F75107FC3DBE00D5D3CEDF09F6149A
:10CCE200F7510AFC3DBE00D5D2CEDF55F614F751FE
:10CCF2000BEC3DBE0091DD1C91DD3091DF43F6145B
:10CD0200E75104FC3DBE00F614E75105FC3DBE00B0
:10CD1200F5D6C3D7F614E75107FC3DBE00F614E77B
:10CD2200510AFC3DBE00CFD6C302D7F614E7510626
:10CD3200FC3DBE00F614E7510BFC3DBE00CFD6C34E
:10CD420003D7C78FC7CE9800AFBECEFCE7BD00C3E6
:10CD5200C4125114FC3DBE008800318EF2FC1AC58B
:10CD620000C3C4125113C6EC3DBE00C1446500DCD1
:10CD720005306400B80042DEC3DF02C6D7FC9AC8A1
:10CD820000A800BFDEC3EFF3F59EC3F578C3F596A6
:10CD9200C3F5A2C3F588C3F574C3F5A6C3F5A7C34B
:10CDA200FCBCC100F6BF08C3BFD0C3BFD2C3BFCC57
:10CDB200C3BFCAC3BFCEC3BFDAC3BFD8C3F5E0C3C4
:10CDC200E5E1C3F5D4C3F5D5C3F5D6C3A1BFDCC332
:10CDD200BFDEC3F5E2C3D7D7D720063020D0BFECE1
:10CDE200C530EAC3BFE8C53034D0BFEEC530E9C4B0
:10CDF200BFEAC5F6B800C8020232ECC50314A904A2
:10CE02000A00B804C2C330E8C50316A3AB16A804CF
:10CE120037BBA90406001630FF00BBA916F6BC02F8
:10CE2200BBA904040016F6BBA904110016CC00002D
:10CE3200A904130016CC0000A904100016CC0000AF
:10CE4200A9040F0016CC0000A9040E0016CC0000A5
:10CE5200A904120016CC0000A9040D0016CC000093
:10CE6200A9040C00148802919802CA000013A1B808
:10CE720000DF8630A09FBFF0C51006D79F1ED015D9
:10CE8200BF1CD0D7201CAFF0C5F74361F8EE2406D3
:10CE92005700AEF8041100B8021267318E031487EE
:10CEA200CA0000674C08DFEAAF9CCEB800AF9ACE4A
:10CEB200B806F198085002D612B80479ECC5B80A3F
:10CEC20014040D00168B9809D161F8EEDA05A80654
:10CED20016A927AA0214A8003561D8B12531730317
:10CEE200EEC50588099161F8EEA7059161F8EEA9F2
:10CEF200059161F8EE35019161F8EE77039161E8F1
:10CF0200EEA505A80A041000148971DA75A8023585
:10CF120099EBF0C5AA0A16AA08B80CC8100117B8EE
:10CF22000E79ECC5B80012040800161304040014AC
:10CF3200A9B80604070012ABB80A43A802A114B8A4
:10CF420002A80061E3EE2204040A0016A8066109A1
:10CF520000C115340000320700FC44EC00C6EBF0BF
:10CF6200C588100C079810DB9CCEAA0C16AF9ACE7F
:10CF7200610900B8001361D8A161090212A8040472
:10CF8200ECC514B80AA91413BA02A800B9AFE6C3D3
:10CF9200B800200EAEF8041A0012AEF8340E00FCEF
:10CFA200F09800A80EFCBBE9009817100EFB9CCE6F
:10CFB200C0C7A80A14DB9ACEA91413B806A9231273
:10CFC200AA0261D8B1277C8044008013DF02E743C4
:10CFD20061D8EE6D0488094C0161E8EE490415043C
:10CFE200100016A80A14615900A9041000168B5CDF
:10CFF2000F9BA904040016AB040700BBA91204137B
:10D00200001489D1DD0B130411001489D1DD0291C2
:10D0120099A8041279ECC514041200168B4CF16124
:10D02200D8EE29035C0F5064D6EE2303A80A040C41
:10D0320000148991A80261E8EE290114C0CA0031E6
:10D04200A5C5EBF0C5AA0C168C0C77A800379BA7D8
:10D0520017B802AA0C168C0D77A802379BAA0A16DB
:10D06200AA08B80C17B80EC810038A13D161E8C811
:10D072001008AF9CCEB800AA0C16AF9ACE61090078
:10D08200B806A80061D8A1610902161304ECC51400
:10D09200B80AA91417BA02A806B9AFE6C3B80020A5
:10D0A2000EAEF8041A0012AEF8340E00FCF098002E
:10D0B200A80EFCBBE9009817100EFB9CCEC0C7A8B7
:10D0C2000A14DB9ACEA91413B806A92312AA026184
:10D0D200D8B1277C8044008013DF02E743DC548808
:10D0E200094C01DF3315040F0016A8041261590020
:10D0F200AF9CCEB800FBF0C579ECC514AC0C16AFF2
:10D102009ACEB806610904B80AA80061D8A16109DB
:10D1120006BA02A80AB9EF284C05DF2415040C0050
:10D1220014A80412CA000079ECC5040D0014CA0048
:10D1320000EF0D15040400165401AB12F6FE94091B
:10D14200EBF0C5A80412AA0C1679ECC512040F0064
:10D1520014894E0E61D8EE4F0313040400165407CF
:10D16200ABEE3F0316CC0030EBF0C5AA0AB800AA1A
:10D1720008B80CC81003A800B80E8A13D161E8C819
:10D182001008A7C0C7AA0C168C0C77A800379BA75B
:10D1920017B802AA0C168C0D77A802379BAF9CCE4B
:10D1A200B800AA0C16AF9ACE610900B806A80061B1
:10D1B200D8A1610902161304ECC514B80AA9141700
:10D1C200BA02A806B9AFE6C3B800200EAEF8041A38
:10D1D2000012AEF8340E00FCF09800A80EFCBBE979
:10D1E200009817100EAF9CCEB800A80A16DB9ACE94
:10D1F200AB1413B806A923B81AC2C3AA0261D8B1E4
:10D20200237C80440080A81ADF02E74361D8EE3114
:10D212000188094C0161E8EE110115040F0014CADE
:10D222000000AB040D0014CA0002EBF0C5AB041100
:10D2320000B800AA0C148A0C73C4C56399AB04131A
:10D242000016EBF0C5C0AA0C148A0C9BDB9CCEC363
:10D25200FBF0C5A80A14AC0C16AF9ACEB806610949
:10D2620008B804A9141361D8A161090ABA02A80472
:10D27200B9EE3402A80214C0CA0032A5C5EBF0C54B
:10D28200AA0C168C0C77A800379BA717B802AA0C19
:10D29200168C0D77A802379BAA0A16AA08B80CC8E2
:10D2A200100317B80E8A13D161E8C81008AF9CCEDC
:10D2B200B800AA0C16AF9ACE610900B806A80061A0
:10D2C200D8A1610902161304ECC514B80AA91417EF
:10D2D200BA02A806B9AFE6C3B800200EAEF8041A27
:10D2E2000012AEF8340E00FCF09800A80EFCBBE968
:10D2F200009817100EFB9CCEC0C7A80A14DB9ACE6A
:10D30200A91413B806A92312AA0261D8B1277C80F6
:10D3120044008013DF02E743DC2888094C01DF0B5D
:10D3220015040D0014CA0000EE7D014C0561E8EE03
:10D33200760115040C0014A80412CA000079ECC589
:10D34200EFDF15040400165401ABEE5601318EB81E
:10D352000AFB9CCEC0C7DB9ACE13B806A80A03B953
:10D36200F661D8A107BA02EEDD00040A0016A8068B
:10D3720012610900C1A80C23B802F1121534000091
:10D38200FC44EC00C6EBF0C5AEF8041000168800B1
:10D39200980A0D98108A13D161E8C81008DB9CCE58
:10D3A200AA0C16AF9ACE610900B8001361D8A16128
:10D3B200090212A80404ECC514B81AA91413BA027B
:10D3C200A800B9AFE6C3B800200EAEF8041A0012E6
:10D3D200AEF8340E00FCF09800A80EFCBBE90098F1
:10D3E20017100EFB9CCEC0C7A81A14DB9ACEA91444
:10D3F20013B806A92312AA0261D8B1277C8044007F
:10D402008013DF02E743DC3A88094C01DF19F2F6A8
:10D41200FE1507A8041279ECC504040016880A3127
:10D422008E610900BBEF204C05DF1C15040C0014B3
:10D43200A80412CA000079ECC5040D0014CA000049
:10D44200EF05E2F6FEE106A8041279ECC512041318
:10D45200001489D1DD52130411001489D1DF49135C
:10D46200040D0014A80412CA0001AF9CCEB800FB40
:10D47200F0C579ECC514AC0C16AF9ACEB8066109AA
:10D4820004B80AA80061D8A1610906BA02A80AB9BB
:10D49200EF165202F6FE9006EF0EA80A04040016DA
:10D4A2005403AB12F6FE2C0688088198084C0261E0
:10D4B200E8EE01FA101CD7C5C12010AFF0C5C80BA9
:10D4C20000C80A00C80900C80800C80700C806004A
:10D4D200C80500C80400C804006168A818B80CDDBB
:10D4E2005188124C08DF3BF6B80034F0C5A9161378
:10D4F200614902A81061F8614900DD1F17040400A8
:10D502001613614902A81061F8614900DD10A800F4
:10D51200040100B800A5A5DDD4EF03E5F2C5A8001B
:10D52200F743DF57312D12B80279ECC5040C001411
:10D532008991DD33F6B810AEF80404001488123174
:10D542008E12A81043DE11A80C16A810A1B8108BD9
:10D5520099A5A717B80CEFE5A8021279ECC5160435
:10D562000D001489734C05DD528804705C0F98100D
:10D57200605CF0706391DF05604C30DF2560D1DDC7
:10D58200370CF061F8EEAE000CF061F8EE2C024CB4
:10D5920010DF0FA80204EEC514A9B812040D00167C
:10D5A2008B9161E8EEC90188104C0261E8EE7701C7
:10D5B200CC00005208EE82018810D161F8EEB00171
:10D5C200318EB80C88104C08DE6AD3DD0E170404C5
:10D5D20000165406AB12A800FEF904A8021279EC58
:10D5E200C504040014F6B810B9AEF8040500B81268
:10D5F200A80C12A81043A8021279ECC516DE280462
:10D602000A00141704040016A961090014A81216CE
:10D61200A810A1B8108B9979ECC504040014A7A92D
:10D62200A1B917B812EFC9040400165400AB12A82E
:10D6320000FEA004EF6F40F2C501DF05F5F2C5EF71
:10D64200648805708810B810440800DC58D3DD0ED9
:10D6520017040400165406AB12A800FE7604A802B2
:10D6620004ECC514B80CA904040016F6BBA90408FE
:10D672000016A810BBA9040F0016CC0000A9B81010
:10D6820012040600161304080014A961490061D3AC
:10D6920017A80212A81014F6BA02B979ECC5040D43
:10D6A2000014CA0004EEC8005306AEF8040600B81F
:10D6B20012A810040A0016A80C14AB16A904040040
:10D6C200B810A81037610900B810A81216A812A144
:10D6D200B8128B72A81016629BA90404001693ABB1
:10D6E200A1BBA914DFCD040A00B810150408001468
:10D6F200FB1CD0A9C18F1ED09EFCA812145205A9F2
:10D7020014A80261FAC6A80C14A9040D0016CC00D4
:10D7120003A904100016CC0001DB9CCEFB9ACEA913
:10D722001413BA0217EF4840F2C501DF14F5F2C52F
:10D73200A9040D0014CA00005205A800FEE903EF77
:10D742002F4C01DF2EAF9CCEB810C2C3311CA812E1
:10D752001479F0C5040C0016AB04040016AF9ACE7F
:10D7620061090012A81061D8A1610902BA0213B9B5
:10D772001014D7D1DFC2DB9CCEA81216AF9ACEBB53
:10D7820013BC02A90413001688059BA904110016F4
:10D7920088059BA90412001688069B8806707C8067
:10D7A2004C71DC05604CFADC08A904120016CC00AE
:10D7B2007FA9040D0014CA0005EFB5634C02DFB067
:10D7C200170410001488107089614861E8EE220184
:10D7D2008199A80204ECC514A9041000168B5C0FF1
:10D7E2009BA912040800B8121304040016AEF80430
:10D7F2000500B810ABB80E04070012A81216136188
:10D802004900DC47F614B80CA8021279ECC5B8122C
:10D8120004080016A80E05614900A81261C8EE06A8
:10D82200FE040A0016A812040400B812AB16A812CD
:10D832003761090016A8100514899B79ECC5040408
:10D842000014A9A1B9A80CA114EFBB5307A916048F
:10D852000400B81217040A0016AB16A812376109A1
:10D8620000B812A81016A810A1B8108B72A8121630
:10D87200629BA90404001693ABA1BBDFD0AF9CCE80
:10D88200B810C2C3311CA9B80079F0C5040C001647
:10D89200AB04080016AF9ACE61090012A81061D835
:10D8A200A161090216A80037BC0213BBA912041316
:10D8B200001489D161F8EEB7FE130411001489D166
:10D8C200DD029199A8021279ECC51604110014899F
:10D8D200D161E8EE9AFE17040D0014CA0003FB9C06
:10D8E200CEAF9ACEB80079ECC51417BA02A800EEF2
:10D8F2007DFE17040400165404ABEE31FDC5C320AF
:10D9020016C1A800312D04EEC516B804AB040D00F3
:10D912001489D161E8EEB801F19802318E12AEF8A5
:10D92200040A0003040500148802CA000081980258
:10D932004C08DFE7A8000112B80279F0C5616861FE
:10D94200F8EE8C01AB040A0014A818B9AB04080065
:10D9520014A81AB9AB04040014F6B9AB04130014EA
:10D96200CA0000AB04110014CA0000AB041000147A
:10D97200CA000179F0C504080014AA0216A9B80A5F
:10D98200A80414C80E0117B80CA904080016AB4469
:10D992000800DE1D881A9818980F81980E79F0C534
:10D9A20004130016AEF8041000B81A8BD1DF20EF72
:10D9B20021A81A1271CA5C1F980F629810A9040D4F
:10D9C2000016C81806CC0001AEF8041100B81AC837
:10D9D2000E08A9040A0016340000ABC1881A318E61
:10D9E200B80812A81CFC44EC00C6A80414A8021231
:10D9F200A904040016A806610900BBAF9CCEB818A2
:10DA020079F0C5040C0016A914AB16AF9ACE6109C1
:10DA120000B81AA81861D8A1610902BA02A81AB9F5
:10DA2200A800312D0304E6C316340E00ABB818204B
:10DA32000EAEF804180012AEF8FCF09800A826FC0E
:10DA4200BBE9009828100EDB9CCEA80414AF9ACE36
:10DA5200B808A916B818AB16A8083727B804A8182A
:10DA620016AC0261D8B1237C80440080A804DF0296
:10DA7200E743DC56881A91A818DF3E140408001602
:10DA8200A806614900DE2AA80212AF9CCEB800792E
:10DA9200F0C5040C0016AB04040016AF9ACE61095F
:10DAA2000012A80061D8A1610902BA0213B9E1EF1C
:10DAB20020A800F2FE7100EFF5040D0016CC000064
:10DAC200A9040C0014CA0000EF06A800E2FE5800E8
:10DAD200F1101CD7C1C3C664D1DF0BA800312D12CF
:10DAE20079ECC5E2EF1E4C04DD104C01DD0C4C0656
:10DAF200DD084C07DD044C03DF1EA800312D12792E
:10DB0200ECC55202040A0014C78F1ED09EFCFB1CF7
:10DB1200D0A914A80261FAC6C2C3312C79ECC5049B
:10DB22000D0014CA0000C6D7C7C162D2DF27A80001
:10DB320012312D04EEC514A9160406001417040AA6
:10DB420000B802A914C58F1ED09EFCA80414A91403
:10DB5200135203EF354C05DD0C4C01DD084C08DD9A
:10DB6200044C02DF2BA80012312D04EEC514A916B5
:10DB72000406001417040A00B802A914C58F1ED0A7
:10DB82009EFCA80414A914135204FB1CD061FAC60B
:10DB9200A800312D04EEC514A9040D0014CA00001A
:10DBA2001004D72010C3C4C80900C80800C8070061
:10DBB200C80600C80500C80400C80300C80200C89F
:10DBC2000200AA02B80CA9B80EF06098008A049864
:10DBD200016140DD248800318E0504050016AEF88F
:10DBE200A1A1B80A8B73A80A168800618B61D98833
:10DBF20000817098008801EFD8AEF8A1A1C1880316
:10DC020074A80E12A810FEAEF81012D73048D0BF7A
:10DC1200F6C730F4C5BFF2C73062D0BFF8C730F3E1
:10DC2200C6BFF4C7D7C716011462318E12312D0454
:10DC3200F6C7051417312DB800A914F6BA02B93186
:10DC42001CA8003304F6C70314A9040E0016CC0066
:10DC520000A9040F0016CC0000A904100016CC0085
:10DC620000A904110016CC0000A904120016CC0071
:10DC720000A904130016CC0000A904140014CA0061
:10DC820000C6D72006FE84FFF6B800C8020232F6AC
:10DC9200C70314A916F6BC02BBA904040016F6BCFD
:10DCA20002BBA9040A0016F6BBA9040C0016F6BBB7
:10DCB200A9040800B804C230F2C70316C3AB16A801
:10DCC2000437BBA9040E0016CC0000A9040F0016ED
:10DCD200CC0000A904100016CC0000A90411001603
:10DCE200CC0000A904120016CC0000A904130016EF
:10DCF200CC0000A904140016CC0000A904160014DC
:10DD0200308813029ACE16F661D8A1029CCEBA02CE
:10DD120017B98802919802A313A1B80061E8EE6DC9
:10DD2200FF34F8DF51001006EC7ECE00200CF19893
:10DD320002318EB808312D12B80079F6C7B80661E3
:10DD420068DD0A1304F8C714B804A9616861F8EE23
:10DD52009F01A806040F0016B80A8BD1DF3EA80661
:10DD6200041100168B91DF10A80A16CC000679F672
:10DD7200C704110016CC000079F6C7B806041000DB
:10DD8200168B91DF09A806040F0016CC000179F664
:10DD9200C7041300168B9161F8CC000079F6C71204
:10DDA200040F0016B8068B91DF5E13041100168B68
:10DDB20091DF21A80616A800CC000604F6C716B803
:10DDC20006AB04110016A806CC000016AB04100026
:10DDD20016CC0000C2C379F6C7041300168B91DF7C
:10DDE20027CC0000A80004F6C716B806AB04100042
:10DDF20016A806CC000016AB040F0016A806CC002D
:10DE02000016AB16F6BC02BBA912041500168B91C4
:10DE1200DF1513040F00168B4C05DD0BCC0004A993
:10DE220004150016CC0000A912040F0014894C043A
:10DE3200DF4313040C00141304080016A914AB12D8
:10DE4200A808FCFFD80091DF0DA80414A9040F0054
:10DE520014CA0005EF1F8FFAC7819FFAC74C05DF6E
:10DE620014A80414A9040F0016CC0000A914F6BAD1
:10DE720002B9F5FAC7A80414A912040F0014894CB8
:10DE820005DF641304120014F5FAC78991DF36CA5C
:10DE92000000C2C379F6C714040E00168B91DF1B73
:10DEA200A80004F6C714A1A116AB040F0016CC00FB
:10DEB20000A9040F0014CA0006EF0AF6BA02B9A8B4
:10DEC20008E2FE60FDA80414A9041400148991DF7D
:10DED20016C2C379F6C7040E0014899161F8CA000C
:10DEE20000A808E2FE3EFD880281980261F8EE4039
:10DEF200FE100CD7C79800FCD9CD0088005004D67C
:10DF020004F6C714A904100016CC0001A9041300DA
:10DF120014899161F8CA0000C6ECDACD00C3C79833
:10DF220000FCD9CD0088005004D6B80004F6C7140E
:10DF3200A904110016CC0001A904130014899161EF
:10DF4200F8CA0000FCDACD00A80004F6C714A90440
:10DF52000A0016A802BBAF9CCEB800DB9ACEA90479
:10DF6200040016AFB69FBC02AFB49FBBA914040451
:10DF7200001613610900B9A80061D8A1610902BAAB
:10DF8200021004D7C79800FCD9CD0088005004D6EF
:10DF920004F8C714A904120014CA0001C6ECDACDB1
:10DFA20000C79800FCD9CD0088005004D604F8C7F9
:10DFB20014A904140014CA0001C6ECDACD00C798F3
:10DFC20000FCD9CD0088005004D61204F6C714A96B
:10DFD20004130016CC0001A904110014899161F800
:10DFE200CA000079F6C704100014899161F8CA00CA
:10DFF20000C6ECDACD00C116A80692DD0E92DD2530
:10E0020092DD2692DD2892DD2AC6D7C51217318D00
:10E012002704F4C5340000FC44EC00C6A8061288AC
:10E0220000C6EEF8FE66C6EF9566C6EE56FF66C6F9
:10E03200EE6EFF66C6EEBCFE14C1C7A9168C01982F
:10E04200000C7F4C02DC0788004C83F1DF0788005C
:10E0520071FB9800E19801AA0444020061E8EEF61F
:10E0620000880091DD3291DD3C9161F8EE9E000C5A
:10E07200A461F8EE9D004C0661F8EEA600AA021615
:10E08200300300BA06CC007FAA0216CC0110AA0205
:10E09200145002CA0212EF73E5B6D2FC35E500A8AD
:10E0A2000214EE820040B6D203DF47CFB6D202FCA2
:10E0B20035E5008801D15003DF51A8021430050074
:10E0C200BA06AA021688009C01AA0216F7CC020020
:10E0D200AA0216CC0332AA0216CC040BAA021430EE
:10E0E20055AACA0588C1C1300080FCADED001004FC
:10E0F200EF59AA0216CC007FAA0216CC0110AA027E
:10E1020016300300CC027FBA065002EF3FCFB6D2E0
:10E1120003EF88CFB6D25FE6BA06AA021488009A45
:10E1220001EF28CFB6D265300500BA06AA021688DA
:10E13200009C01AA0216CC0200AA0216CC0332AA43
:10E142000216CC040BAA0214CA0588E08801915178
:10E152000361E8601004D7AA0216300300BA06CCA5
:10E16200007FAA0216CC0110AA02145102CA02139D
:10E17200EFE2D78FB6D2D7D7D714C7C1A916AA0450
:10E18200128C01980371FCF161D8E19802134402E8
:10E1920000DF69FC1DE500D1DF16C4C5AA0216CC5A
:10E1A200007FAA0216CC0111AA0216CC0233EF5E3E
:10E1B200880371FB7391DD2591DD2291DD2D916143
:10E1C200E891C4C5AA0216300300BA06CC007FAAA1
:10E1D2000216CC0111AA0214CA0212EF36C4C5E615
:10E1E200BA06AA0214639A01E3EF2AC4C5E6BA0684
:10E1F200AA0214639A01E540CEE3EF19AA0216CCF3
:10E20200007FAA0216CC0111AA0216CC0213300317
:10E2120000BA065302880291E061E8F06391E1617D
:10E22200E8F16158510361F8631004D7C18FB6D287
:10E23200704C02DF05624C02DD11604C03DD03F11C
:10E24200C6D7620CFCDD404C04DFF4F6C1C1DB949E
:10E25200D0AF92D0FEAC0214100413779FA2D26208
:10E26200739FA3D215729FA4D264759FA5D2A800F2
:10E27200374DDFCB634E01DFC6624E02DFC1654E12
:10E2820003E1DDBCF1EFB9E5A2D2CFA3D202CFA464
:10E29200D203CFA5D204C4C58991DFA38A014C025F
:10E2A200DF9D8A024C03DFA18A034C04EFD3C1FC39
:10E2B20006B40012BFAAD231FFBFACD213F743DDBE
:10E2C200EE44FFFFDDE9F6BF94D0BF92D036AAD26A
:10E2D200C4C550048B9990A5A7DFF9C4C58A017003
:10E2E2008A0398008A027389BF94D0C0C163BF9227
:10E2F200D0C6D7145104CA000091A5DFF9D714C7BC
:10E30200C1AA0412440200A9148A019802DD091369
:10E3120044060061E8EED501FC75E1004C0361E8BA
:10E32200EEAC0188027291DD409161F8EEBB009182
:10E33200DD2491DD7E0CFDDD539161F8EEF900C420
:10E34200C5AA0216CC007FAA0216CC0127AA021681
:10E35200CC0212EE8D014042CE01DD5BC4C5AA02A1
:10E3620016D58FD0CC0103EF114042CE01DD48C457
:10E37200C5AA0216D58ED0CC0101DD23AA02A1A125
:10E38200FE70FFC4C5300500BA06EF794042CE01E7
:10E39200DD5CC4C5AA0216D590D0CC0107EFDB30F4
:10E3A2000500BA06AA02A1A1FE03FFE543CEF54489
:10E3B200CEEF564042CE01DD354043CE01C4C5DF2B
:10E3C2004D4044CE04DE4DA9A1A1FE5FFE91C4C51D
:10E3D200AA0216DF4DCC0104CF43CE02F544CEE6AD
:10E3E200BA06E58FD0F590D0EF4A4042CE01DD4E1D
:10E3F2008F43CE4C02DF14C4C5AA0216E6CC01023A
:10E40200BA06F544CECF43CE02EF2991C4C5DF4A06
:10E412004044CE04DE4CA9A1A1FE10FED1C4C5AA7F
:10E422000216DF6CCC0102CF43CE02F544CEE6BA2F
:10E4320006E58ED0E11004D74042CE01DF16C4C5F6
:10E44200AA0216CC007FAA0216CC0127AA0216CC79
:10E452000237EF654043CE01C4C5DF5F4044CE04BE
:10E46200DC22F543CEF544CEAA0216CC007FAA02E6
:10E4720016CC0127AA0216300300CC0236BA06E5F2
:10E4820042CEEF64A9A1A1FEA2FD91C4C5AA0216C3
:10E49200DF15CC0108CF43CE02F544CEE6BA06F52D
:10E4A2008FD0E590D0EF8DCC007FAA0216CC012749
:10E4B200AA0216CC0235A044CEEF28AA0216CC003E
:10E4C2007FAA0216CC0127AA0216CC0224EF14C49A
:10E4D200C5AA0216CC007FAA0216CC0127AA0216F0
:10E4E200CC027E300300BA065102EE48FFC4C5AA30
:10E4F2000216CC007FAA0216CC0127AA0216CC0271
:10E5020013EFE014A806C1A806C115FE32001410CC
:10E512000413BFA8D215BFA6D215D7E1D74042CE69
:10E5220001DF0FF543CEF58ED0F58FD0F590D0F503
:10E5320042CED7F543CEF58ED0F58FD0F590D0D719
:10E54200C3C12006F713B804C80018C8010413B8E1
:10E5520002C4C5A80812A806FC5F9D00F114880039
:10E562007315D3EF020193DFFC1231FF14A80403E9
:10E57200B804A80261D8A105B80288000CF8980076
:10E582008801919801DFCAA81012A802617B086174
:10E592007A0812A80E14A804617D08617C08100A8A
:10E5A200D7EBF6C72008AA18429CCEAA1661F842F9
:10E5B2009ACE61C31C40B6D26561E8E5B7D2308815
:10E5C20013029ACE12F661D8A1029CCEBA1813BADF
:10E5D20016D5B7D2E161F8F19F48CED1DD0AF548F0
:10E5E200CEFC1FE500F5B7D2EBF6C78A0F4C0661E9
:10E5F200E8EE4F02AF46CEB802F743DF085303639B
:10E602009800EE3F01AA08B800BFAED2FBF8C7D50A
:10E612004ACEAC08B804BFB0D2F6BFB4D2AA0ABF81
:10E62200B2D2DD3FF175500CD612A80203168F4903
:10E63200CE98004DDD3585654C03DCEAD5F2C5E1A7
:10E64200DF2AA804145302CA007FEBB0D288009AD2
:10E6520001EBB0D2300300CA0211BFB4D2639800FA
:10E66200EED900C4C5899F49CEEFB9F1310505F550
:10E67200F2C5EF2A65318E12313D14312C13051289
:10E68200A80203B80212040600161304080014AB11
:10E69200B806A806128974318E03DF06DC04530320
:10E6A200EFBB8FB6D20CFEDD1191DD120CA4DD1290
:10E6B2004C065501DF0E5510EF0A5502EF065504C0
:10E6C200EF025508A802040A0016655DDF35A804AA
:10E6D200145302CA007FEBB0D288009A01EBB0D289
:10E6E200639800CA027F300300BFB4D2EBB0D28A73
:10E6F200024C13DD0B40F2C501DF1E530363980089
:10E70200EE9600649EFCC3C630AED261FA739800E6
:10E712006391DD7891DDD54C02DF7EEBB0D2CA0089
:10E722007FEBAED2FBB0D2899C01EBB0D2300300BA
:10E73200CA027802B4D2BFB4D2E54ACEEBF8C7AF70
:10E74200B4D2BA0CEBF8C7AA0814894C7FDF0A8A44
:10E75200024C11DD1D4C7FDD19EBF6C73088130228
:10E762009ACE16F661D8A1029CCEBA1817BA16F53F
:10E77200B7D263914C02DE29F2F6FC27DC00EBF8FB
:10E78200C78A0F4C05DF17CA1501EF15EBAED2FB96
:10E79200B0D2890C409BA2B4D2F54ACEEF9ECA0FEA
:10E7A2000488004C03DF06F2F6FC27DC00F5F2C514
:10E7B20088004C04AF9CCEB802AF9ACEB804DF45B5
:10E7C200EBF6C78A0ED1DF3DF2F6FC27DC00EBF652
:10E7D200C7AFBA9FCA0E01EBF6C7BA06AFB89FBA67
:10E7E20004FBF6C7A804610904BBA80261D8A161B1
:10E7F2000906BC02EBF8C78A0F4C05DF05CA1501F2
:10E80200EF03CA0F04FBF6C7A802614902A804611C
:10E81200F8614900DC2D8C0E91DF2488004C04DF66
:10E8220022A804610904BBA80261D8A1610906BC3F
:10E8320002EBF6C7CA0F00EBF8C7CA0F04EF04F6E3
:10E84200BC02BB1008D7BF46CED7FBF6C7EBF8C752
:10E85200AC08BFAED2AA08BFB0D2F6BFB2D2BFB424
:10E86200D2E5B6D2D730BC9FBF46CEEFDDEC1FE576
:10E87200009F4ECE15BF4CCED7C1C773FB4CCE8F77
:10E882004ECE9800318E07DF05DC031004D7A80AAC
:10E89200C1A80AC188049EFC8806706361FA100848
:10E8A200D72004F19800318EB802321A00FC1E9D66
:10E8B200000422A014A802312D04B8D2B802A9166D
:10E8C200AA0212A8021413BA0217B988008198008A
:10E8D2004C06DFD234E1E851001004EC73E800C5C5
:10E8E200C3C12012F19800318EB802321A00FC1E08
:10E8F2009D000426A016A81C5E01085D0814A8024B
:10E90200312D04B8D2B802A81E5E03085E020812B6
:10E91200A80216136149021561F8614900DD0988F0
:10E92200008198004C03DCBF88004C06DE67318E04
:10E93200B802321A00FC1E9D00042AA01688144D4B
:10E94200DF74A81CB804A81EB80688129808F198AB
:10E952000088127088006148DD18318E12A81603F3
:10E9620014AEF80404000304050016899B88008194
:10E97200EFDDA802321A00FC1E9D000422A0120440
:10E982001400161304160014ABB800C2C3899812FF
:10E99200318E0361F8DE1F200EAEF804120012AEB3
:10E9A200F8340E00FCF0980088209EFCA80E16A8F1
:10E9B2001061FA1026D71018D7AEF8040900128891
:10E9C2000870E1FC87B600E1D7AEF80409001288AE
:10E9D2000870E1FC87B600E1D79F50CED73496CEBF
:10E9E200530236F4A0ABB917040C001693A5A5DFA9
:10E9F200F4D72016F6B804308ACEB80230BEA0B8DA
:10EA020000C4C5A9321A00FC1E9D00043AA014A934
:10EA1200BFD0D2120410001489D1DF44A80214A975
:10EA220004010012B9AA0261D8A1B806BA02A8006C
:10EA320004040016A8066149021361F861490061E5
:10EA4200D35BA80012040C001613040E0014AB16BC
:10EA52008973318E0761F8DE3D639EFC61FAEF3601
:10EA6200340E00AEF8040800FCF09800FBD0D2A8E7
:10EA7200001204080014CC1000A91613040A001492
:10EA82008973318E0761F8DE0D639EFCAEF80408CF
:10EA92000012A80461FAA80214F6BA02B9A8000486
:10EAA2001000B800A802040400B802A804A1B80427
:10EAB20044030061E8EE49FF3496CE15B80630F201
:10EAC200A0B800C80202C6C7AB12A9B804FCE29DF6
:10EAD20000F743DF1AA8001204040016130406000C
:10EAE20014AB168973318E07DF22DC20F6B804A836
:10EAF2000614A804A1B9A800040C00B80088029169
:10EB02009802A5A515B806DFBD1016D7639EFC6155
:10EB1200FAEFD9C7321A00FC1E9D00043AA014E68F
:10EB22000288CEBF88CEA9B800F743DF02C6D7AEAF
:10EB3200F804060012A800340E00FCF09800A800A9
:10EB420004100014A800040E0016CA000161790026
:10EB5200EFDBFCA3E800FCDFE900FCDBCD00FC8579
:10EB6200DC00EC67E800AF9CCEAF9ACEFCF4E90083
:10EB7200FC86CE00FC2EDD00ECA3E500C1200416CD
:10EB8200A80CB800A80A14A313B802A80204FFFF35
:10EB9200B802DD2C647D5004D60406A116A800310B
:10EBA2008D1215318E037E01087D0814A800318E66
:10EBB2007E03087E0208B800A804A116B804EFCBB1
:10EBC200C2C3151006D7C12004F6B80212B800A8B5
:10EBD2000416A80047DE1289318E16A80207B80271
:10EBE20061D8A3A5A800A1EFE4A8021006D7C1C569
:10EBF2002006F6C3C6B800A80814A806B1B80212C7
:10EC0200A80043DE0C89D1DD08A800A1B800A5EF59
:10EC1200E9F7C4C5A80805B804A80403B806A80201
:10EC220014A80003B80845DE0D8B75D1DD08A806CF
:10EC320035A399A7EFE3A80614A808CA0000A110FB
:10EC42000AD714A80416A31304FFFF12DD068B993A
:10EC5200A5A7EFF3D7C32006C1F19802318E16F6AD
:10EC620043C2C31761F843DE2E05B8041503B1167B
:10EC7200B8068B72A80416A80004FFFFB8008B73B5
:10EC8200A80616639BA80416629BA80861C8B11265
:10EC9200B808880281EFC3100AD7200814F198003F
:10ECA200629801F1610A614BDE2D63318E05B8066F
:10ECB2008801318E05B80416938B9802A806168B2C
:10ECC20077A804379BA8061688029B8801819801C1
:10ECD2008800819800EFCD1008D714A804A104FF82
:10ECE200FF16DD066299A517EFF4D7C7C11613C543
:10ECF200C20401001461D8A3A808B8021504FFFFDA
:10ED02001461C8B3130561F8DE148B77A802374D7E
:10ED1200DF0FA717B802A800A116B800EFDEE1EFD7
:10ED220001F11004D7C1C3200414F616B800899863
:10ED320002D1DD2F0CD04C0ADE2CF6C1500AC1A83C
:10ED4200041217FC2D9D001004148802318E0561F7
:10ED5200D8A304D0FF1661C8B3C0C3A806A114B8D3
:10ED620006EFCBE3EF01F3A8041417B9A800BA0227
:10ED7200631008D714F6161289D117DD0A040100B0
:10ED82001661D8A3A5EFF1D713B1B144FE00DE0A94
:10ED9200F062916140DE0380EFF8D730E80304FFB0
:10EDA200FFDFFBD7A104FFFFDFFBD714A806C1A832
:10EDB20006C115FC71EF001004E1D700D7C3C120D2
:10EDC20006717BFAFCFA9600FC069700A808316DE2
:10EDD20012A80831AEB802F19800A80631AE03B805
:10EDE20004BF9ECEA802BFA0CEA80612A80E03148E
:10EDF200A80812A81061D8A10316316D121531AE00
:10EE020003141731AE12A80243A80461F845DE2D9F
:10EE1200FCAD97009FDED24CFFDF06FC989700EF17
:10EE2200F3D1E1DD0200F1980000E6029ECEB804C3
:10EE3200F661D8A102A0CEB802A804EFA4FC009704
:10EE420000717AFA8800100AD7C5C3C12014717BF9
:10EE5200FAFCFA9600FC069700F713B80CF198003A
:10EE620013B810A814B806A816B804A81EB802A8A9
:10EE720020B80EF19801A81412A81E0314A81612A5
:10EE8200A82061D8A10312A80443A80661F845612D
:10EE9200C8EECF00A80EF743A80261F8440001DED5
:10EEA20054A8021231ED31EEB81213312E14625C05
:10EEB2000364DF059FDCD2EF40819FDCD2F6B80805
:10EEC200B80AA812123004002314F661D8B112A8AD
:10EED2000843A80A61F845DE2004010016DE05A8F1
:10EEE20008A1B808A81E12A80A0312A8180314172A
:10EEF200CA00FFEFCBCFDCD240A81012A81803BF84
:10EF0200D6D2A804BFDAD2A806BFD8D230D6D2FC55
:10EF1200B7970073D361E80088018198014C08DC3F
:10EF22000FA80CFCB2970073A80CA1B80CF19801C1
:10EF3200D3DD0700F19800EE3CFF8FDCD25004D6FF
:10EF420012A81003B810A80603B806A80461D8A135
:10EF5200B804A80223B802A80E61D8B1B80EE1988D
:10EF620000EFD4FC009700717AFA8800101AD7C318
:10EF7200C1200AF6C80900C80800C80700C8060070
:10EF8200C80500C80400C80300C80200C80200C1C6
:10EF92005104C1A80EFE25FE1004D1F1DD429801F4
:10EFA2009800880174A81412A812FC5F9D0012AE8A
:10EFB200F8A1A11662708800736061D988010C08FB
:10EFC2009801836398004C04DFD8F6C15004C1AEA7
:10EFD200F804060014A81012A80EFE6CFE1012D738
:10EFE200100ED7F5D2D2CFD3D214E5D4D234D2D2A6
:10EFF200510FFC309700D1DF02E1D700F1D7C1C732
:10F00200A3C0C3A80004FFFFB800DD28D5E0D2DF0B
:10F01200F2A802440900DEEBCFE8D203BFE2D2300D
:10F02200E2D2FCFB10019FE0D281DFD70000FC5C42
:10F032001101EFF21004D7C5C3C1FE87009FE0D2D1
:10F04200D1DF46A80212A80031AD03BFE2D2A80464
:10F05200BFE6D2CFE8D20430E2D2FCFB10019FE03F
:10F06200D24CFFDF080000FC5C1101EFF1D1DF1987
:10F07200CFE8D20630E2D2FCFB10019FE0D281DF62
:10F08200080000FC5C1101EFF21006EC621101C5F0
:10F09200C3C1FE2F009FE0D2D1DF23F5E8D2A80240
:10F0A20012A80031AD03BFE2D230AACEBFE4D2A88B
:10F0B20004BFE6D230E2D2FCFB10019FE0D2100680
:10F0C200EC621101C7C80020C80100AEF8FCE010D4
:10F0D2000173F6BFE2D2BFE6D230A2CEBFE4D2F5D0
:10F0E200E8D263C6D7EC6211015A06DFD76A06205E
:10F0F200D736F000E671C200000000BC56EF0034C3
:10F102003601AA0E086C0208BA0E716AE7716BE347
:10F11200716AEF716BEB300300B95024BA045017D7
:10F12200BA08C916009EAA126C02086C0208BA122A
:10F132008E3D9E3D6A060351FC5F26FF9E26D7C781
:10F142009800C3C6C5343E01C2F5EAD2E5EAD2A9A7
:10F152005C3FB9A96C80B913BFEED217BFECD2FEE7
:10F162005400716BE3716BE78800718B9D16C6D7F3
:10F17200C79800C3C6C5343E01C2F5EAD2CFEAD26F
:10F1820002A95C3FB9A96C80B913BFF4D2F6BFF2F1
:10F19200D217BFF0D2FE1E00716BE3716BE78800DD
:10F1A200718A9D16C6D7344401716AE7A9086C02B8
:10F1B20008B9716BE3D7344801A9085CFD08B9F1BD
:10F1C20000814CA1DFFA5442AA08086C0208BA086E
:10F1D200AA065CFDBA06A9086C0208B9D734440134
:10F1E200A9086C0208B9AA06085CFD08BA06AA04B6
:10F1F200085CFD08BA04AA046C02BA04F100814C4E
:10F20200A1DFFA5448A9086C0208B9D7AF320160ED
:10F2120031150CAFEED2F743DD05E6A1EEAC00AF3F
:10F2220032016031050AAFEED2F743300500DFEC60
:10F232008FEAD23103778FEAD2312336343E01AAE4
:10F2420006086C0208BA06A95C3FB9A96C40B9AAC3
:10F2520004086C0208BA0451046FEAD29FEAD2AFE2
:10F26200F4D2E743DF08544AA9085CFD08B9CD1679
:10F27200FFD7AFF2D242F4D2DEF7EBF0D28D16997D
:10F28200A2F0D2A2F2D2DBF2D2F6B102F4D243DF82
:10F292000C344A01A9085CFD08B9CD16FFAFF2D2C1
:10F2A20042F4D2DFC9FCDFF100E5B3CED7AFEED234
:10F2B200F743DF08FCDFF100E5B2CED7EBECD289F1
:10F2C2009D16A515BFECD2B2EED2D7E5B4CEE5B20B
:10F2D200CEE5B3CED736E0FF712AE471A3712AE4FA
:10F2E20071A3713AE471B3713AE471B3714AE47192
:10F2F200C3715AE471D3716AE471E3717AE471F310
:10F30200712AE6712BE2714AE7714BE3717BEC7172
:10F312007BE8CE3920CE3820D7717BE0717BE4D7F1
:10F32200717AE4717BE0D7E5DCCED720043402FFAA
:10F33200C8020C89315A5C019FE6CE89311A5C0100
:10F342009FF4CE8D0C313A5C019F02CF895C019F04
:10F3520010CF8D0D317A9F1ECF89312A5C019F2CEF
:10F36200CF89313A5C019F3ACF89314A5C019F488B
:10F37200CF89316A5C019F56CF89317A9F64CF8DE4
:10F382000C314A5C019F72CF8D09314A5C019F802A
:10F39200CF30DECEB800A80004080014894C01DF8B
:10F3A2002AA80014040700168B91DF0CCC0000AFD2
:10F3B2009CCEBA02AF9ACEB9AF9CCE15040400140B
:10F3C200C6C7AF9ACE612900B9EF4CD1DF49A80078
:10F3D200040700148973D3DF2DA800040C00168BD8
:10F3E200D1DF0BCA0001A80012040900EF218B91A2
:10F3F200DF14CA0001CC0000A8001404040016F6B1
:10F40200BBBA02B9EF1193DF0EA80012040A00146E
:10F4120013040B0016899BA800040E00B800880292
:10F4220091980261E8EE6EFF8F86CF4C02DD044CAC
:10F4320001DF05F5DACEEF06D161F8E5DACEFC3B65
:10F44200F700AF8201609F87CF1004D7AF1ED3BFF2
:10F45200BCCEAF1CD3BFBACE8FDACF318EBFBECEF9
:10F46200AF26D3BFC0CE8FCACF9FC6CE8FC4CF9F89
:10F47200C7CE8FCDCF9FC8CEFC9101019FCACEFCD3
:10F482008501019FCBCEFC7F01019FCCCEF5D2CE70
:10F49200FC8D01019FD3CEF5D4CE8FFFCF9FD5CE69
:10F4A2008FD8CF9FD8CE8FD7CF9FD6CE8FD9CF9F91
:10F4B200D7CEF5D9CE8FDBCF9FDBCE8FD1CF9FCDED
:10F4C200CEF6BFCECE8FFECF9FD1CEF5D0CE8FCF90
:10F4D200CF9FC9CE8FAFC34C01DF0BAFB2C3BFC248
:10F4E200CEAFB0C3EF084C02DF07F6BFC2CEBFC437
:10F4F200CE8FF6D2318EBFC0CFE5FCD28FD2CF9F56
:10F50200FED2F502D38FCECF9F01D38FD4CF9FFDF2
:10F51200D28F99CF9F00D38FD0CF9FFFD2F5FBD24E
:10F52200F5FAD2F5F9D2F5F8D2D7530C30E9CE1468
:10F53200040E00CA000093DFF6D7C5200816C131B9
:10F542001C13B802A80A614900A80061E3EE930007
:10F552003303B1B116A80A614900DE7FA800A114E5
:10F56200A5A80012B808A80A16A9B80647A800A1BB
:10F57200A1B800A5A5DCECA80203B80014A1A1164D
:10F58200A9B804614900DE05E19802EF10A808124B
:10F59200A80203A1A112F19802C6C7C0C3F6C1AB6B
:10F5A20012A8021613612900C1A80C14A9B80412EA
:10F5B200A80E23F7FC2D9D00141004F6C1A8021614
:10F5C200A80827C115FC109E001004128802718C35
:10F5D200A804DE0303EF0123100CD7A8020103B134
:10F5E200B1EF010314A9EFF0FE1901408DCF01DF45
:10F5F20050F5B5CECFB6CE808F8CCF34020032B567
:10F60200CEFC41F10030701704FFFFDFFBD5B2CE14
:10F61200DDFBF5B2CEE5B5CECFB6CE0C8F8CCF34B6
:10F62200020032B5CEFC41F10030701704FFFFDF5B
:10F63200FBD5B2CEDDFBF5B2CECFB5CE04CFB6CE82
:10F642000540B4CE01DF08CF8DCF02F5C2C3D7E5A6
:10F652008DCFD7C7408DCF0161E8EE85008F8CCF6B
:10F6620034010032B5CEFC41F10030701704FFFFC7
:10F67200DFFBD5B2CEDDFBF5B2CE8F8CCF340100ED
:10F6820032B7CEFC72F10030701704FFFFDFFBD5FA
:10F69200B3CEDDFBF5B3CE8F8CCF34010032B6CEC4
:10F6A200FC41F10030701704FFFFDFFBD5B2CEDD65
:10F6B200FBF5B2CE8F8CCF34010032B8CEFC72F1A2
:10F6C2000030701704FFFFDFFBD5B3CEDDFBF5B3CF
:10F6D200CE8FB7CE9800F6BF8ACFC0C18FB8CEBF4B
:10F6E20088CF40B4CE01DF11CF8DCF02F5C2C3F671
:10F6F200BF8ACFB1BF88CFEF03E58DCFDB8ACFAF13
:10F7020088CFC6D7F5B5CEF5B6CE8F8CCF340200F2
:10F7120032B5CEFC41F10030701704FFFFDFFBD59C
:10F72200B2CEDDFBF5B2CE40B4CE01DF08CF8DCF35
:10F7320002F5C2C3D7E58DCFD72006FE9000FEA406
:10F7420000FEBB0030E2CEB800F6B804F743DD2875
:10F7520004FFFFDD42A343DF56C4C5A944B90BDC55
:10F76200594095CF04DF53A80004080014B8028959
:10F77200D1DF47FEB200EF3CC4C5A944B90BDC3A65
:10F782004095CF04DF34A80004080014B80289D1E0
:10F79200DF28FEA100EF1DC4C5A944B90BDC1B4044
:10F7A20095CF04DF15A80004080014B80289D1DF40
:10F7B20009FE6600A80214CA0001A800040E00B8DF
:10F7C20000A804A1B804440300DF811006D78FE922
:10F7D200CE4FE7CEDF0E8F99CF819F99CF4C036139
:10F7E200F8F599CFD78FF7CE4FF5CEDF118FCECF69
:10F7F200819FCECF4C04F51BC361C8F5CECFD78F06
:10F8020005CF4F03CFDF12F51BC38FCECFD1DF055C
:10F81200CFCECF03D7919FCECFD740D0CF01DF0439
:10F82200F5D0CFD7E5D0CFD740D2CF01DF04F5D284
:10F83200CFD7E5D2CFD740D4CF01DF04F5D4CFD78D
:10F84200E5D4CFD7C304FFFFDD06E743DD10C6D7FB
:10F85200A80014040500128A04C6EC6EF800A80081
:10F862000405001230F6D2C6EC96FB00C3C489D15F
:10F87200DD260CFEDD2B91DD3191DD3791DD3D91F1
:10F88200DD4391DD4991DD6991DD6F4C07DF74C580
:10F89200C23046D3EC130301C5C23004D3EC69FD78
:10F8A20000C5C2300ED3EC36FE00C5C23010D3EC18
:10F8B20057FE00C5C2301AD3EC4CFF00C5C230203F
:10F8C200D3ECD7FF00C5C23024D3EC0A0001C5C275
:10F8D2003034D3FCD10001D5A7CFDF27E5A7CF8FE6
:10F8E2003CD3318E128F3BD3318E340000ECE4C70F
:10F8F20000C5C23028D3EC430001C5C23042D3EC6C
:10F90200F20201D7FCCFFC00FC53FD00FC17FE0005
:10F91200FC50FE00FC2DFF00FCCCFF00FC020001AD
:10F92200FC3B0001FCC30001FC2D0101F5A6CFD771
:10F9320014D5A6CFDF0B15BFC6CF13BFC8CFE5A620
:10F94200CFD7F1FCABBF00FC8ACD00FC5EC900FC46
:10F9520006F900FCA0FB00FC2CF500FCF0BF00FC4B
:10F962004EC800F51AC3F575C3F6BF06C3BF04C37C
:10F97200E50CC3F58DC3CF8BC302D7318E12F614BB
:10F98200F1EC3DBE00F614F7511BEC3DBE00D1DD9B
:10F992000A91DD0F91DD1491DD1ED760318E125177
:10F9A20021EF0E60318E125120EF0660318E12511E
:10F9B2001F340000EC3DBE0060318E125122EFF187
:10F9C200BFAACF13BFACCF340700F7F6FC91F0000B
:10F9D20034B2CF500736AACE8B9990A5A7DFF9AFE4
:10F9E200ACCF129FB2CF629FB3CFAFAACF129FB458
:10F9F200CF629FB5CF34A2CE500736B2CF8B99904B
:10FA0200A5A7DFF9E7F6FC00F000340700F7F6ECF3
:10FA120039F000C7340700F7F6FC91F00034B2CF9A
:10FA2200500736AACE8B9990A5A7DFF9D9B3CF8F0D
:10FA3200B5CF98008FB2CF1244F505C0C18FB4CFB5
:10FA42001461F8449DE0DC03F61214BFAACF13BF81
:10FA5200ACCF1215C6D7BFAECF340700F7F6FC9174
:10FA6200F00034B2CF500736AACE8B9990A5A7DF0B
:10FA7200F9AFAECF129FB6CF629FB7CFE7F6FC00C9
:10FA8200F00034A2CE500736B2CF8B9990A5A7DFF3
:10FA9200F9340700F7F6EC39F000340700F7F6FC0A
:10FAA20091F00034B2CF500736AACE8B9990A5A719
:10FAB200DFF9D9B7CF8FB6CF44640061C8F6BFAEC5
:10FAC200CFD79FB0CF340700F7F6FC91F00034B2E5
:10FAD200CF500736AACE8B9990A5A7DFF98FB0CF6A
:10FAE2009FB8CFE7F6FC00F00034A2CE500736B242
:10FAF200CF8B9990A5A7DFF9340700F7F6EC39F020
:10FB020000340700F7F6FC91F00034B2CF5007360C
:10FB1200AACE8B9990A5A7DFF98FB8CF704C65F16B
:10FB220061D860D72006340F00F7E6FC91F000346C
:10FB3200EBCF500F36AACE8B9990A5A7DFF9F730FD
:10FB4200EBCFB800C8020F34DCCF15B804C6C789A2
:10FB5200754D61F8A3A80035998802919802A5C055
:10FB6200C5A804A114B804DFE413440F0034A2CEE4
:10FB7200500F36EBCFDF031006D78B9990A5A7DF86
:10FB8200F9E7E6FC00F000340F00F7E61006EC3966
:10FB9200F00000D714C3C6F78B9930EA07D7F5F601
:10FBA200D2D7FC3E0101FE5400FEC0008F47D3FEB7
:10FBB200AD00AF44D3FE9B00AF22D3FC950101BF41
:10FBC200CACF8F19D39FC4CFD7D1DD0791DD0F9153
:10FBD200DD15D7CFD7CF03F5D8CFF5D9CFD7CFD82B
:10FBE200CF03F5D7CFEFF3CFD9CF03F5D7CFF5D8E2
:10FBF200CFD78F17D3FED1FF8F18D3EF14FEF2FFAA
:10FC02008F14D3FE2A008F13D3FE30008F16D3EF4A
:10FC12006AD1DD0A91DD0B91DD0C91DD0ED7F5CDB8
:10FC2200CFD7E5CDCFD7CFCDCF02D7CFCDCF03D74B
:10FC320091DF05CFCFCF03D7F5CFCFD791DF05CF58
:10FC4200D1CF03D7F5D1CFD791DF04E5D5CFD7F503
:10FC5200D5CFD7322800FCBA9D00609FDACFD7916A
:10FC62004C02DE04E5DBCFD7F5DBCFD74012D30160
:10FC7200DF05CFFECF03D7F5FECFD791DF05CFFF4C
:10FC8200CF03D7F5FFCFD714C3C6F78B998C015C8E
:10FC9200019A018C01311A5C019A028C01312A5CB1
:10FCA200019A03E6A1D7C116C3C48B998C015C01EA
:10FCB2007317A1A116637184719973A800040300DC
:10FCC2001663718471A99A01F7E6A1C6D7F5F8D235
:10FCD200F5FBD2F5FAD2F5F9D2D714C3C6F78B9950
:10FCE2008C015C019A018C01311A5C019A028C012F
:10FCF200312A5C019A038C01313A5C039A048C012B
:10FD0200315A9A058C025C019A06E6A1D7C3C71440
:10FD1200C3C6899B8A015C017315A1A11663718414
:10FD2200719973150403001663718471A998008A8E
:10FD32000431395C1873A80216C0C18A05315961B1
:10FD420068616B9C018A065C019C02F7E6A11004C3
:10FD5200D7F5FCD2F5FED2F502D3F501D3F5FDD2EB
:10FD6200F500D3F5FFD2D714C3C6F78B998C015C8B
:10FD7200019A018C01311A5C019A028C01312A5CD0
:10FD8200019A038C01313A5C019A048C01314A5C7C
:10FD9200019A058C01315A5C019A068C01316A5C28
:10FDA200019A078C01317A9A088C025C019A09F651
:10FDB200D7C3C714C3C6899B8A015C017315A1A16D
:10FDC200166371847199731504030016637184714B
:10FDD200A973150404001663718471B973150405BF
:10FDE200001663718471C973150406001663718469
:10FDF20071D998008A0731695C4073A80216C0C1A4
:10FE02008A0831796168616B9C018A095C019C02F4
:10FE1200F7F61004D7F507D3F50CD3F504D3F5099B
:10FE2200D3F505D3F506D3F508D3F50DD3F50BD3EA
:10FE3200F50AD3D714C3C6F78B998C019A01E6A1B0
:10FE4200D714C3C6899B8A019C01F7E6A1D7F50E98
:10FE5200D3F50FD3D7C114C3C6F78B998C015C01BC
:10FE62009A018C01311A5C019A028C01312A5C01DF
:10FE72009A038C01313A5C019A048C01314A5C018B
:10FE82009A058C01315A5C019A068C01316A9A07F3
:10FE92008C025C039A088C02312A318EFC819E000E
:10FEA2001430CC3FC130CDCCC115FC409C001004B5
:10FEB200FC129D006073C4C5639A09F7E6A1C6D718
:10FEC200C3C714C3C6899B8A015C017315A1A1161D
:10FED200637184719973150403001663718471A9A7
:10FEE20073150404001663718471B9731504050057
:10FEF2001663718471C998008A0631595C2073A80F
:10FF02000216C0C18A0731696168616B9C018A0867
:10FF12005C03708A0931295C7C61089C028A093180
:10FF22005A5C019C03F7E6A11004D7F518D3F51922
:10FF3200D3F516D3F510D3F513D3F511D3F512D3A8
:10FF4200F517D3F515D3F514D3D7C3C1200614C3BF
:10FF5200C6F6C130E803C18B998C0198048C0370FA
:10FF62008C0471FBB808128804708C02B806FC2D50
:10FF72009D00B8041004A80816A80614A802BA0224
:10FF8200A804BA048C04317A9A0113BA04A800BAFC
:10FF920002F7E6A1100AD7200416C3C48B998C027B
:10FFA2009A01A717B80217A112A11613040300B8E9
:10FFB200008B9A02A7F78B9A03A802167184C6C710
:10FFC2008B71F99A04E6A11004D7F6BF1AD3BF1EAB
:10FFD200D3BF1CD3D714C3C68B998C01708C024437
:10FFE200E90361C830E803BA02F7E6A1D716C3C431
:0EFFF2008B998C029A01A7A7A7F78B9A02E6BB
:020000021000EC
:10000000A1D7F520D3F6BF22D3D714C3C6F78B9957
:100010008C03708C0471FBBA028C04317A9A01E66D
:10002000A1D716C3C48B998C029A03A7177184A118
:10003000A116F78B71F99A04E6A1D7F6BF24D3BFB6
:1000400026D3D7C1C714C3C6F78B998C01708C0215
:10005000BA028C03708C04BA048C05708C06B8004C
:10006000FC819E001430D03CC130A913C115FC4066
:100070009C0016A8061417BA0813BA0AA804BA06F0
:10008000100417FC32F900F7E6A11004D7C116C31B
:10009000C48B998C029A0117A1A1A116F78B9A0221
:1000A000C6C78C049A031704040016A78B9A04C6CB
:1000B000C78C069A05A80004060016A78B9A06E6C8
:1000C000A1C6D7F528D3F6BF2AD3BF2CD3BF2ED3D2
:1000D000D714C3C6F78B998C01708C02BA028C03BB
:1000E0009A048C045C0F9A058C04314A9A068C059C
:1000F0009A078C069A08E6A1D7C314C3C6899B8ABF
:10010000029C0115A1A1A1168B73C6C7639C028A2C
:10011000049C038A055C0F708A06314961089C04BF
:100120008A079C058A089C06F7E6A1C6D7F534D352
:10013000F6BF38D3BF36D3BF3AD3F53CD3D78F07FA
:10014000D3FE0B008F0DD3FE14008F11D3EF1E7062
:1001500051CF5F3ED39061F871CA9F3ED3D77051A3
:10016000FC5F40D39061F8718A9F40D3D7D1DF07FD
:10017000F500D0F501D0D7E500D0CF01D003D7519D
:10018000035F40D3D78F3ED3314A5C03D78F00D073
:10019000D78F01D0D7C1200AE60202D0B808BF022B
:1001A000D0F661D8A10204D0B806BF04D0A80A4294
:1001B00006D061F8EE9300317503EEB500F7FC81CF
:1001C0009E0014304940C1308716C115FC409C0088
:1001D000141004AFC8CFC1AFC6CFC115FC409C00FE
:1001E000141004307042C1F6C115FC409C0014107C
:1001F00004307A44C1F6C115FC9B9A00B80613B8C6
:10020000081004A802FC129D00B800FC819E00C3E7
:10021000C1A80812A806FC5D9900141004307A44A5
:10022000C1F6C115FC409C0014100430FA43C1F61D
:10023000C115FCC99B001004D1DD05A800A1B800C0
:10024000A800BF08D0A80ABF06D0F6C15014C1A8A4
:100250000A12A80CFC499E00100403DF1ADC1830B7
:10026000E803C1AF08D034E803320CD0FE0C001014
:100270000ED75C7FEE46FFF6100CD7C3C1C7C3C6CE
:10028000A80212ABB80043A800DF031006D743DE74
:100290000C150161D329A80216A800EF0BA80A14B7
:1002A0000161D31BC6C7A802121531FFC1C51723B0
:1002B000F7FC2D9D001004311C31FE0316DF02E611
:1002C00016A80212A80043A80414A800DE0407B967
:1002D000EFB927EFFAAF08D0D7AF0AD0D7BF0AD00F
:1002E000D71230E803C11334E803320CD0FE8BFF81
:1002F000C6D714C3C6F78B998C01708C02BA02F66C
:10030000D716C3C48B998C029A01A7A7A7F78B9A1B
:1003100002F6D714C3C6F78B998C019A01E6A1D7D0
:1003200014C3C6899B8A019C01F7E6A1D72014AEAD
:10033000F8C80300C80200C80100C80100A1B80441
:100340001230FCD2FC0FFD00F19800318E12AEF895
:100350000406000304050014880073A8041661C98C
:1003600099836398004C03DFE2C80A03C81300AE08
:10037000F8040B0012300303FC87B6001014D720DA
:1003800014AEF8C80200C80100C80100A1B80412E8
:1003900030F8D2FCA8FC00F19800318E12AEF804BF
:1003A00006000304050014880073A8041661C999A7
:1003B000836398004C02DFE2C80A02C81300AEF85B
:0E03C000040B0012300203FC87B6001014D7A5
:1003CE00000000000000000000000000010000001E
:1003DE00000002000000000000000000000000000D
:1003EE0000000000000000000400000005000000F6
:1003FE0006000000070000000800000009000000D1
:10040E000A0000000B0000000C0000000D000000B0
:10041E000E0000000F000000100000001100000090
:10042E00120000001800000019000000000000007B
:10043E0000000000000000000000000000000000AE
:10044E00000000000000000000000002000000009C
:10045E00000000000000000000000000000000008E
:10046E00000000000000000000000000000002017B
:10047E0000000000000000000000FFFFFFFF000072
:10048E00000000010000000000000000000000005D
:10049E00000000000000000000000000010001004C
:1004AE00000100000000030000000000000000003A
:1004BE00000000000000000000000000000000002E
:1004CE00000000000000000000000000000000001E
:1004DE00000000000000000000000000000000000E
:1004EE0000000000000000000000000000000000FE
:1004FE0000000000000000000000000000000000EE
:10050E0000000000000000000000000000000000DD
:10051E0000000000000000000000000000000000CD
:10052E0000000000000000000000000000000000BD
:10053E0000000000000000000000000000000000AD
:10054E00000000000000000000000000000000009D
:10055E00000000000000000000000000000000008D
:10056E00000000000000000000000000000000007D
:10057E00000000000000000000000000000000006D
:10058E00000000000000000000000000000000005D
:10059E00000000000000000000000000000000004D
:1005AE00000000000000000000000000000000003D
:1005BE00000000000000000000000000000000002D
:1005CE00000000000000000000000000000000001D
:1005DE00000000000000000000000000000000000D
:1005EE0000000000000000000000000000000000FD
:1005FE0000000000000000000000000000000000ED
:10060E0000000000000000000000000000000000DC
:10061E0000000000000000000000000000000000CC
:10062E0000000000000000000000000000000000BC
:10063E0000000000000000000000000000000000AC
:10064E00000000000000000000000000000000009C
:10065E00000000000000000000000000000000008C
:10066E00000000000000000000000000000000007C
:10067E00000000000000000000000000000000006C
:10068E00000000000000000000000000000000005C
:10069E00000000000000000000000000000000004C
:1006AE00000000000000000000000000000000003C
:1006BE00000000000000000000000000000000002C
:1006CE00000000000000000000000000000000001C
:1006DE00000000000000000000000000000000000C
:1006EE0000000000000000000000000000000000FC
:1006FE0000000000000000000000000000000000EC
:10070E0000000000000000000000000000000000DB
:10071E0000000000000000000000000000000000CB
:10072E0000000000000000000000000000000000BB
:10073E0000000000000000000000000000000000AB
:10074E00000000000000000000000000000000009B
:10075E00000000000000000000000000000000008B
:10076E00000000000000000000000000000000007B
:10077E00000000000000000000000000000000006B
:10078E00000000000000000000000000000000005B
:10079E00000000000000000000000000000000004B
:1007AE00000000000000000000000000000000003B
:1007BE00000000000000000000000000000000002B
:1007CE00000000000000000000000000000000001B
:1007DE00000000000000000000000000000000000B
:1007EE0000000000000000000000000000000000FB
:1007FE0000000000000000000000000000000000EB
:10080E0000000000000000000000000000000000DA
:10081E0000000000000000000000000000000000CA
:10082E0000000000000000000000000000000000BA
:10083E0000000000000000000000000000000000AA
:10084E00000000000000000000000000000000009A
:10085E00000000000000000000000000000000008A
:10086E00000000000000000000000000000000007A
:10087E00000000000000000000000000000000006A
:10088E00000000000000000000000000000000005A
:10089E00000000000000000000000000000000004A
:1008AE00000000000000000000000000000000003A
:1008BE00000000000000000000000000000000002A
:1008CE00000000000000000000000000000000001A
:1008DE00000000000000000000000000000000000A
:1008EE0000000000000000000000000000000000FA
:1008FE0000000000000000000000000000000000EA
:10090E0000000000000000000000000000000000D9
:10091E0000000000000000000000000000000000C9
:10092E0000000000000000000000000000000000B9
:10093E0000000000000000000000000000000000A9
:10094E000000000000000000000000000000000099
:10095E000000000000000000000000000000000089
:10096E000000000000000000000000000000000079
:10097E000000000000000000000000000000000069
:10098E000000000000000000000000000000000059
:10099E000000000000000000000000000000000049
:1009AE000000000000000000000000000000000039
:1009BE000000000000000000000000000000000029
:1009CE000000000000000000000000000000000019
:1009DE000000000000000000000000000000000009
:1009EE0000000000000000000000000000000000F9
:1009FE0000000000000000000000000000000000E9
:100A0E0000000000000000000000000000000000D8
:100A1E0000000000000000000000000000000000C8
:100A2E0000000000000000000000000000000000B8
:100A3E0000000000000000000000000000000000A8
:100A4E000000000000000000000000000000000098
:100A5E000000000000000000000000000000000088
:100A6E000000000000000000000000000000000078
:100A7E000000000000000000000000000000000068
:100A8E000000000000000000000000000000000058
:100A9E000000000000000000000000000000000048
:100AAE000000000000000000000000000000000038
:100ABE000000000000000000000000000000000028
:100ACE000000000000000000000000000000000018
:100ADE000000000000000000000000000000000008
:100AEE0000000000000000000000000000000000F8
:100AFE0000000000000000000000000000000000E8
:100B0E0000000000000000000000000000000000D7
:100B1E0000000000000000000000000000000000C7
:100B2E0000000000000000000000000000000000B7
:100B3E0000000000000000000000000000000000A7
:100B4E000000000000000000000000000000000097
:100B5E000000000000000000000000000000000087
:100B6E000000000000000000000000000000000077
:100B7E000000000000000000000000000000000067
:100B8E000000000000000000000000000000000057
:100B9E000000000000000000000000000000000047
:100BAE000000000000000000000000000000000037
:100BBE000000000000000000000000000000000027
:100BCE000000000000000000000000000000000017
:100BDE000000000000000000000000000000000007
:100BEE0000000000000000000000000000000000F7
:100BFE0000000000000000000000000000000000E7
:100C0E0000000000000000000000000000000000D6
:100C1E0000000000000000000000000000000000C6
:100C2E0000000000000000000000000000000000B6
:100C3E0000000000000000000000000000000000A6
:100C4E000000000000000000000000000000000096
:100C5E000000000000000000000000000000000086
:100C6E000000000000000000000000000000000076
:100C7E000000000000000000000000000000000066
:100C8E000000000000000000000000000000000056
:100C9E000000000000000000000000000000000046
:100CAE000000000000000000000000000000000036
:100CBE000000000000000000000000000000000026
:100CCE000000000000000000000000000000000016
:100CDE000000000000000000000000000000000006
:100CEE0000000000000000000000000000000000F6
:100CFE0000000000000000000000000000000000E6
:100D0E0000000000000000000000000000000000D5
:100D1E0000000000000000000000000000000000C5
:100D2E0000000000000000000000000000000000B5
:100D3E0000000000000000000000000000000000A5
:100D4E000000000000000000000000000000000095
:100D5E000000000000000000000000000000000085
:100D6E000000000000000000000000000000000075
:100D7E000000000000000000000000000000000065
:100D8E000000000000000000000000000000000055
:100D9E000000000000000000000000000000000045
:100DAE000000000000000000000000000000000035
:100DBE000000000000000000000000000000000025
:100DCE000000000000000000000000000000000015
:100DDE000000000000000000000000000000000005
:100DEE0000000000000000000000000000000000F5
:100DFE0000000000000000000000000000000000E5
:100E0E0000000000000000000000000000000000D4
:100E1E0000000000000000000000000000000000C4
:100E2E0000000000000000000000000000000000B4
:100E3E0000000000000000000000000000000000A4
:100E4E000000000000000000000000000000000094
:100E5E000000000000000000000000000000000084
:100E6E000000000000000000000000000000000074
:100E7E000000000000000000000000000000000064
:100E8E000000000000000000000000000000000054
:100E9E000000000000000000000000000000000044
:100EAE000000000000000000000000000000000034
:100EBE000000000000000000000000000000000024
:100ECE000000000000000000000000000000000014
:100EDE000000000000000000000000000000000004
:100EEE0000000000000000000000000000000000F4
:100EFE0000000000000000000000000000000000E4
:100F0E0000000000000000000000000000000000D3
:100F1E0000000000000000000000000000000000C3
:100F2E0000000000000000000000000000000000B3
:100F3E0000000000000000000000000000000000A3
:100F4E000000000000000000000000000000000093
:100F5E000000000000000000000000000000000083
:100F6E000000000000000000000000000000000073
:100F7E000000000000000000000000000000000063
:100F8E000000000000000000000000000000000053
:100F9E000000000000000000000000000000000043
:100FAE00000000000001000300000000000000002F
:100FBE00000001010003000000000000000000001E
:100FCE000201000300000000000000000000030109
:100FDE0000030000000000000000000004010003F8
:100FEE0000000000000000000000050100010000EC
:100FFE0000000000000000000601000100000000DB
:10100E0000000000000007010003000000000000C7
:10101E0000000000080100010000000000000000B8
:10102E0000000901000300000000000000000000A5
:10103E000A010003000000000000000000000B0188
:10104E000001000000000000000000008800000009
:10105E000000010203040002000000000000000076
:10106E000000000000000000020000000000000070
:10107E000000000000000000000000000000000062
:10108E00000000000000000000000000030000004F
:10109E00000000000000000300000000312E302E82
:1010AE00302E3000000000000000000000000000A4
:1010BE000000000000000000000000000000000022
:1010CE000000000000000000000000000000010011
:0210DE00000010
:1010E0007100900016BF04088C019F0108E50308F9
:1010F000F2FCF8FF0E62CF800804D716E503088CD7
:1011000002088C03BF0408340010CF02080F8C06BD
:101110009F81084C03DD2415080E00081E01BF0046
:1011200008148C04088C05BF06081251004E06DD19
:101130001BF98108FCF8FF0E62EF20300004BF06A7
:10114000088C003129F005BF0008EFE5FB0408001A
:10115000899BA7A5B3F643DFF75100D7FC04F00E37
:0E11600062D7FC08F00E71089000F58008D7E9
:020000023000CC
:10FE0000FFFFFFFFFFFFFFFFFFFFFFFFFFFFFFFF02
:10FE1000FFFFFFFFFFFFFFFFFFFFFFFFFFFFFFFFF2
:10FE2000FFFFFFFFFFFFFFFFFFFFFFFFFFFFFFFFE2
:10FE3000FFFFFFFFFFFFFFFFFFFFFFFFFFFFFFFFD2
:10FE4000FFFFFFFFFFFFFFFFFFFFFFFFFFFFFFFFC2
:10FE5000FFFFFFFFFFFFFFFFFFFFFFFFFFFFFFFFB2
:10FE6000FFFFFFFFFFFFFFFFFFFFFFFFFFFFFFFFA2
:10FE7000FFFFFFFFFFFFFFFFFFFFFFFFFFFFFFFF92
:10FE8000FFFFFFFFFFFFFFFFFFFFFFFFFFFFFFFF82
:10FE9000FFFFFFFFFFFFFFFFFFFFFFFFFFFFFFFF72
:10FEA000FFFFFFFFFFFFFFFFFFFFFFFFFFFFFFFF62
:10FEB000FFFFFFFFFFFFFFFFFFFFFFFFFFFFFFFF52
:10FEC000FFFFFFFFFFFFFFFFFFFFFFFFFFFFFFFF42
:10FED000FFFFFFFFFFFFFFFFFFFFFFFFFFFFFFFF32
:10FEE000FFFFFFFFFFFFFFFFFFFFFFFFFFFFFFFF22
:10FEF000FFFFFFFFFFFFFFFFFFFFFFFFFFFFFFFF12
:10FF0000FFFFFFFFFFFFFFFFFFFFFFFFFFFFFFFF01
:10FF1000FFFFFFFFFFFFFFFFFFFFFFFFFFFFFFFFF1
:10FF2000FFFFFFFFFFFFFFFFFFFFFFFFFFFFFFFFE1
:10FF3000FFFFFFFFFFFFFFFFFFFFFFFFFFFFFFFFD1
:10FF4000FFFFFFFFFFFFFFFFFFFFFFFFFFFFFFFFC1
:10FF5000FFFFFFFFFFFFFFFFFFFFFFFFFFFFFFFFB1
:10FF6000FFFFFFFFFFFFFFFFFFFFFFFFFFFFFFFFA1
:10FF7000FFFFFFFFFFFFFFFFFFFFFFFFFFFFFFFF91
:10FF8000FFFFFFFFFFFFFFFFFFFFFFFFFFFFFFFF81
:10FF9000FFFFFFFFFFFFFFFFFFFFFFFFFFFFFFFF71
:10FFA000FFFFFFFFFFFFFFFFFFFFFFFFFFFFFFFF61
:10FFB000FFFFFFFFFFFFFFFFFFFFFFFFFFFFFFFF51
:10FFC000FFFFFFFFFFFFFFFFFFFFFFFFFFFFFFFF41
:10FFD000FFFFFFFFFFFFFFFFFFFFFFFFFFFFFFFF31
:10FFE000FFFFFFFFFFFFFFFFFFFFFFFFFFFFFFFF21
:10FFF000FFFFFFFFFFFFFFFFFFFFFFFFFFFFFFFF11
:00000001FF
